146a795a738b7309e20a68e5ea518558bd974b2f	2018-06-04 07:45:27	172.19.0.5	User Login	Sukses
dbf0e2db001dd0d516eb83ce332e88ed31359f6a	2018-06-04 08:51:23	192.168.89.48	User Login	Sukses
dbf0e2db001dd0d516eb83ce332e88ed31359f6a	2018-06-04 08:52:03	192.168.89.48	User Logout	Sukses
e2274a53e9109f4c736a4da4128f317355e19e4f	2018-06-04 09:08:10	172.19.0.5	User Login	Sukses
e2274a53e9109f4c736a4da4128f317355e19e4f	2018-06-04 09:09:38	172.19.0.5	User Logout	Sukses
146a795a738b7309e20a68e5ea518558bd974b2f	2018-06-04 09:49:02	172.19.0.5	User Logout	Sukses
146a795a738b7309e20a68e5ea518558bd974b2f	2018-06-04 09:51:05	172.19.0.5	User Login	Sukses
146a795a738b7309e20a68e5ea518558bd974b2f	2018-06-04 09:57:02	172.19.0.5	User Login	Sukses
146a795a738b7309e20a68e5ea518558bd974b2f	2018-06-04 10:03:44	172.19.0.5	Menambah Kertas Kerja Dengan ID d4834a3e16aaf4f2b188d045d6dae6d1e4ed7ebe	Sukses
dbf0e2db001dd0d516eb83ce332e88ed31359f6a	2018-06-04 10:05:48	192.168.89.48	User Login	Sukses
dbf0e2db001dd0d516eb83ce332e88ed31359f6a	2018-06-04 10:08:32	192.168.89.48	User Logout	Sukses
4f8af2a22ce1d40d33cf08a0a3d2bd35ae8984d3	2018-06-04 10:10:59	139.192.56.217	User Login	Sukses
bdae6159dc4d3f67b8d835461c3f4020c3e68999	2018-06-04 10:17:03	178.62.89.121	User Login	Sukses
9b44ac8966798da6f357fc1689342e187013cd51	2018-06-04 10:21:06	10.10.100.2	User Login	Sukses
9b44ac8966798da6f357fc1689342e187013cd51	2018-06-04 10:21:17	10.10.100.2	User Logout	Sukses
9b44ac8966798da6f357fc1689342e187013cd51	2018-06-04 10:22:27	10.10.100.2	User Login	Sukses
9b44ac8966798da6f357fc1689342e187013cd51	2018-06-04 10:22:32	10.10.100.2	User Logout	Sukses
bdae6159dc4d3f67b8d835461c3f4020c3e68999	2018-06-04 10:26:10	178.62.89.121	Mengubah Kertas Kerja dengan ID 55b33b970b3af05a59e4695943103c703bf9074d	Sukses
9b44ac8966798da6f357fc1689342e187013cd51	2018-06-04 10:28:05	10.10.100.2	User Login	Sukses
9b44ac8966798da6f357fc1689342e187013cd51	2018-06-04 10:30:37	10.10.100.2	User Logout	Sukses
146a795a738b7309e20a68e5ea518558bd974b2f	2018-06-04 10:31:13	172.19.0.5	Menambah Kertas Kerja Dengan ID dcc7698548b8169427ba4dfc4e935df25942ce09	Sukses
bdae6159dc4d3f67b8d835461c3f4020c3e68999	2018-06-04 10:41:15	178.62.89.121	Menambah Kertas Kerja Dengan ID ee435ee5ecfa70dabc1e384b558bc35b2f05d980	Sukses
4f8af2a22ce1d40d33cf08a0a3d2bd35ae8984d3	2018-06-04 10:44:34	10.10.100.2	User Login	Sukses
35d0daa751af08c870481d426a551cfdb0101ed1	2018-06-04 12:12:36	172.19.0.5	User Login	Sukses
bdae6159dc4d3f67b8d835461c3f4020c3e68999	2018-06-04 13:41:43	172.19.0.5	User Login	Sukses
bdae6159dc4d3f67b8d835461c3f4020c3e68999	2018-06-04 13:51:44	172.19.0.5	Mengubah Kertas Kerja dengan ID b901f936d8914112837fa7e07106788348917cad	Sukses
bdae6159dc4d3f67b8d835461c3f4020c3e68999	2018-06-04 14:10:52	172.19.0.5	Mengubah Kertas Kerja dengan ID b901f936d8914112837fa7e07106788348917cad	Sukses
bdae6159dc4d3f67b8d835461c3f4020c3e68999	2018-06-04 14:15:25	178.62.113.166	User Login	Sukses
bdae6159dc4d3f67b8d835461c3f4020c3e68999	2018-06-04 14:19:05	178.62.113.166	Mengubah Kertas Kerja dengan ID b901f936d8914112837fa7e07106788348917cad	Sukses
bdae6159dc4d3f67b8d835461c3f4020c3e68999	2018-06-04 14:47:33	178.62.113.166	Menambah Kertas Kerja Dengan ID c5d045728dd03041a89b1eff69a452bf4c280cc7	Sukses
bdae6159dc4d3f67b8d835461c3f4020c3e68999	2018-06-04 14:48:45	178.62.113.166	User Logout	Sukses
