7bb4c5c91c49d2caccadd8a0ea7e64233fbcf89b	2018-07-11 10:22:56	172.19.0.5	User Login	Sukses
4f8af2a22ce1d40d33cf08a0a3d2bd35ae8984d3	2018-07-11 10:46:06	114.125.41.100	User Login	Sukses
7bb4c5c91c49d2caccadd8a0ea7e64233fbcf89b	2018-07-11 15:55:37	172.19.0.5	User Logout	Sukses
