6e551237b72a7c7343932f65e9b8cd00123e165f	2018-01-31 08:31:51	192.168.89.72	User Login	Sukses
6e551237b72a7c7343932f65e9b8cd00123e165f	2018-01-31 08:53:02	192.168.89.72	Menambah Intro Program Audit ID 27132d01b390a927c213a2fbbf3f143d676590c6	Sukses
6e551237b72a7c7343932f65e9b8cd00123e165f	2018-01-31 09:06:53	192.168.89.72	Mengubah Intro Program Audit dengan ID 27132d01b390a927c213a2fbbf3f143d676590c6	Sukses
6e551237b72a7c7343932f65e9b8cd00123e165f	2018-01-31 09:12:35	192.168.89.72	Mengubah Intro Program Audit dengan ID 27132d01b390a927c213a2fbbf3f143d676590c6	Sukses
6e551237b72a7c7343932f65e9b8cd00123e165f	2018-01-31 09:16:38	192.168.89.72	Menambah Program Audit ID 25555c39c419dfaf87744c5cf79b91cc1bc27768	Sukses
6e551237b72a7c7343932f65e9b8cd00123e165f	2018-01-31 09:16:58	192.168.89.72	Mengubah Status Program Audit dengan ID 25555c39c419dfaf87744c5cf79b91cc1bc27768	Sukses
6e551237b72a7c7343932f65e9b8cd00123e165f	2018-01-31 09:18:51	192.168.89.72	User Logout	Sukses
4359b849248b6a45e0a622f18375e5bec578d0f7	2018-01-31 09:19:06	192.168.89.72	User Login	Sukses
4359b849248b6a45e0a622f18375e5bec578d0f7	2018-01-31 09:32:41	192.168.89.72	Mengubah Status Program Audit dengan ID 25555c39c419dfaf87744c5cf79b91cc1bc27768	Sukses
4359b849248b6a45e0a622f18375e5bec578d0f7	2018-01-31 09:36:49	192.168.89.72	User Logout	Sukses
6e551237b72a7c7343932f65e9b8cd00123e165f	2018-01-31 09:37:03	192.168.89.72	User Login	Sukses
41550dc233a13974eee58042241d10a200583f1e	2018-01-31 09:38:14	192.168.89.80	User Login	Sukses
6e551237b72a7c7343932f65e9b8cd00123e165f	2018-01-31 09:38:16	192.168.89.72	Menambah Program Audit ID 59f72ce9e480e1e5f95667602b9402c42ca199c7	Sukses
41550dc233a13974eee58042241d10a200583f1e	2018-01-31 09:38:35	192.168.89.80	User Logout	Sukses
6e551237b72a7c7343932f65e9b8cd00123e165f	2018-01-31 09:38:58	192.168.89.72	User Logout	Sukses
35d0daa751af08c870481d426a551cfdb0101ed1	2018-01-31 09:39:29	192.168.89.80	User Login	Sukses
86586854ae95dcf5b36bbecf06c4aee702000ec2	2018-01-31 09:43:03	192.168.89.72	User Login	Sukses
86586854ae95dcf5b36bbecf06c4aee702000ec2	2018-01-31 09:45:54	192.168.89.72	User Logout	Sukses
6e551237b72a7c7343932f65e9b8cd00123e165f	2018-01-31 09:46:15	192.168.89.72	User Login	Sukses
6e551237b72a7c7343932f65e9b8cd00123e165f	2018-01-31 09:46:46	192.168.89.72	Mengubah Status Program Audit dengan ID 59f72ce9e480e1e5f95667602b9402c42ca199c7	Sukses
6e551237b72a7c7343932f65e9b8cd00123e165f	2018-01-31 09:47:59	192.168.89.72	User Logout	Sukses
35d0daa751af08c870481d426a551cfdb0101ed1	2018-01-31 09:48:12	192.168.89.80	User Logout	Sukses
86586854ae95dcf5b36bbecf06c4aee702000ec2	2018-01-31 09:48:25	192.168.89.72	User Login	Sukses
86586854ae95dcf5b36bbecf06c4aee702000ec2	2018-01-31 09:52:00	192.168.89.72	User Logout	Sukses
6e551237b72a7c7343932f65e9b8cd00123e165f	2018-01-31 09:52:17	192.168.89.72	User Login	Sukses
6e551237b72a7c7343932f65e9b8cd00123e165f	2018-01-31 09:53:37	192.168.89.72	User Logout	Sukses
4359b849248b6a45e0a622f18375e5bec578d0f7	2018-01-31 09:53:49	192.168.89.72	User Login	Sukses
4359b849248b6a45e0a622f18375e5bec578d0f7	2018-01-31 09:54:29	192.168.89.72	Mengubah Status Program Audit dengan ID 59f72ce9e480e1e5f95667602b9402c42ca199c7	Sukses
4359b849248b6a45e0a622f18375e5bec578d0f7	2018-01-31 09:54:44	192.168.89.72	User Logout	Sukses
e2274a53e9109f4c736a4da4128f317355e19e4f	2018-01-31 09:55:00	192.168.89.72	User Login	Sukses
e2274a53e9109f4c736a4da4128f317355e19e4f	2018-01-31 10:04:59	192.168.89.72	User Logout	Sukses
6e551237b72a7c7343932f65e9b8cd00123e165f	2018-01-31 10:05:13	192.168.89.72	User Login	Sukses
6e551237b72a7c7343932f65e9b8cd00123e165f	2018-01-31 10:16:22	192.168.89.72	User Logout	Sukses
86586854ae95dcf5b36bbecf06c4aee702000ec2	2018-01-31 10:16:57	192.168.89.72	User Login	Sukses
9b44ac8966798da6f357fc1689342e187013cd51	2018-01-31 10:18:18	10.10.100.2	User Login	Sukses
86586854ae95dcf5b36bbecf06c4aee702000ec2	2018-01-31 10:23:09	192.168.89.72	User Logout	Sukses
6e551237b72a7c7343932f65e9b8cd00123e165f	2018-01-31 10:23:29	192.168.89.72	User Login	Sukses
9b44ac8966798da6f357fc1689342e187013cd51	2018-01-31 10:28:24	10.10.100.2	User Login	Sukses
6e551237b72a7c7343932f65e9b8cd00123e165f	2018-01-31 13:55:27	192.168.89.72	User Login	Sukses
6e551237b72a7c7343932f65e9b8cd00123e165f	2018-01-31 13:59:17	192.168.89.72	Menambah Program Audit ID 99ac0d9abe4a647e4654c3532885b93d73e4ffa5	Sukses
6e551237b72a7c7343932f65e9b8cd00123e165f	2018-01-31 13:59:31	192.168.89.72	User Logout	Sukses
4359b849248b6a45e0a622f18375e5bec578d0f7	2018-01-31 13:59:46	192.168.89.72	User Login	Sukses
4359b849248b6a45e0a622f18375e5bec578d0f7	2018-01-31 14:02:14	192.168.89.72	User Logout	Sukses
6e551237b72a7c7343932f65e9b8cd00123e165f	2018-01-31 14:02:26	192.168.89.72	User Login	Sukses
6e551237b72a7c7343932f65e9b8cd00123e165f	2018-01-31 14:02:57	192.168.89.72	User Logout	Sukses
6e551237b72a7c7343932f65e9b8cd00123e165f	2018-01-31 14:03:10	192.168.89.72	User Login	Sukses
6e551237b72a7c7343932f65e9b8cd00123e165f	2018-01-31 14:03:42	192.168.89.72	Mengubah Status Program Audit dengan ID 198f2e97ccbfb109897a2d3b04656cf2570b9789	Sukses
6e551237b72a7c7343932f65e9b8cd00123e165f	2018-01-31 14:03:59	192.168.89.72	User Logout	Sukses
4359b849248b6a45e0a622f18375e5bec578d0f7	2018-01-31 14:04:11	192.168.89.72	User Login	Sukses
4359b849248b6a45e0a622f18375e5bec578d0f7	2018-01-31 14:06:10	192.168.89.72	User Logout	Sukses
6e551237b72a7c7343932f65e9b8cd00123e165f	2018-01-31 14:06:21	192.168.89.72	User Login	Sukses
6e551237b72a7c7343932f65e9b8cd00123e165f	2018-01-31 14:07:02	192.168.89.72	Mengubah Status Program Audit dengan ID 99ac0d9abe4a647e4654c3532885b93d73e4ffa5	Sukses
6e551237b72a7c7343932f65e9b8cd00123e165f	2018-01-31 14:11:49	192.168.89.72	User Logout	Sukses
4359b849248b6a45e0a622f18375e5bec578d0f7	2018-01-31 14:11:58	192.168.89.72	User Login	Sukses
4359b849248b6a45e0a622f18375e5bec578d0f7	2018-01-31 14:13:44	192.168.89.72	Mengubah Status Program Audit dengan ID 99ac0d9abe4a647e4654c3532885b93d73e4ffa5	Sukses
4359b849248b6a45e0a622f18375e5bec578d0f7	2018-01-31 14:14:08	192.168.89.72	User Logout	Sukses
e2274a53e9109f4c736a4da4128f317355e19e4f	2018-01-31 14:14:19	192.168.89.72	User Login	Sukses
e2274a53e9109f4c736a4da4128f317355e19e4f	2018-01-31 14:19:12	192.168.89.72	Menambah Kertas Kerja Dengan ID 99ac0d9abe4a647e4654c3532885b93d73e4ffa5	Sukses
e2274a53e9109f4c736a4da4128f317355e19e4f	2018-01-31 14:19:26	192.168.89.72	User Logout	Sukses
6e551237b72a7c7343932f65e9b8cd00123e165f	2018-01-31 14:19:36	192.168.89.72	User Login	Sukses
6e551237b72a7c7343932f65e9b8cd00123e165f	2018-01-31 14:21:08	192.168.89.72	User Logout	Sukses
e2274a53e9109f4c736a4da4128f317355e19e4f	2018-01-31 14:21:18	192.168.89.72	User Login	Sukses
e2274a53e9109f4c736a4da4128f317355e19e4f	2018-01-31 14:23:02	192.168.89.72	Mengomentari Kertas Kerja dengan ID c2f1d8bb68be9eb3879482addf796e4c580dd775	Sukses
e2274a53e9109f4c736a4da4128f317355e19e4f	2018-01-31 14:23:08	192.168.89.72	User Logout	Sukses
6e551237b72a7c7343932f65e9b8cd00123e165f	2018-01-31 14:23:19	192.168.89.72	User Login	Sukses
6e551237b72a7c7343932f65e9b8cd00123e165f	2018-01-31 14:24:56	192.168.89.72	Mengomentari Kertas Kerja dengan ID c2f1d8bb68be9eb3879482addf796e4c580dd775	Sukses
6e551237b72a7c7343932f65e9b8cd00123e165f	2018-01-31 14:25:49	192.168.89.72	User Logout	Sukses
e2274a53e9109f4c736a4da4128f317355e19e4f	2018-01-31 14:25:59	192.168.89.72	User Login	Sukses
41550dc233a13974eee58042241d10a200583f1e	2018-01-31 14:34:39	192.168.89.80	User Login	Sukses
41550dc233a13974eee58042241d10a200583f1e	2018-01-31 14:35:56	192.168.89.80	Menambah Program Audit ID 26823ef1382390629051a54e6d848c870420cac6	Sukses
41550dc233a13974eee58042241d10a200583f1e	2018-01-31 14:36:49	192.168.89.80	Mengubah Status Program Audit dengan ID 26823ef1382390629051a54e6d848c870420cac6	Sukses
41550dc233a13974eee58042241d10a200583f1e	2018-01-31 14:37:04	192.168.89.80	User Logout	Sukses
2f24604c659f87c506b338358340100d8ffd143a	2018-01-31 14:37:09	192.168.89.80	User Login	Sukses
2f24604c659f87c506b338358340100d8ffd143a	2018-01-31 14:37:53	192.168.89.80	Mengubah Status Program Audit dengan ID 26823ef1382390629051a54e6d848c870420cac6	Sukses
2f24604c659f87c506b338358340100d8ffd143a	2018-01-31 14:38:12	192.168.89.80	User Logout	Sukses
bf8dd7f5c663be1ff5d87fbb02541f874ccf1dca	2018-01-31 14:39:19	192.168.89.80	User Login	Sukses
41550dc233a13974eee58042241d10a200583f1e	2018-01-31 14:40:51	192.168.89.80	User Login	Sukses
41550dc233a13974eee58042241d10a200583f1e	2018-01-31 14:42:51	192.168.89.80	Menambah Program Audit ID b1ab7cc17abb74da7f40c3a32b17be5b2bbf12b5	Sukses
41550dc233a13974eee58042241d10a200583f1e	2018-01-31 14:43:28	192.168.89.80	Mengubah Status Program Audit dengan ID b1ab7cc17abb74da7f40c3a32b17be5b2bbf12b5	Sukses
41550dc233a13974eee58042241d10a200583f1e	2018-01-31 14:43:35	192.168.89.80	User Logout	Sukses
2f24604c659f87c506b338358340100d8ffd143a	2018-01-31 14:43:40	192.168.89.80	User Login	Sukses
2f24604c659f87c506b338358340100d8ffd143a	2018-01-31 14:44:18	192.168.89.80	Mengubah Status Program Audit dengan ID b1ab7cc17abb74da7f40c3a32b17be5b2bbf12b5	Sukses
2f24604c659f87c506b338358340100d8ffd143a	2018-01-31 14:44:28	192.168.89.80	User Logout	Sukses
41a01b7f8a96b3daa702f3e4b6af404683f91553	2018-01-31 14:44:36	192.168.89.80	User Login	Sukses
41a01b7f8a96b3daa702f3e4b6af404683f91553	2018-01-31 14:46:11	192.168.89.80	Menambah Kertas Kerja Dengan ID b1ab7cc17abb74da7f40c3a32b17be5b2bbf12b5	Sukses
41a01b7f8a96b3daa702f3e4b6af404683f91553	2018-01-31 14:47:03	192.168.89.80	Mengomentari Kertas Kerja dengan ID fbc788312707cf711955298364bd533848a9c365	Sukses
41a01b7f8a96b3daa702f3e4b6af404683f91553	2018-01-31 14:47:13	192.168.89.80	User Logout	Sukses
41550dc233a13974eee58042241d10a200583f1e	2018-01-31 14:47:18	192.168.89.80	User Login	Sukses
e2274a53e9109f4c736a4da4128f317355e19e4f	2018-01-31 14:48:21	192.168.89.72	User Logout	Sukses
6e551237b72a7c7343932f65e9b8cd00123e165f	2018-01-31 14:48:33	192.168.89.72	User Login	Sukses
41550dc233a13974eee58042241d10a200583f1e	2018-01-31 14:48:52	192.168.89.80	Mengomentari Kertas Kerja dengan ID fbc788312707cf711955298364bd533848a9c365	Sukses
41550dc233a13974eee58042241d10a200583f1e	2018-01-31 14:49:02	192.168.89.80	User Logout	Sukses
41a01b7f8a96b3daa702f3e4b6af404683f91553	2018-01-31 14:49:07	192.168.89.80	User Login	Sukses
6e551237b72a7c7343932f65e9b8cd00123e165f	2018-01-31 14:52:28	192.168.89.72	Menambah Program Audit ID c8e6c12d0fffb24387f3cdeec91020e922a315a5	Sukses
6e551237b72a7c7343932f65e9b8cd00123e165f	2018-01-31 14:52:35	192.168.89.72	User Logout	Sukses
4359b849248b6a45e0a622f18375e5bec578d0f7	2018-01-31 14:52:49	192.168.89.72	User Login	Sukses
4359b849248b6a45e0a622f18375e5bec578d0f7	2018-01-31 14:53:34	192.168.89.72	User Logout	Sukses
6e551237b72a7c7343932f65e9b8cd00123e165f	2018-01-31 14:53:45	192.168.89.72	User Login	Sukses
6e551237b72a7c7343932f65e9b8cd00123e165f	2018-01-31 14:54:40	192.168.89.72	Mengubah Status Program Audit dengan ID c8e6c12d0fffb24387f3cdeec91020e922a315a5	Sukses
6e551237b72a7c7343932f65e9b8cd00123e165f	2018-01-31 14:54:52	192.168.89.72	User Logout	Sukses
4359b849248b6a45e0a622f18375e5bec578d0f7	2018-01-31 14:55:09	192.168.89.72	User Login	Sukses
4359b849248b6a45e0a622f18375e5bec578d0f7	2018-01-31 14:57:33	192.168.89.72	Mengubah Status Program Audit dengan ID c8e6c12d0fffb24387f3cdeec91020e922a315a5	Sukses
4359b849248b6a45e0a622f18375e5bec578d0f7	2018-01-31 14:57:57	192.168.89.72	User Logout	Sukses
6e551237b72a7c7343932f65e9b8cd00123e165f	2018-01-31 14:58:07	192.168.89.72	User Login	Sukses
6e551237b72a7c7343932f65e9b8cd00123e165f	2018-01-31 15:19:19	192.168.89.72	Mengubah Program Audit dengan ID c8e6c12d0fffb24387f3cdeec91020e922a315a5	Sukses
