4f8af2a22ce1d40d33cf08a0a3d2bd35ae8984d3	2018-02-13 05:57:19	118.136.38.46	User Login	Sukses
9b44ac8966798da6f357fc1689342e187013cd51	2018-02-13 06:24:18	10.10.100.2	User Login	Sukses
9b44ac8966798da6f357fc1689342e187013cd51	2018-02-13 06:44:27	10.10.100.2	Berhasil menambah tanggapan auditee!	Sukses
9b44ac8966798da6f357fc1689342e187013cd51	2018-02-13 06:47:59	10.10.100.2	Berhasil menambah tanggapan auditee!	Sukses
9b44ac8966798da6f357fc1689342e187013cd51	2018-02-13 07:00:46	10.10.100.2	User Logout	Sukses
4f8af2a22ce1d40d33cf08a0a3d2bd35ae8984d3	2018-02-13 07:02:17	10.10.100.2	User Login	Sukses
4f8af2a22ce1d40d33cf08a0a3d2bd35ae8984d3	2018-02-13 07:02:47	10.10.100.2	Mengubah Data User ID 4f8af2a22ce1d40d33cf08a0a3d2bd35ae8984d3	Sukses
4f8af2a22ce1d40d33cf08a0a3d2bd35ae8984d3	2018-02-13 07:02:52	10.10.100.2	User Logout	Sukses
4f8af2a22ce1d40d33cf08a0a3d2bd35ae8984d3	2018-02-13 07:02:59	10.10.100.2	User Login	Sukses
9b44ac8966798da6f357fc1689342e187013cd51	2018-02-13 07:04:22	10.10.100.2	User Login	Sukses
9b44ac8966798da6f357fc1689342e187013cd51	2018-02-13 07:06:10	10.10.100.2	Mengubah Anggota id b3ba9df9fe94b0930f1f126f576b1cf40d9bad8c	Sukses
4f8af2a22ce1d40d33cf08a0a3d2bd35ae8984d3	2018-02-13 07:07:15	10.10.100.2	Menambah Program Audit ID 2074385d7d57e1e1a1b5be634cd5823017e06efe	Sukses
4f8af2a22ce1d40d33cf08a0a3d2bd35ae8984d3	2018-02-13 07:07:32	10.10.100.2	Mengubah Status Program Audit dengan ID 2074385d7d57e1e1a1b5be634cd5823017e06efe	Sukses
9b44ac8966798da6f357fc1689342e187013cd51	2018-02-13 07:08:56	10.10.100.2	Menambah 1234567567898765 - dalnis.Sebagai Auditor	Sukses
9b44ac8966798da6f357fc1689342e187013cd51	2018-02-13 07:09:14	10.10.100.2	Menambah User root	Sukses
9b44ac8966798da6f357fc1689342e187013cd51	2018-02-13 07:09:37	10.10.100.2	Mengubah Anggota id 0ab038fa2414855e590533ab8785951b3d25fb0f	Sukses
4f8af2a22ce1d40d33cf08a0a3d2bd35ae8984d3	2018-02-13 07:09:46	10.10.100.2	User Logout	Sukses
b184c5154eadd80d2ee51923b3a9b002b67ebd44	2018-02-13 07:09:54	10.10.100.2	User Login	Sukses
b184c5154eadd80d2ee51923b3a9b002b67ebd44	2018-02-13 07:10:17	10.10.100.2	Mengubah Status Program Audit dengan ID 2074385d7d57e1e1a1b5be634cd5823017e06efe	Sukses
b184c5154eadd80d2ee51923b3a9b002b67ebd44	2018-02-13 07:10:31	10.10.100.2	User Logout	Sukses
4f8af2a22ce1d40d33cf08a0a3d2bd35ae8984d3	2018-02-13 07:10:38	10.10.100.2	User Login	Sukses
4f8af2a22ce1d40d33cf08a0a3d2bd35ae8984d3	2018-02-13 07:11:23	10.10.100.2	Menambah Kertas Kerja Dengan ID 2074385d7d57e1e1a1b5be634cd5823017e06efe	Sukses
4f8af2a22ce1d40d33cf08a0a3d2bd35ae8984d3	2018-02-13 07:11:42	10.10.100.2	Mengomentari Kertas Kerja dengan ID 0f945b0a8dd8fcb271cf1ce11c48175af23cf87b	Sukses
4f8af2a22ce1d40d33cf08a0a3d2bd35ae8984d3	2018-02-13 07:11:55	10.10.100.2	Mengomentari Kertas Kerja dengan ID 0f945b0a8dd8fcb271cf1ce11c48175af23cf87b	Sukses
4f8af2a22ce1d40d33cf08a0a3d2bd35ae8984d3	2018-02-13 07:12:49	10.10.100.2	Menambah Temuan No TEM012	Sukses
4f8af2a22ce1d40d33cf08a0a3d2bd35ae8984d3	2018-02-13 07:13:20	10.10.100.2	User Logout	Sukses
b184c5154eadd80d2ee51923b3a9b002b67ebd44	2018-02-13 07:13:29	10.10.100.2	User Login	Sukses
b184c5154eadd80d2ee51923b3a9b002b67ebd44	2018-02-13 07:15:27	10.10.100.2	Menambah Rekomendasi dengan ID caeb1995515a5824945a53944b0517857ae0164c	Sukses
9b44ac8966798da6f357fc1689342e187013cd51	2018-02-13 07:16:16	10.10.100.2	Mengubah Anggota id 0ab038fa2414855e590533ab8785951b3d25fb0f	Sukses
b184c5154eadd80d2ee51923b3a9b002b67ebd44	2018-02-13 07:16:24	10.10.100.2	User Logout	Sukses
b184c5154eadd80d2ee51923b3a9b002b67ebd44	2018-02-13 07:16:31	10.10.100.2	User Login	Sukses
9b44ac8966798da6f357fc1689342e187013cd51	2018-02-13 07:16:48	10.10.100.2	Mengubah Anggota id 0ab038fa2414855e590533ab8785951b3d25fb0f	Sukses
9b44ac8966798da6f357fc1689342e187013cd51	2018-02-13 07:17:12	10.10.100.2	Mengubah Anggota id b3ba9df9fe94b0930f1f126f576b1cf40d9bad8c	Sukses
b184c5154eadd80d2ee51923b3a9b002b67ebd44	2018-02-13 07:17:16	10.10.100.2	User Logout	Sukses
4f8af2a22ce1d40d33cf08a0a3d2bd35ae8984d3	2018-02-13 07:17:29	10.10.100.2	User Login	Sukses
9b44ac8966798da6f357fc1689342e187013cd51	2018-02-13 07:17:44	10.10.100.2	Mengubah Data User ID 4f8af2a22ce1d40d33cf08a0a3d2bd35ae8984d3	Sukses
4f8af2a22ce1d40d33cf08a0a3d2bd35ae8984d3	2018-02-13 07:17:49	10.10.100.2	User Logout	Sukses
4f8af2a22ce1d40d33cf08a0a3d2bd35ae8984d3	2018-02-13 07:17:54	10.10.100.2	User Login	Sukses
4f8af2a22ce1d40d33cf08a0a3d2bd35ae8984d3	2018-02-13 07:18:32	10.10.100.2	Mengomentari Temuan dengan ID 47d6cf119e7bedee7389e9c824488a6cff4cbc64	Sukses
9b44ac8966798da6f357fc1689342e187013cd51	2018-02-13 07:26:37	10.10.100.2	User Login	Sukses
9b44ac8966798da6f357fc1689342e187013cd51	2018-02-13 07:45:08	118.136.38.46	User Login	Sukses
9b44ac8966798da6f357fc1689342e187013cd51	2018-02-13 07:45:49	118.136.38.46	Berhasil menambah tanggapan auditee!	Sukses
4f8af2a22ce1d40d33cf08a0a3d2bd35ae8984d3	2018-02-13 07:49:24	10.10.100.2	User Login	Sukses
4f8af2a22ce1d40d33cf08a0a3d2bd35ae8984d3	2018-02-13 07:50:32	10.10.100.2	Mengubah Data User ID 4f8af2a22ce1d40d33cf08a0a3d2bd35ae8984d3	Sukses
4f8af2a22ce1d40d33cf08a0a3d2bd35ae8984d3	2018-02-13 07:50:38	10.10.100.2	User Logout	Sukses
4f8af2a22ce1d40d33cf08a0a3d2bd35ae8984d3	2018-02-13 07:50:43	10.10.100.2	User Login	Sukses
4f8af2a22ce1d40d33cf08a0a3d2bd35ae8984d3	2018-02-13 07:51:35	10.10.100.2	Menambah Temuan No TMN013	Sukses
4f8af2a22ce1d40d33cf08a0a3d2bd35ae8984d3	2018-02-13 07:52:02	10.10.100.2	Menambah Temuan No 34567890	Sukses
9b44ac8966798da6f357fc1689342e187013cd51	2018-02-13 07:54:41	118.136.38.46	User Login	Sukses
9b44ac8966798da6f357fc1689342e187013cd51	2018-02-13 07:55:05	118.136.38.46	Mengubah Anggota id b3ba9df9fe94b0930f1f126f576b1cf40d9bad8c	Sukses
4f8af2a22ce1d40d33cf08a0a3d2bd35ae8984d3	2018-02-13 07:55:54	10.10.100.2	User Logout	Sukses
b184c5154eadd80d2ee51923b3a9b002b67ebd44	2018-02-13 07:55:59	10.10.100.2	User Login	Sukses
9b44ac8966798da6f357fc1689342e187013cd51	2018-02-13 07:56:56	118.136.38.46	Mengubah Data User ID 4f8af2a22ce1d40d33cf08a0a3d2bd35ae8984d3	Sukses
9b44ac8966798da6f357fc1689342e187013cd51	2018-02-13 07:57:36	118.136.38.46	Mengubah Anggota id b3ba9df9fe94b0930f1f126f576b1cf40d9bad8c	Sukses
b184c5154eadd80d2ee51923b3a9b002b67ebd44	2018-02-13 07:57:43	10.10.100.2	User Logout	Sukses
4f8af2a22ce1d40d33cf08a0a3d2bd35ae8984d3	2018-02-13 07:57:47	10.10.100.2	User Login	Sukses
9b44ac8966798da6f357fc1689342e187013cd51	2018-02-13 07:59:38	118.136.38.46	Mengubah Data User ID 4f8af2a22ce1d40d33cf08a0a3d2bd35ae8984d3	Sukses
9b44ac8966798da6f357fc1689342e187013cd51	2018-02-13 07:59:56	118.136.38.46	Mengubah Anggota id b3ba9df9fe94b0930f1f126f576b1cf40d9bad8c	Sukses
4f8af2a22ce1d40d33cf08a0a3d2bd35ae8984d3	2018-02-13 08:00:02	10.10.100.2	User Logout	Sukses
4f8af2a22ce1d40d33cf08a0a3d2bd35ae8984d3	2018-02-13 08:00:07	10.10.100.2	User Login	Sukses
4f8af2a22ce1d40d33cf08a0a3d2bd35ae8984d3	2018-02-13 08:00:49	10.10.100.2	Menambah Rekomendasi dengan ID 3b7c95af64789e762d4b99391a63038279024781	Sukses
4f8af2a22ce1d40d33cf08a0a3d2bd35ae8984d3	2018-02-13 08:01:18	10.10.100.2	Menambah Rekomendasi dengan ID 7eea247101cbcfd8df617275411fb403aa28054b	Sukses
9b44ac8966798da6f357fc1689342e187013cd51	2018-02-13 08:06:03	118.136.38.46	Berhasil menambah tanggapan auditee!	Sukses
9b44ac8966798da6f357fc1689342e187013cd51	2018-02-13 08:06:03	118.136.38.46	Berhasil menambah tanggapan auditee!	Sukses
9b44ac8966798da6f357fc1689342e187013cd51	2018-02-13 08:06:15	118.136.38.46	Berhasil menambah tanggapan auditee!	Sukses
9b44ac8966798da6f357fc1689342e187013cd51	2018-02-13 08:06:15	118.136.38.46	Berhasil menambah tanggapan auditee!	Sukses
4f8af2a22ce1d40d33cf08a0a3d2bd35ae8984d3	2018-02-13 08:07:05	10.10.100.2	Mengubah Temuan Audit No 34567890	Sukses
4f8af2a22ce1d40d33cf08a0a3d2bd35ae8984d3	2018-02-13 08:08:17	10.10.100.2	Mengubah Temuan Audit No TEM012	Sukses
4f8af2a22ce1d40d33cf08a0a3d2bd35ae8984d3	2018-02-13 08:08:28	10.10.100.2	Mengubah Temuan Audit No TMN013	Sukses
b184c5154eadd80d2ee51923b3a9b002b67ebd44	2018-02-13 08:11:41	10.10.100.2	User Login	Sukses
9b44ac8966798da6f357fc1689342e187013cd51	2018-02-13 08:14:02	118.136.38.46	Berhasil menambah tanggapan auditee!	Sukses
9b44ac8966798da6f357fc1689342e187013cd51	2018-02-13 08:14:02	118.136.38.46	Berhasil menambah tanggapan auditee!	Sukses
9b44ac8966798da6f357fc1689342e187013cd51	2018-02-13 08:14:02	118.136.38.46	Berhasil menambah tanggapan auditee!	Sukses
4f8af2a22ce1d40d33cf08a0a3d2bd35ae8984d3	2018-02-13 08:14:50	10.10.100.2	Mengubah Temuan Audit No TMN013	Sukses
9b44ac8966798da6f357fc1689342e187013cd51	2018-02-13 08:15:04	118.136.38.46	Berhasil menambah tanggapan auditee!	Sukses
9b44ac8966798da6f357fc1689342e187013cd51	2018-02-13 08:15:12	118.136.38.46	Berhasil menambah tanggapan auditee!	Sukses
9b44ac8966798da6f357fc1689342e187013cd51	2018-02-13 08:18:21	118.136.38.46	Mengubah Anggota id b3ba9df9fe94b0930f1f126f576b1cf40d9bad8c	Sukses
9b44ac8966798da6f357fc1689342e187013cd51	2018-02-13 08:18:46	118.136.38.46	Mengubah Data User ID 4f8af2a22ce1d40d33cf08a0a3d2bd35ae8984d3	Sukses
9b44ac8966798da6f357fc1689342e187013cd51	2018-02-13 08:22:59	118.136.38.46	Mengubah Data User ID 4f8af2a22ce1d40d33cf08a0a3d2bd35ae8984d3	Sukses
4f8af2a22ce1d40d33cf08a0a3d2bd35ae8984d3	2018-02-13 08:23:16	10.10.100.2	User Logout	Sukses
9b44ac8966798da6f357fc1689342e187013cd51	2018-02-13 08:23:32	118.136.38.46	Mengubah Anggota id b3ba9df9fe94b0930f1f126f576b1cf40d9bad8c	Sukses
4f8af2a22ce1d40d33cf08a0a3d2bd35ae8984d3	2018-02-13 08:23:38	10.10.100.2	User Login	Sukses
4f8af2a22ce1d40d33cf08a0a3d2bd35ae8984d3	2018-02-13 08:24:49	10.10.100.2	Mengubah Temuan Audit No TMN013	Sukses
4f8af2a22ce1d40d33cf08a0a3d2bd35ae8984d3	2018-02-13 08:25:18	10.10.100.2	Mengubah Temuan Audit No 34567890	Sukses
4f8af2a22ce1d40d33cf08a0a3d2bd35ae8984d3	2018-02-13 08:26:59	10.10.100.2	Mengubah Temuan Audit No TEM012	Sukses
9b44ac8966798da6f357fc1689342e187013cd51	2018-02-13 08:32:05	118.136.38.46	User Login	Sukses
9b44ac8966798da6f357fc1689342e187013cd51	2018-02-13 08:32:33	118.136.38.46	Mengubah Anggota id b3ba9df9fe94b0930f1f126f576b1cf40d9bad8c	Sukses
9b44ac8966798da6f357fc1689342e187013cd51	2018-02-13 08:33:42	118.136.38.46	Mengubah Data User ID 4f8af2a22ce1d40d33cf08a0a3d2bd35ae8984d3	Sukses
9b44ac8966798da6f357fc1689342e187013cd51	2018-02-13 08:50:52	118.136.38.46	Berhasil menambah tanggapan auditee!	Sukses
9b44ac8966798da6f357fc1689342e187013cd51	2018-02-13 08:52:04	118.136.38.46	Berhasil menambah tanggapan auditee!	Sukses
4f8af2a22ce1d40d33cf08a0a3d2bd35ae8984d3	2018-02-13 09:01:29	10.10.100.2	Berhasil menambah tanggapan auditee!	Sukses
4f8af2a22ce1d40d33cf08a0a3d2bd35ae8984d3	2018-02-13 09:02:58	10.10.100.2	Mengubah Temuan Audit No TMN013	Sukses
4f8af2a22ce1d40d33cf08a0a3d2bd35ae8984d3	2018-02-13 09:03:41	10.10.100.2	Mengubah Temuan Audit No 34567890	Sukses
4f8af2a22ce1d40d33cf08a0a3d2bd35ae8984d3	2018-02-13 09:03:52	10.10.100.2	Mengubah Temuan Audit No TEM012	Sukses
4f8af2a22ce1d40d33cf08a0a3d2bd35ae8984d3	2018-02-13 09:11:33	10.10.100.2	User Logout	Sukses
4f8af2a22ce1d40d33cf08a0a3d2bd35ae8984d3	2018-02-13 09:11:41	10.10.100.2	User Login	Sukses
4f8af2a22ce1d40d33cf08a0a3d2bd35ae8984d3	2018-02-13 09:12:02	10.10.100.2	User Logout	Sukses
b184c5154eadd80d2ee51923b3a9b002b67ebd44	2018-02-13 09:12:16	10.10.100.2	User Login	Sukses
b184c5154eadd80d2ee51923b3a9b002b67ebd44	2018-02-13 09:13:58	10.10.100.2	Berhasil menambah tanggapan auditee!	Sukses
b184c5154eadd80d2ee51923b3a9b002b67ebd44	2018-02-13 09:13:58	10.10.100.2	Berhasil menambah tanggapan auditee!	Sukses
b184c5154eadd80d2ee51923b3a9b002b67ebd44	2018-02-13 09:13:58	10.10.100.2	Berhasil menambah tanggapan auditee!	Sukses
b184c5154eadd80d2ee51923b3a9b002b67ebd44	2018-02-13 09:15:03	10.10.100.2	User Logout	Sukses
4f8af2a22ce1d40d33cf08a0a3d2bd35ae8984d3	2018-02-13 09:15:11	10.10.100.2	User Login	Sukses
4f8af2a22ce1d40d33cf08a0a3d2bd35ae8984d3	2018-02-13 09:16:50	10.10.100.2	User Logout	Sukses
b184c5154eadd80d2ee51923b3a9b002b67ebd44	2018-02-13 09:16:55	10.10.100.2	User Login	Sukses
b184c5154eadd80d2ee51923b3a9b002b67ebd44	2018-02-13 09:17:46	10.10.100.2	Mengubah Temuan Audit No TMN013	Sukses
b184c5154eadd80d2ee51923b3a9b002b67ebd44	2018-02-13 09:17:56	10.10.100.2	Mengubah Temuan Audit No TEM012	Sukses
b184c5154eadd80d2ee51923b3a9b002b67ebd44	2018-02-13 09:18:25	10.10.100.2	Mengubah Temuan Audit No 34567890	Sukses
4f8af2a22ce1d40d33cf08a0a3d2bd35ae8984d3	2018-02-13 09:39:23	10.10.100.2	User Login	Sukses
4f8af2a22ce1d40d33cf08a0a3d2bd35ae8984d3	2018-02-13 09:41:11	10.10.100.2	Berhasil menambah tanggapan auditee!	Sukses
4f8af2a22ce1d40d33cf08a0a3d2bd35ae8984d3	2018-02-13 09:41:11	10.10.100.2	Berhasil menambah tanggapan auditee!	Sukses
4f8af2a22ce1d40d33cf08a0a3d2bd35ae8984d3	2018-02-13 09:41:11	10.10.100.2	Berhasil menambah tanggapan auditee!	Sukses
b184c5154eadd80d2ee51923b3a9b002b67ebd44	2018-02-13 09:46:18	10.10.100.2	Mengubah Temuan Audit No TMN013	Sukses
4f8af2a22ce1d40d33cf08a0a3d2bd35ae8984d3	2018-02-13 09:49:04	10.10.100.2	Berhasil menambah tanggapan auditee!	Sukses
4f8af2a22ce1d40d33cf08a0a3d2bd35ae8984d3	2018-02-13 09:49:07	10.10.100.2	Berhasil menambah tanggapan auditee!	Sukses
4f8af2a22ce1d40d33cf08a0a3d2bd35ae8984d3	2018-02-13 09:49:09	10.10.100.2	Berhasil menambah tanggapan auditee!	Sukses
4f8af2a22ce1d40d33cf08a0a3d2bd35ae8984d3	2018-02-13 09:50:14	10.10.100.2	Berhasil menambah tanggapan auditee!	Sukses
4f8af2a22ce1d40d33cf08a0a3d2bd35ae8984d3	2018-02-13 09:50:22	10.10.100.2	Berhasil menambah tanggapan auditee!	Sukses
4f8af2a22ce1d40d33cf08a0a3d2bd35ae8984d3	2018-02-13 09:50:42	10.10.100.2	Berhasil menambah tanggapan auditee!	Sukses
4f8af2a22ce1d40d33cf08a0a3d2bd35ae8984d3	2018-02-13 09:51:02	10.10.100.2	Berhasil menambah tanggapan auditee!	Sukses
b184c5154eadd80d2ee51923b3a9b002b67ebd44	2018-02-13 09:55:26	10.10.100.2	Mengubah Temuan Audit No TMN013	Sukses
b184c5154eadd80d2ee51923b3a9b002b67ebd44	2018-02-13 09:55:36	10.10.100.2	Mengubah Temuan Audit No TEM012	Sukses
b184c5154eadd80d2ee51923b3a9b002b67ebd44	2018-02-13 09:55:48	10.10.100.2	Mengubah Temuan Audit No 34567890	Sukses
4f8af2a22ce1d40d33cf08a0a3d2bd35ae8984d3	2018-02-13 10:00:22	10.10.100.2	Berhasil menambah tanggapan auditee!	Sukses
4f8af2a22ce1d40d33cf08a0a3d2bd35ae8984d3	2018-02-13 10:00:26	10.10.100.2	Berhasil menambah tanggapan auditee!	Sukses
4f8af2a22ce1d40d33cf08a0a3d2bd35ae8984d3	2018-02-13 10:00:28	10.10.100.2	Berhasil menambah tanggapan auditee!	Sukses
4f8af2a22ce1d40d33cf08a0a3d2bd35ae8984d3	2018-02-13 10:00:40	10.10.100.2	Berhasil menambah tanggapan auditee!	Sukses
4f8af2a22ce1d40d33cf08a0a3d2bd35ae8984d3	2018-02-13 10:02:04	10.10.100.2	Berhasil menambah tanggapan auditee!	Sukses
4f8af2a22ce1d40d33cf08a0a3d2bd35ae8984d3	2018-02-13 10:02:07	10.10.100.2	Berhasil menambah tanggapan auditee!	Sukses
4f8af2a22ce1d40d33cf08a0a3d2bd35ae8984d3	2018-02-13 10:02:17	10.10.100.2	Berhasil menambah tanggapan auditee!	Sukses
4f8af2a22ce1d40d33cf08a0a3d2bd35ae8984d3	2018-02-13 10:02:19	10.10.100.2	Berhasil menambah tanggapan auditee!	Sukses
4f8af2a22ce1d40d33cf08a0a3d2bd35ae8984d3	2018-02-13 10:02:22	10.10.100.2	Berhasil menambah tanggapan auditee!	Sukses
4f8af2a22ce1d40d33cf08a0a3d2bd35ae8984d3	2018-02-13 10:02:24	10.10.100.2	Berhasil menambah tanggapan auditee!	Sukses
4f8af2a22ce1d40d33cf08a0a3d2bd35ae8984d3	2018-02-13 10:02:25	10.10.100.2	Berhasil menambah tanggapan auditee!	Sukses
b184c5154eadd80d2ee51923b3a9b002b67ebd44	2018-02-13 10:03:47	10.10.100.2	Mengubah Temuan Audit No TMN013	Sukses
b184c5154eadd80d2ee51923b3a9b002b67ebd44	2018-02-13 10:04:07	10.10.100.2	Mengubah Temuan Audit No TEM012	Sukses
b184c5154eadd80d2ee51923b3a9b002b67ebd44	2018-02-13 10:04:29	10.10.100.2	Mengubah Temuan Audit No 34567890	Sukses
4f8af2a22ce1d40d33cf08a0a3d2bd35ae8984d3	2018-02-13 10:05:16	10.10.100.2	Berhasil menambah tanggapan auditee!	Sukses
4f8af2a22ce1d40d33cf08a0a3d2bd35ae8984d3	2018-02-13 10:05:19	10.10.100.2	Berhasil menambah tanggapan auditee!	Sukses
9b44ac8966798da6f357fc1689342e187013cd51	2018-02-13 10:27:32	202.62.19.23	User Login	Sukses
	2018-02-13 10:44:12	118.136.38.46	User Logout	Sukses
4f8af2a22ce1d40d33cf08a0a3d2bd35ae8984d3	2018-02-13 10:48:18	118.136.38.46	User Login	Sukses
4f8af2a22ce1d40d33cf08a0a3d2bd35ae8984d3	2018-02-13 10:49:26	118.136.38.46	Berhasil menambah tanggapan auditee!	Sukses
4f8af2a22ce1d40d33cf08a0a3d2bd35ae8984d3	2018-02-13 10:49:52	118.136.38.46	Berhasil menambah tanggapan auditee!	Sukses
b184c5154eadd80d2ee51923b3a9b002b67ebd44	2018-02-13 11:02:45	10.10.100.2	User Login	Sukses
b184c5154eadd80d2ee51923b3a9b002b67ebd44	2018-02-13 11:03:24	10.10.100.2	Menambah Rekomendasi dengan ID 560e3be35c1651dfc554df518ab306f753fc3a4e	Sukses
4f8af2a22ce1d40d33cf08a0a3d2bd35ae8984d3	2018-02-13 11:04:09	118.136.38.46	User Logout	Sukses
4f8af2a22ce1d40d33cf08a0a3d2bd35ae8984d3	2018-02-13 11:04:21	10.10.100.2	User Login	Sukses
b184c5154eadd80d2ee51923b3a9b002b67ebd44	2018-02-13 11:06:47	10.10.100.2	Menambah Rekomendasi dengan ID eec8a1bf5fc7ab88629add440a264cac72befd4b	Sukses
4f8af2a22ce1d40d33cf08a0a3d2bd35ae8984d3	2018-02-13 11:19:53	10.10.100.2	Berhasil menambah tanggapan auditee!	Sukses
4f8af2a22ce1d40d33cf08a0a3d2bd35ae8984d3	2018-02-13 11:29:29	10.10.100.2	Berhasil menambah tanggapan auditee!	Sukses
4f8af2a22ce1d40d33cf08a0a3d2bd35ae8984d3	2018-02-13 11:29:58	10.10.100.2	Berhasil menambah tanggapan auditee!	Sukses
b184c5154eadd80d2ee51923b3a9b002b67ebd44	2018-02-13 11:34:16	10.10.100.2	Mengubah Temuan Audit No TMN013	Sukses
b184c5154eadd80d2ee51923b3a9b002b67ebd44	2018-02-13 11:34:35	10.10.100.2	Mengubah Temuan Audit No TEM012	Sukses
b184c5154eadd80d2ee51923b3a9b002b67ebd44	2018-02-13 11:34:47	10.10.100.2	Mengubah Temuan Audit No 34567890	Sukses
4f8af2a22ce1d40d33cf08a0a3d2bd35ae8984d3	2018-02-13 11:37:02	10.10.100.2	Berhasil menambah tanggapan auditee!	Sukses
4f8af2a22ce1d40d33cf08a0a3d2bd35ae8984d3	2018-02-13 11:37:02	10.10.100.2	Berhasil menambah tanggapan auditee!	Sukses
4f8af2a22ce1d40d33cf08a0a3d2bd35ae8984d3	2018-02-13 11:37:02	10.10.100.2	Berhasil menambah tanggapan auditee!	Sukses
b184c5154eadd80d2ee51923b3a9b002b67ebd44	2018-02-13 11:43:22	10.10.100.2	Mengubah Temuan Audit No TEM012	Sukses
b184c5154eadd80d2ee51923b3a9b002b67ebd44	2018-02-13 11:45:41	10.10.100.2	Mengubah Temuan Audit No TMN013	Sukses
4f8af2a22ce1d40d33cf08a0a3d2bd35ae8984d3	2018-02-13 11:46:42	10.10.100.2	Berhasil menambah tanggapan auditee!	Sukses
4f8af2a22ce1d40d33cf08a0a3d2bd35ae8984d3	2018-02-13 11:46:42	10.10.100.2	Berhasil menambah tanggapan auditee!	Sukses
4f8af2a22ce1d40d33cf08a0a3d2bd35ae8984d3	2018-02-13 11:46:42	10.10.100.2	Berhasil menambah tanggapan auditee!	Sukses
4f8af2a22ce1d40d33cf08a0a3d2bd35ae8984d3	2018-02-13 11:46:48	10.10.100.2	Berhasil menambah tanggapan auditee!	Sukses
4f8af2a22ce1d40d33cf08a0a3d2bd35ae8984d3	2018-02-13 11:46:48	10.10.100.2	Berhasil menambah tanggapan auditee!	Sukses
4f8af2a22ce1d40d33cf08a0a3d2bd35ae8984d3	2018-02-13 11:46:48	10.10.100.2	Berhasil menambah tanggapan auditee!	Sukses
b184c5154eadd80d2ee51923b3a9b002b67ebd44	2018-02-13 11:48:35	10.10.100.2	Mengubah Temuan Audit No TEM012	Sukses
b184c5154eadd80d2ee51923b3a9b002b67ebd44	2018-02-13 11:48:56	10.10.100.2	Mengubah Temuan Audit No 34567890	Sukses
b184c5154eadd80d2ee51923b3a9b002b67ebd44	2018-02-13 11:49:17	10.10.100.2	Mengubah Temuan Audit No TMN013	Sukses
4f8af2a22ce1d40d33cf08a0a3d2bd35ae8984d3	2018-02-13 11:50:19	10.10.100.2	Berhasil menambah tanggapan auditee!	Sukses
4f8af2a22ce1d40d33cf08a0a3d2bd35ae8984d3	2018-02-13 11:50:19	10.10.100.2	Berhasil menambah tanggapan auditee!	Sukses
4f8af2a22ce1d40d33cf08a0a3d2bd35ae8984d3	2018-02-13 11:50:19	10.10.100.2	Berhasil menambah tanggapan auditee!	Sukses
b184c5154eadd80d2ee51923b3a9b002b67ebd44	2018-02-13 11:56:26	10.10.100.2	Mengubah Temuan Audit No TEM012	Sukses
b184c5154eadd80d2ee51923b3a9b002b67ebd44	2018-02-13 11:56:37	10.10.100.2	Mengubah Temuan Audit No 34567890	Sukses
b184c5154eadd80d2ee51923b3a9b002b67ebd44	2018-02-13 11:56:52	10.10.100.2	Mengubah Temuan Audit No TMN013	Sukses
b184c5154eadd80d2ee51923b3a9b002b67ebd44	2018-02-13 11:59:28	10.10.100.2	Mengubah Temuan Audit No TEM012	Sukses
b184c5154eadd80d2ee51923b3a9b002b67ebd44	2018-02-13 12:00:02	10.10.100.2	Mengubah Temuan Audit No 34567890	Sukses
b184c5154eadd80d2ee51923b3a9b002b67ebd44	2018-02-13 12:00:17	10.10.100.2	Mengubah Temuan Audit No TMN013	Sukses
b184c5154eadd80d2ee51923b3a9b002b67ebd44	2018-02-13 13:20:38	10.10.100.2	Mengubah Temuan Audit No TEM012	Sukses
b184c5154eadd80d2ee51923b3a9b002b67ebd44	2018-02-13 13:21:15	10.10.100.2	Mengubah Temuan Audit No TMN013	Sukses
b184c5154eadd80d2ee51923b3a9b002b67ebd44	2018-02-13 13:21:23	10.10.100.2	Mengubah Temuan Audit No 34567890	Sukses
b184c5154eadd80d2ee51923b3a9b002b67ebd44	2018-02-13 13:22:20	10.10.100.2	Mengubah Temuan Audit No TEM012	Sukses
b184c5154eadd80d2ee51923b3a9b002b67ebd44	2018-02-13 13:30:49	10.10.100.2	Mengubah Temuan Audit No TEM012	Sukses
b184c5154eadd80d2ee51923b3a9b002b67ebd44	2018-02-13 13:31:07	10.10.100.2	Mengubah Temuan Audit No 34567890	Sukses
b184c5154eadd80d2ee51923b3a9b002b67ebd44	2018-02-13 13:31:26	10.10.100.2	Mengubah Temuan Audit No TMN013	Sukses
b184c5154eadd80d2ee51923b3a9b002b67ebd44	2018-02-13 13:47:35	10.10.100.2	Mengubah Temuan Audit No TEM012	Sukses
b184c5154eadd80d2ee51923b3a9b002b67ebd44	2018-02-13 13:47:53	10.10.100.2	Mengubah Temuan Audit No 34567890	Sukses
b184c5154eadd80d2ee51923b3a9b002b67ebd44	2018-02-13 13:48:11	10.10.100.2	Mengubah Temuan Audit No TMN013	Sukses
4f8af2a22ce1d40d33cf08a0a3d2bd35ae8984d3	2018-02-13 13:52:47	10.10.100.2	User Logout	Sukses
9b44ac8966798da6f357fc1689342e187013cd51	2018-02-13 13:52:52	10.10.100.2	User Login	Sukses
b184c5154eadd80d2ee51923b3a9b002b67ebd44	2018-02-13 13:57:23	10.10.100.2	User Logout	Sukses
9b44ac8966798da6f357fc1689342e187013cd51	2018-02-13 13:57:30	10.10.100.2	User Login	Sukses
9b44ac8966798da6f357fc1689342e187013cd51	2018-02-13 14:29:47	45.250.102.2	User Login	Sukses
9b44ac8966798da6f357fc1689342e187013cd51	2018-02-13 15:07:06	10.10.100.2	User Login	Sukses
9b44ac8966798da6f357fc1689342e187013cd51	2018-02-13 15:43:36	118.136.38.46	User Login	Sukses
9b44ac8966798da6f357fc1689342e187013cd51	2018-02-13 15:43:41	118.136.38.46	User Logout	Sukses
4f8af2a22ce1d40d33cf08a0a3d2bd35ae8984d3	2018-02-13 15:43:46	118.136.38.46	User Login	Sukses
9b44ac8966798da6f357fc1689342e187013cd51	2018-02-13 15:53:24	10.10.100.2	User Login	Sukses
9b44ac8966798da6f357fc1689342e187013cd51	2018-02-13 16:12:22	10.10.100.2	User Logout	Sukses
4f8af2a22ce1d40d33cf08a0a3d2bd35ae8984d3	2018-02-13 16:12:58	10.10.100.2	User Login	Sukses
9b44ac8966798da6f357fc1689342e187013cd51	2018-02-13 16:17:18	118.136.38.46	User Login	Sukses
9b44ac8966798da6f357fc1689342e187013cd51	2018-02-13 16:18:59	118.136.38.46	User Login	Sukses
9b44ac8966798da6f357fc1689342e187013cd51	2018-02-13 22:15:58	118.136.38.46	User Login	Sukses
