4f8af2a22ce1d40d33cf08a0a3d2bd35ae8984d3	2018-05-07 00:22:38	139.192.58.201	User Login	Sukses
4f8af2a22ce1d40d33cf08a0a3d2bd35ae8984d3	2018-05-07 00:24:56	139.192.58.201	User Logout	Sukses
dbf0e2db001dd0d516eb83ce332e88ed31359f6a	2018-05-07 04:06:00	36.84.63.161	User Login	Sukses
8aa60fd74b80ab5cb711252289cba263db544358	2018-05-07 04:14:10	36.83.244.232	User Login	Sukses
8aa60fd74b80ab5cb711252289cba263db544358	2018-05-07 04:15:53	36.83.244.232	User Logout	Sukses
dbf0e2db001dd0d516eb83ce332e88ed31359f6a	2018-05-07 04:31:15	36.83.244.232	User Login	Sukses
7474c495f1b75c70474939b7982be2e0876bb834	2018-05-07 04:38:27	36.72.179.157	User Login	Sukses
7474c495f1b75c70474939b7982be2e0876bb834	2018-05-07 04:41:54	36.72.179.157	User Logout	Sukses
58e5385e24299ad94436d5402dfcaf761228ba49	2018-05-07 04:42:06	36.72.179.157	User Login	Sukses
58e5385e24299ad94436d5402dfcaf761228ba49	2018-05-07 04:43:51	36.72.179.157	User Logout	Sukses
dbf0e2db001dd0d516eb83ce332e88ed31359f6a	2018-05-07 04:43:59	36.83.244.232	User Login	Sukses
dbf0e2db001dd0d516eb83ce332e88ed31359f6a	2018-05-07 04:44:19	36.83.244.232	User Logout	Sukses
35d0daa751af08c870481d426a551cfdb0101ed1	2018-05-07 04:44:51	36.72.179.157	User Login	Sukses
35d0daa751af08c870481d426a551cfdb0101ed1	2018-05-07 04:51:23	36.72.179.157	Menambah Temuan No 3	Sukses
35d0daa751af08c870481d426a551cfdb0101ed1	2018-05-07 04:51:24	36.72.179.157	Menambah Temuan No 3	Sukses
35d0daa751af08c870481d426a551cfdb0101ed1	2018-05-07 04:52:19	36.72.179.157	Menghapus Temuan Audit dengan ID 1b94dd6506275548dbf6adf4598243c6178ebee1	Sukses
35d0daa751af08c870481d426a551cfdb0101ed1	2018-05-07 04:52:54	36.72.179.157	User Logout	Sukses
7474c495f1b75c70474939b7982be2e0876bb834	2018-05-07 04:53:11	36.72.179.157	User Login	Sukses
7474c495f1b75c70474939b7982be2e0876bb834	2018-05-07 04:54:13	36.72.179.157	User Logout	Sukses
58e5385e24299ad94436d5402dfcaf761228ba49	2018-05-07 04:54:26	36.72.179.157	User Login	Sukses
58e5385e24299ad94436d5402dfcaf761228ba49	2018-05-07 04:55:56	36.72.179.157	User Logout	Sukses
7474c495f1b75c70474939b7982be2e0876bb834	2018-05-07 04:56:35	114.125.166.23	User Login	Sukses
7474c495f1b75c70474939b7982be2e0876bb834	2018-05-07 04:59:16	114.125.166.23	Menambah Rekomendasi dengan ID 8aaed0ff908d60abca50be45a1740d402bd7c207	Sukses
7474c495f1b75c70474939b7982be2e0876bb834	2018-05-07 05:00:17	114.125.166.23	User Logout	Sukses
35d0daa751af08c870481d426a551cfdb0101ed1	2018-05-07 05:00:24	114.125.166.23	User Login	Sukses
35d0daa751af08c870481d426a551cfdb0101ed1	2018-05-07 05:01:17	114.125.166.23	User Logout	Sukses
86586854ae95dcf5b36bbecf06c4aee702000ec2	2018-05-07 05:01:24	114.125.166.23	User Login	Sukses
86586854ae95dcf5b36bbecf06c4aee702000ec2	2018-05-07 05:09:51	114.125.166.23	User Logout	Sukses
7474c495f1b75c70474939b7982be2e0876bb834	2018-05-07 05:10:07	114.125.166.23	User Login	Sukses
7474c495f1b75c70474939b7982be2e0876bb834	2018-05-07 05:11:17	114.125.166.23	User Logout	Sukses
58e5385e24299ad94436d5402dfcaf761228ba49	2018-05-07 05:11:23	114.125.166.23	User Login	Sukses
58e5385e24299ad94436d5402dfcaf761228ba49	2018-05-07 05:12:10	114.125.166.23	User Logout	Sukses
86586854ae95dcf5b36bbecf06c4aee702000ec2	2018-05-07 05:12:18	114.125.166.23	User Login	Sukses
86586854ae95dcf5b36bbecf06c4aee702000ec2	2018-05-07 05:17:58	114.125.166.23	Menambah Temuan No 4	Sukses
86586854ae95dcf5b36bbecf06c4aee702000ec2	2018-05-07 05:18:26	114.125.166.23	User Logout	Sukses
7474c495f1b75c70474939b7982be2e0876bb834	2018-05-07 05:18:32	114.125.166.23	User Login	Sukses
7474c495f1b75c70474939b7982be2e0876bb834	2018-05-07 05:22:19	114.125.166.23	Menambah Rekomendasi dengan ID 59677eb54ea6da111a49e13b215ae0b560836e24	Sukses
7474c495f1b75c70474939b7982be2e0876bb834	2018-05-07 05:22:53	114.125.166.23	User Logout	Sukses
58e5385e24299ad94436d5402dfcaf761228ba49	2018-05-07 05:22:59	114.125.166.23	User Login	Sukses
58e5385e24299ad94436d5402dfcaf761228ba49	2018-05-07 05:24:27	114.125.166.23	User Logout	Sukses
7474c495f1b75c70474939b7982be2e0876bb834	2018-05-07 05:24:37	114.125.166.23	User Login	Sukses
7474c495f1b75c70474939b7982be2e0876bb834	2018-05-07 05:25:53	114.125.166.23	Mengubah Temuan Audit No 4	Sukses
7474c495f1b75c70474939b7982be2e0876bb834	2018-05-07 05:26:06	114.125.166.23	User Logout	Sukses
86586854ae95dcf5b36bbecf06c4aee702000ec2	2018-05-07 05:26:15	114.125.166.23	User Login	Sukses
dbf0e2db001dd0d516eb83ce332e88ed31359f6a	2018-05-07 05:33:09	36.83.244.232	User Login	Sukses
dbf0e2db001dd0d516eb83ce332e88ed31359f6a	2018-05-07 05:33:21	36.83.244.232	User Login	Sukses
dbf0e2db001dd0d516eb83ce332e88ed31359f6a	2018-05-07 05:36:00	36.83.244.232	User Logout	Sukses
35d0daa751af08c870481d426a551cfdb0101ed1	2018-05-07 06:24:42	36.72.179.157	User Login	Sukses
35d0daa751af08c870481d426a551cfdb0101ed1	2018-05-07 06:25:17	36.72.179.157	User Logout	Sukses
86586854ae95dcf5b36bbecf06c4aee702000ec2	2018-05-07 06:25:24	36.72.179.157	User Login	Sukses
86586854ae95dcf5b36bbecf06c4aee702000ec2	2018-05-07 06:26:41	36.72.179.157	User Logout	Sukses
58e5385e24299ad94436d5402dfcaf761228ba49	2018-05-07 06:26:53	36.72.179.157	User Login	Sukses
58e5385e24299ad94436d5402dfcaf761228ba49	2018-05-07 06:27:11	36.72.179.157	User Logout	Sukses
7474c495f1b75c70474939b7982be2e0876bb834	2018-05-07 06:27:19	36.72.179.157	User Login	Sukses
7474c495f1b75c70474939b7982be2e0876bb834	2018-05-07 06:28:28	36.72.179.157	User Logout	Sukses
58e5385e24299ad94436d5402dfcaf761228ba49	2018-05-07 06:28:42	36.72.179.157	User Login	Sukses
58e5385e24299ad94436d5402dfcaf761228ba49	2018-05-07 06:29:49	36.72.179.157	User Logout	Sukses
35d0daa751af08c870481d426a551cfdb0101ed1	2018-05-07 06:29:54	36.72.179.157	User Login	Sukses
35d0daa751af08c870481d426a551cfdb0101ed1	2018-05-07 06:32:05	36.72.179.157	User Logout	Sukses
7474c495f1b75c70474939b7982be2e0876bb834	2018-05-07 06:32:19	36.72.179.157	User Login	Sukses
7474c495f1b75c70474939b7982be2e0876bb834	2018-05-07 06:36:24	36.72.179.157	Menambah Temuan No 5	Sukses
7474c495f1b75c70474939b7982be2e0876bb834	2018-05-07 06:37:38	36.72.179.157	Menambah Rekomendasi dengan ID a6a7a79d276e167d994e6b5a51b02c082c44879c	Sukses
7474c495f1b75c70474939b7982be2e0876bb834	2018-05-07 06:45:45	36.72.179.157	Menambah Temuan No 6	Sukses
7474c495f1b75c70474939b7982be2e0876bb834	2018-05-07 06:47:51	36.72.179.157	Menambah Rekomendasi dengan ID b6fc73dc408a01814e74f176e205b973dfe201d2	Sukses
7474c495f1b75c70474939b7982be2e0876bb834	2018-05-07 06:49:30	36.72.179.157	Mengubah Rekomendasi ID a27828fc3a1e1f75c1befe72be46e80687a34e45	Sukses
7474c495f1b75c70474939b7982be2e0876bb834	2018-05-07 06:49:48	36.72.179.157	User Logout	Sukses
58e5385e24299ad94436d5402dfcaf761228ba49	2018-05-07 06:50:01	36.72.179.157	User Login	Sukses
58e5385e24299ad94436d5402dfcaf761228ba49	2018-05-07 06:50:48	36.72.179.157	User Logout	Sukses
7474c495f1b75c70474939b7982be2e0876bb834	2018-05-07 06:50:56	36.72.179.157	User Login	Sukses
7474c495f1b75c70474939b7982be2e0876bb834	2018-05-07 06:51:52	36.72.179.157	User Logout	Sukses
58e5385e24299ad94436d5402dfcaf761228ba49	2018-05-07 06:52:02	36.72.179.157	User Login	Sukses
4359b849248b6a45e0a622f18375e5bec578d0f7	2018-05-07 07:01:51	125.160.135.73	User Login	Sukses
58e5385e24299ad94436d5402dfcaf761228ba49	2018-05-07 07:02:18	36.72.179.157	User Logout	Sukses
4359b849248b6a45e0a622f18375e5bec578d0f7	2018-05-07 07:06:57	125.160.135.73	User Logout	Sukses
4359b849248b6a45e0a622f18375e5bec578d0f7	2018-05-07 07:07:10	125.160.135.73	User Login	Sukses
8aa60fd74b80ab5cb711252289cba263db544358	2018-05-07 07:10:25	125.160.135.73	User Login	Sukses
8aa60fd74b80ab5cb711252289cba263db544358	2018-05-07 07:12:29	125.160.135.73	User Login	Sukses
d4879a4165ae85bdbd854358e0f4de88e407e43b	2018-05-07 07:16:57	36.67.24.53	User Login	Sukses
8aa60fd74b80ab5cb711252289cba263db544358	2018-05-07 07:26:14	125.160.135.73	Menambah Kertas Kerja Dengan ID a4492240a64039b93bc232b328d4d0da7eb9c7d2	Sukses
cb13cb7f4f2984d2b477c7900dd3f93c623616da	2018-05-07 07:27:16	125.160.135.73	User Login	Sukses
d4879a4165ae85bdbd854358e0f4de88e407e43b	2018-05-07 07:31:34	36.67.24.53	User Logout	Sukses
0a4608284f030a845e138b3c83a8d78bdc9d444b	2018-05-07 07:40:43	125.160.135.73	User Login	Sukses
e2274a53e9109f4c736a4da4128f317355e19e4f	2018-05-07 07:46:16	36.83.241.198	User Login	Sukses
e2274a53e9109f4c736a4da4128f317355e19e4f	2018-05-07 07:48:05	36.83.241.198	User Logout	Sukses
7474c495f1b75c70474939b7982be2e0876bb834	2018-05-07 07:48:26	115.178.237.157	User Login	Sukses
4359b849248b6a45e0a622f18375e5bec578d0f7	2018-05-07 07:54:36	125.160.135.73	User Logout	Sukses
	2018-05-07 07:55:36	125.160.135.73	Menambah History Kertas Kerja Dengan ID III/B/2	Sukses
cb13cb7f4f2984d2b477c7900dd3f93c623616da	2018-05-07 07:55:53	125.160.135.73	Menambah Kertas Kerja Dengan ID 7b3dc6897eba4e31b4261b6e76798ea910d1cfc2	Sukses
8aa60fd74b80ab5cb711252289cba263db544358	2018-05-07 07:56:36	125.160.135.73	User Login	Sukses
8aa60fd74b80ab5cb711252289cba263db544358	2018-05-07 07:58:48	125.160.135.73	Menambah Kertas Kerja Dengan ID 1b4287ae9956ad6d84d5f989cb8248397ce1e115	Sukses
cb13cb7f4f2984d2b477c7900dd3f93c623616da	2018-05-07 08:00:08	125.160.135.73	User Logout	Sukses
8aa60fd74b80ab5cb711252289cba263db544358	2018-05-07 08:00:37	125.160.135.73	Mengomentari Kertas Kerja dengan ID 21a28ffb0535f11e0e8227699e932ff0ae470355	Sukses
4359b849248b6a45e0a622f18375e5bec578d0f7	2018-05-07 08:01:40	125.160.135.73	User Login	Sukses
8aa60fd74b80ab5cb711252289cba263db544358	2018-05-07 08:06:50	125.160.135.73	Menambah Kertas Kerja Dengan ID 1778f3ba20d6d083b07ded8106bd95003f526af4	Sukses
8aa60fd74b80ab5cb711252289cba263db544358	2018-05-07 08:07:54	125.160.135.73	Mengomentari Kertas Kerja dengan ID e74891606b13bd574c9e41ff9a5665a0d4fc884c	Sukses
4359b849248b6a45e0a622f18375e5bec578d0f7	2018-05-07 08:09:13	125.160.135.73	User Logout	Sukses
4359b849248b6a45e0a622f18375e5bec578d0f7	2018-05-07 08:09:18	125.160.135.73	User Login	Sukses
8aa60fd74b80ab5cb711252289cba263db544358	2018-05-07 08:13:57	125.160.135.73	Menambah Kertas Kerja Dengan ID 1778f3ba20d6d083b07ded8106bd95003f526af4	Sukses
4359b849248b6a45e0a622f18375e5bec578d0f7	2018-05-07 08:14:03	125.160.135.73	User Login	Sukses
8aa60fd74b80ab5cb711252289cba263db544358	2018-05-07 08:15:32	125.160.135.73	Menghapus Kertas Kerja Audit dengan ID e74891606b13bd574c9e41ff9a5665a0d4fc884c	Sukses
7bb4c5c91c49d2caccadd8a0ea7e64233fbcf89b	2018-05-07 08:15:50	36.83.241.198	User Login	Sukses
4359b849248b6a45e0a622f18375e5bec578d0f7	2018-05-07 08:16:38	125.160.135.73	User Login	Sukses
146a795a738b7309e20a68e5ea518558bd974b2f	2018-05-07 08:19:42	180.249.66.26	User Login	Sukses
8aa60fd74b80ab5cb711252289cba263db544358	2018-05-07 08:20:26	125.160.135.73	Menambah Kertas Kerja Dengan ID 1778f3ba20d6d083b07ded8106bd95003f526af4	Sukses
8aa60fd74b80ab5cb711252289cba263db544358	2018-05-07 08:21:26	125.160.135.73	Mengomentari Kertas Kerja dengan ID 9be9d0670a1d13a0331894e6984c7d4f33f97e4c	Sukses
4359b849248b6a45e0a622f18375e5bec578d0f7	2018-05-07 08:23:09	125.160.135.73	User Logout	Sukses
4359b849248b6a45e0a622f18375e5bec578d0f7	2018-05-07 08:23:15	125.160.135.73	User Login	Sukses
780cbcefa876e8865a8b7a5c7b2b698a18c85e5b	2018-05-07 08:42:00	46.101.22.182	User Login	Sukses
e2274a53e9109f4c736a4da4128f317355e19e4f	2018-05-07 08:42:14	36.83.241.198	User Login	Sukses
4e74435b3f7a430b7f1070105883774c0b2bc84a	2018-05-07 08:42:16	36.75.179.100	User Login	Sukses
780cbcefa876e8865a8b7a5c7b2b698a18c85e5b	2018-05-07 08:43:21	46.101.22.182	User Logout	Sukses
8aa60fd74b80ab5cb711252289cba263db544358	2018-05-07 08:44:24	46.101.22.182	User Login	Sukses
e2274a53e9109f4c736a4da4128f317355e19e4f	2018-05-07 08:45:07	36.83.241.198	User Logout	Sukses
8aa60fd74b80ab5cb711252289cba263db544358	2018-05-07 08:45:11	46.101.22.182	User Logout	Sukses
780cbcefa876e8865a8b7a5c7b2b698a18c85e5b	2018-05-07 08:46:15	46.101.22.182	User Login	Sukses
8aa60fd74b80ab5cb711252289cba263db544358	2018-05-07 08:48:44	125.160.135.73	User Login	Sukses
4e74435b3f7a430b7f1070105883774c0b2bc84a	2018-05-07 08:50:55	36.75.179.100	User Logout	Sukses
146a795a738b7309e20a68e5ea518558bd974b2f	2018-05-07 08:51:30	180.249.66.26	Menambah Kertas Kerja Dengan ID 7e22307b279a7070fe5b771abdf8052f8df251b2	Sukses
58e5385e24299ad94436d5402dfcaf761228ba49	2018-05-07 08:51:48	36.75.179.100	User Login	Sukses
58e5385e24299ad94436d5402dfcaf761228ba49	2018-05-07 08:52:08	36.75.179.100	Mengubah Status Program Audit dengan ID ac23166e9803219cdf1d84578c83ea3368d5c0cb	Sukses
58e5385e24299ad94436d5402dfcaf761228ba49	2018-05-07 08:52:28	36.75.179.100	Mengubah Status Program Audit dengan ID 392a3b1d6da3108811894268385fd589b236db40	Sukses
8aa60fd74b80ab5cb711252289cba263db544358	2018-05-07 08:52:52	125.160.135.73	Menambah Program Audit ID f180c325d6d16c1486cee8a652d176e12f3b6cfe	Sukses
58e5385e24299ad94436d5402dfcaf761228ba49	2018-05-07 08:52:55	36.75.179.100	User Logout	Sukses
4e74435b3f7a430b7f1070105883774c0b2bc84a	2018-05-07 08:53:02	36.75.179.100	User Login	Sukses
dc8dae2304340707fb80325173e88159f4c8e02c	2018-05-07 08:53:22	180.249.20.220	User Login	Sukses
4359b849248b6a45e0a622f18375e5bec578d0f7	2018-05-07 08:53:24	125.160.135.73	User Logout	Sukses
4359b849248b6a45e0a622f18375e5bec578d0f7	2018-05-07 08:53:37	125.160.135.73	User Login	Sukses
8aa60fd74b80ab5cb711252289cba263db544358	2018-05-07 08:54:01	125.160.135.73	Menghapus Program Audit dengan ID f180c325d6d16c1486cee8a652d176e12f3b6cfe	Sukses
f279326e1d90cc57ca3ec677552b6b5dcbdb6502	2018-05-07 08:54:58	180.249.20.220	User Login	Sukses
4e74435b3f7a430b7f1070105883774c0b2bc84a	2018-05-07 08:55:23	36.75.179.100	Menambah Program Audit ID 70422badf072fb9c09910da3452cffc99a94cd9a	Sukses
58e5385e24299ad94436d5402dfcaf761228ba49	2018-05-07 08:55:25	36.75.179.100	User Login	Sukses
8aa60fd74b80ab5cb711252289cba263db544358	2018-05-07 09:01:38	125.160.135.73	User Logout	Sukses
780cbcefa876e8865a8b7a5c7b2b698a18c85e5b	2018-05-07 09:04:53	46.101.22.182	Menambah Referensi Program Audit RINCI/VFY/TUPOKSI/1	Sukses
2f24604c659f87c506b338358340100d8ffd143a	2018-05-07 09:04:56	114.125.212.21	User Login	Sukses
780cbcefa876e8865a8b7a5c7b2b698a18c85e5b	2018-05-07 09:05:53	46.101.22.182	Menambah Referensi Program Audit RINCI/VFY/KEU/1	Sukses
2f24604c659f87c506b338358340100d8ffd143a	2018-05-07 09:06:05	114.125.212.21	User Logout	Sukses
	2018-05-07 09:06:07	114.125.212.21	User Logout	Sukses
	2018-05-07 09:06:09	114.125.212.21	User Logout	Sukses
cb13cb7f4f2984d2b477c7900dd3f93c623616da	2018-05-07 09:06:53	125.160.135.73	User Login	Sukses
780cbcefa876e8865a8b7a5c7b2b698a18c85e5b	2018-05-07 09:07:27	46.101.22.182	Menambah Referensi Program Audit RINCI/VFY/SDM/1	Sukses
780cbcefa876e8865a8b7a5c7b2b698a18c85e5b	2018-05-07 09:08:28	46.101.22.182	Menambah Referensi Program Audit RINCI/VFY/SARPRAS/1	Sukses
780cbcefa876e8865a8b7a5c7b2b698a18c85e5b	2018-05-07 09:09:44	46.101.22.182	Menambah Referensi Program Audit RINCI/VFY/BM/1	Sukses
cb13cb7f4f2984d2b477c7900dd3f93c623616da	2018-05-07 09:11:20	125.160.135.73	Menambah Kertas Kerja Dengan ID 7b3dc6897eba4e31b4261b6e76798ea910d1cfc2	Sukses
4e74435b3f7a430b7f1070105883774c0b2bc84a	2018-05-07 09:11:32	36.75.179.100	Mengubah Referensi Program Audit dengan ID 35bcb3c7df628b6f6efc2182afcdb0d282aa97d7	Sukses
780cbcefa876e8865a8b7a5c7b2b698a18c85e5b	2018-05-07 09:12:27	46.101.22.182	Mengubah Status Program Audit dengan ID 6cfe5137005d0d64fbfd09f64c9d34486e9d813d	Sukses
0a4608284f030a845e138b3c83a8d78bdc9d444b	2018-05-07 09:12:46	125.160.135.73	User Login	Sukses
780cbcefa876e8865a8b7a5c7b2b698a18c85e5b	2018-05-07 09:13:03	46.101.22.182	Menghapus Program Audit dengan ID 6cfe5137005d0d64fbfd09f64c9d34486e9d813d	Sukses
780cbcefa876e8865a8b7a5c7b2b698a18c85e5b	2018-05-07 09:13:33	46.101.22.182	Mengubah Status Program Audit dengan ID d566e5d810f6bb02b5479da0da60bbe9447d18d8	Sukses
780cbcefa876e8865a8b7a5c7b2b698a18c85e5b	2018-05-07 09:13:44	46.101.22.182	Menghapus Program Audit dengan ID d566e5d810f6bb02b5479da0da60bbe9447d18d8	Sukses
cb13cb7f4f2984d2b477c7900dd3f93c623616da	2018-05-07 09:18:43	125.160.135.73	User Logout	Sukses
4359b849248b6a45e0a622f18375e5bec578d0f7	2018-05-07 09:18:48	125.160.135.73	User Logout	Sukses
4359b849248b6a45e0a622f18375e5bec578d0f7	2018-05-07 09:18:53	125.160.135.73	User Login	Sukses
780cbcefa876e8865a8b7a5c7b2b698a18c85e5b	2018-05-07 09:18:56	46.101.22.182	Menambah Program Audit ID d0479482728bcc5adcec3dd8b724f796d447126c	Sukses
780cbcefa876e8865a8b7a5c7b2b698a18c85e5b	2018-05-07 09:18:56	46.101.22.182	Menambah Program Audit ID 69f7e83246654772e0bc23c5aa1a4531f2155c18	Sukses
780cbcefa876e8865a8b7a5c7b2b698a18c85e5b	2018-05-07 09:18:56	46.101.22.182	Menambah Program Audit ID 457fbae2bd6ad58107446a968f639bfaf6e70537	Sukses
4e74435b3f7a430b7f1070105883774c0b2bc84a	2018-05-07 09:20:16	36.75.179.100	Menambah Program Audit ID b1e428b2191dec6440010e58ab2f78236ce97a75	Sukses
bdae6159dc4d3f67b8d835461c3f4020c3e68999	2018-05-07 09:20:54	36.75.179.100	User Login	Sukses
4e74435b3f7a430b7f1070105883774c0b2bc84a	2018-05-07 09:21:44	36.75.179.100	Mengubah Status Program Audit dengan ID 70422badf072fb9c09910da3452cffc99a94cd9a	Sukses
780cbcefa876e8865a8b7a5c7b2b698a18c85e5b	2018-05-07 09:21:52	46.101.22.182	Menambah Program Audit ID 0e06e93abf6520b8606b305e1cd64c86f7629b06	Sukses
780cbcefa876e8865a8b7a5c7b2b698a18c85e5b	2018-05-07 09:21:52	46.101.22.182	Menambah Program Audit ID 680da77f71030d550bb9dd903808927b60f94b85	Sukses
780cbcefa876e8865a8b7a5c7b2b698a18c85e5b	2018-05-07 09:21:52	46.101.22.182	Menambah Program Audit ID 79a81c7790157daae7de0481ea12fcfa84d8e728	Sukses
4e74435b3f7a430b7f1070105883774c0b2bc84a	2018-05-07 09:22:01	36.75.179.100	Mengubah Status Program Audit dengan ID b1e428b2191dec6440010e58ab2f78236ce97a75	Sukses
780cbcefa876e8865a8b7a5c7b2b698a18c85e5b	2018-05-07 09:23:41	46.101.22.182	Menambah Program Audit ID 3d82578b893202478de3a9fd0d936eac84679b22	Sukses
780cbcefa876e8865a8b7a5c7b2b698a18c85e5b	2018-05-07 09:23:41	46.101.22.182	Menambah Program Audit ID 2c4d516568f1d8f0b92d54b70030bbfce147c182	Sukses
780cbcefa876e8865a8b7a5c7b2b698a18c85e5b	2018-05-07 09:23:41	46.101.22.182	Menambah Program Audit ID 7bdb3eb3d9f11ee1ae542807248c9a62b2b5780c	Sukses
780cbcefa876e8865a8b7a5c7b2b698a18c85e5b	2018-05-07 09:24:01	46.101.22.182	Mengubah Status Program Audit dengan ID 457fbae2bd6ad58107446a968f639bfaf6e70537	Sukses
780cbcefa876e8865a8b7a5c7b2b698a18c85e5b	2018-05-07 09:24:21	46.101.22.182	Mengubah Status Program Audit dengan ID d0479482728bcc5adcec3dd8b724f796d447126c	Sukses
780cbcefa876e8865a8b7a5c7b2b698a18c85e5b	2018-05-07 09:25:07	46.101.22.182	Mengubah Status Program Audit dengan ID 69f7e83246654772e0bc23c5aa1a4531f2155c18	Sukses
780cbcefa876e8865a8b7a5c7b2b698a18c85e5b	2018-05-07 09:25:32	46.101.22.182	Mengubah Status Program Audit dengan ID 0e06e93abf6520b8606b305e1cd64c86f7629b06	Sukses
780cbcefa876e8865a8b7a5c7b2b698a18c85e5b	2018-05-07 09:25:33	46.101.22.182	Mengubah Status Program Audit dengan ID 0e06e93abf6520b8606b305e1cd64c86f7629b06	Sukses
780cbcefa876e8865a8b7a5c7b2b698a18c85e5b	2018-05-07 09:26:10	46.101.22.182	Mengubah Status Program Audit dengan ID 680da77f71030d550bb9dd903808927b60f94b85	Sukses
780cbcefa876e8865a8b7a5c7b2b698a18c85e5b	2018-05-07 09:26:28	46.101.22.182	Mengubah Status Program Audit dengan ID 79a81c7790157daae7de0481ea12fcfa84d8e728	Sukses
780cbcefa876e8865a8b7a5c7b2b698a18c85e5b	2018-05-07 09:26:46	46.101.22.182	Mengubah Status Program Audit dengan ID 3d82578b893202478de3a9fd0d936eac84679b22	Sukses
780cbcefa876e8865a8b7a5c7b2b698a18c85e5b	2018-05-07 09:27:10	46.101.22.182	Mengubah Status Program Audit dengan ID 2c4d516568f1d8f0b92d54b70030bbfce147c182	Sukses
4e74435b3f7a430b7f1070105883774c0b2bc84a	2018-05-07 09:27:17	36.75.179.100	Mengubah Referensi Program Audit dengan ID f727479ac6b9dcef411fdf22ce440fe0cfc0e30e	Sukses
780cbcefa876e8865a8b7a5c7b2b698a18c85e5b	2018-05-07 09:27:31	46.101.22.182	Mengubah Status Program Audit dengan ID 7bdb3eb3d9f11ee1ae542807248c9a62b2b5780c	Sukses
780cbcefa876e8865a8b7a5c7b2b698a18c85e5b	2018-05-07 09:27:47	46.101.22.182	User Logout	Sukses
8aa60fd74b80ab5cb711252289cba263db544358	2018-05-07 09:27:56	46.101.22.182	User Login	Sukses
8aa60fd74b80ab5cb711252289cba263db544358	2018-05-07 09:28:02	46.101.22.182	User Logout	Sukses
4e74435b3f7a430b7f1070105883774c0b2bc84a	2018-05-07 09:28:08	36.75.179.100	Menambah Program Audit ID 413c2a5ec6ba7493bd6353e6d965501cfa91b0f4	Sukses
4e74435b3f7a430b7f1070105883774c0b2bc84a	2018-05-07 09:28:19	46.101.22.182	User Login	Sukses
4e74435b3f7a430b7f1070105883774c0b2bc84a	2018-05-07 09:28:24	46.101.22.182	User Logout	Sukses
8aa60fd74b80ab5cb711252289cba263db544358	2018-05-07 09:28:36	46.101.22.182	User Login	Sukses
4e74435b3f7a430b7f1070105883774c0b2bc84a	2018-05-07 09:28:46	36.75.179.100	User Login	Sukses
8aa60fd74b80ab5cb711252289cba263db544358	2018-05-07 09:28:47	46.101.22.182	User Logout	Sukses
2f24604c659f87c506b338358340100d8ffd143a	2018-05-07 09:29:01	46.101.22.182	User Login	Sukses
4e74435b3f7a430b7f1070105883774c0b2bc84a	2018-05-07 09:29:09	36.75.179.100	Mengubah Status Program Audit dengan ID 413c2a5ec6ba7493bd6353e6d965501cfa91b0f4	Sukses
2f24604c659f87c506b338358340100d8ffd143a	2018-05-07 09:30:11	46.101.22.182	Mengubah Status Program Audit dengan ID 457fbae2bd6ad58107446a968f639bfaf6e70537	Sukses
2f24604c659f87c506b338358340100d8ffd143a	2018-05-07 09:30:40	46.101.22.182	Mengubah Status Program Audit dengan ID d0479482728bcc5adcec3dd8b724f796d447126c	Sukses
2f24604c659f87c506b338358340100d8ffd143a	2018-05-07 09:30:58	46.101.22.182	Mengubah Status Program Audit dengan ID 69f7e83246654772e0bc23c5aa1a4531f2155c18	Sukses
2f24604c659f87c506b338358340100d8ffd143a	2018-05-07 09:31:20	46.101.22.182	Mengubah Status Program Audit dengan ID 0e06e93abf6520b8606b305e1cd64c86f7629b06	Sukses
2f24604c659f87c506b338358340100d8ffd143a	2018-05-07 09:31:37	46.101.22.182	Mengubah Status Program Audit dengan ID 680da77f71030d550bb9dd903808927b60f94b85	Sukses
2f24604c659f87c506b338358340100d8ffd143a	2018-05-07 09:31:57	46.101.22.182	Mengubah Status Program Audit dengan ID 79a81c7790157daae7de0481ea12fcfa84d8e728	Sukses
2f24604c659f87c506b338358340100d8ffd143a	2018-05-07 09:32:16	46.101.22.182	Mengubah Status Program Audit dengan ID 3d82578b893202478de3a9fd0d936eac84679b22	Sukses
2f24604c659f87c506b338358340100d8ffd143a	2018-05-07 09:32:33	46.101.22.182	Mengubah Status Program Audit dengan ID 2c4d516568f1d8f0b92d54b70030bbfce147c182	Sukses
2f24604c659f87c506b338358340100d8ffd143a	2018-05-07 09:32:52	46.101.22.182	Mengubah Status Program Audit dengan ID 7bdb3eb3d9f11ee1ae542807248c9a62b2b5780c	Sukses
2f24604c659f87c506b338358340100d8ffd143a	2018-05-07 09:33:18	46.101.22.182	User Logout	Sukses
780cbcefa876e8865a8b7a5c7b2b698a18c85e5b	2018-05-07 09:33:28	46.101.22.182	User Login	Sukses
41a01b7f8a96b3daa702f3e4b6af404683f91553	2018-05-07 09:34:19	182.1.177.208	User Login	Sukses
8aa60fd74b80ab5cb711252289cba263db544358	2018-05-07 09:35:39	125.160.135.73	User Login	Sukses
	2018-05-07 09:36:04	36.83.241.198	User Logout	Sukses
e2274a53e9109f4c736a4da4128f317355e19e4f	2018-05-07 09:36:24	36.83.241.198	User Login	Sukses
780cbcefa876e8865a8b7a5c7b2b698a18c85e5b	2018-05-07 09:36:32	46.101.22.182	User Logout	Sukses
780cbcefa876e8865a8b7a5c7b2b698a18c85e5b	2018-05-07 09:37:02	46.101.22.182	User Login	Sukses
e2274a53e9109f4c736a4da4128f317355e19e4f	2018-05-07 09:38:24	36.83.241.198	User Logout	Sukses
780cbcefa876e8865a8b7a5c7b2b698a18c85e5b	2018-05-07 09:40:17	46.101.22.182	Menambah Kertas Kerja Dengan ID 457fbae2bd6ad58107446a968f639bfaf6e70537	Sukses
780cbcefa876e8865a8b7a5c7b2b698a18c85e5b	2018-05-07 09:41:20	46.101.22.182	Mengomentari Kertas Kerja dengan ID 30bcf543668ffb562cf81b95cedd959f209512aa	Sukses
780cbcefa876e8865a8b7a5c7b2b698a18c85e5b	2018-05-07 09:41:55	46.101.22.182	Mengomentari Kertas Kerja dengan ID 30bcf543668ffb562cf81b95cedd959f209512aa	Sukses
780cbcefa876e8865a8b7a5c7b2b698a18c85e5b	2018-05-07 09:44:15	46.101.22.182	Menambah Kertas Kerja Dengan ID d0479482728bcc5adcec3dd8b724f796d447126c	Sukses
780cbcefa876e8865a8b7a5c7b2b698a18c85e5b	2018-05-07 09:46:36	46.101.22.182	Mengomentari Kertas Kerja dengan ID f3bf1d30853efe85e159db6d2cce7c070dd673aa	Sukses
780cbcefa876e8865a8b7a5c7b2b698a18c85e5b	2018-05-07 09:47:21	46.101.22.182	Mengomentari Kertas Kerja dengan ID f3bf1d30853efe85e159db6d2cce7c070dd673aa	Sukses
780cbcefa876e8865a8b7a5c7b2b698a18c85e5b	2018-05-07 09:47:38	46.101.22.182	User Logout	Sukses
1f24444ae39aca674be919784d647091ea0cc6b5	2018-05-07 09:47:48	114.125.216.35	User Login	Sukses
780cbcefa876e8865a8b7a5c7b2b698a18c85e5b	2018-05-07 09:48:08	46.101.22.182	User Login	Sukses
780cbcefa876e8865a8b7a5c7b2b698a18c85e5b	2018-05-07 09:50:50	46.101.22.182	Menambah Kertas Kerja Dengan ID 69f7e83246654772e0bc23c5aa1a4531f2155c18	Sukses
780cbcefa876e8865a8b7a5c7b2b698a18c85e5b	2018-05-07 09:51:21	46.101.22.182	Mengomentari Kertas Kerja dengan ID 56de322665caa19f14ad5015db1bec3a84708ab2	Sukses
780cbcefa876e8865a8b7a5c7b2b698a18c85e5b	2018-05-07 09:52:01	46.101.22.182	Mengomentari Kertas Kerja dengan ID 56de322665caa19f14ad5015db1bec3a84708ab2	Sukses
58e5385e24299ad94436d5402dfcaf761228ba49	2018-05-07 09:55:36	36.75.179.100	Mengubah Status Program Audit dengan ID 70422badf072fb9c09910da3452cffc99a94cd9a	Sukses
58e5385e24299ad94436d5402dfcaf761228ba49	2018-05-07 09:56:08	36.75.179.100	Mengubah Status Program Audit dengan ID b1e428b2191dec6440010e58ab2f78236ce97a75	Sukses
4f8af2a22ce1d40d33cf08a0a3d2bd35ae8984d3	2018-05-07 09:56:14	10.10.100.2	User Login	Sukses
58e5385e24299ad94436d5402dfcaf761228ba49	2018-05-07 09:56:30	36.75.179.100	Mengubah Status Program Audit dengan ID 413c2a5ec6ba7493bd6353e6d965501cfa91b0f4	Sukses
bdae6159dc4d3f67b8d835461c3f4020c3e68999	2018-05-07 09:56:32	36.75.179.100	User Login	Sukses
41a01b7f8a96b3daa702f3e4b6af404683f91553	2018-05-07 10:01:23	114.125.216.111	User Login	Sukses
780cbcefa876e8865a8b7a5c7b2b698a18c85e5b	2018-05-07 10:01:58	46.101.22.182	User Logout	Sukses
2f24604c659f87c506b338358340100d8ffd143a	2018-05-07 10:02:38	46.101.22.182	User Login	Sukses
2f24604c659f87c506b338358340100d8ffd143a	2018-05-07 10:03:39	46.101.22.182	Mengomentari Kertas Kerja dengan ID 30bcf543668ffb562cf81b95cedd959f209512aa	Sukses
146a795a738b7309e20a68e5ea518558bd974b2f	2018-05-07 10:03:46	180.249.66.26	User Login	Sukses
2f24604c659f87c506b338358340100d8ffd143a	2018-05-07 10:04:01	46.101.22.182	User Logout	Sukses
780cbcefa876e8865a8b7a5c7b2b698a18c85e5b	2018-05-07 10:04:14	46.101.22.182	User Login	Sukses
780cbcefa876e8865a8b7a5c7b2b698a18c85e5b	2018-05-07 10:07:50	46.101.22.182	Menambah Temuan No 1	Sukses
acee4af556f81513a6f2fee4ac1adeb6b6beb317	2018-05-07 10:08:44	112.215.241.85	User Login	Sukses
780cbcefa876e8865a8b7a5c7b2b698a18c85e5b	2018-05-07 10:10:24	46.101.22.182	Menambah Rekomendasi dengan ID 23c19ad50185aa42d620ce0eba8ed335b2270220	Sukses
dbf0e2db001dd0d516eb83ce332e88ed31359f6a	2018-05-07 10:11:19	36.83.241.198	User Login	Sukses
4f8af2a22ce1d40d33cf08a0a3d2bd35ae8984d3	2018-05-07 10:17:09	10.10.100.2	User Login	Sukses
4f8af2a22ce1d40d33cf08a0a3d2bd35ae8984d3	2018-05-07 10:18:47	10.10.100.2	Menambah Menu Dashboard Audit	Sukses
e2274a53e9109f4c736a4da4128f317355e19e4f	2018-05-07 10:21:34	36.83.241.198	User Login	Sukses
4359b849248b6a45e0a622f18375e5bec578d0f7	2018-05-07 10:21:47	125.160.135.73	User Login	Sukses
f88f01a6fd8154235fda6f951c34ab8a63bc112c	2018-05-07 10:23:45	139.192.58.201	User Login	Sukses
f88f01a6fd8154235fda6f951c34ab8a63bc112c	2018-05-07 10:24:11	139.192.58.201	User Logout	Sukses
4f8af2a22ce1d40d33cf08a0a3d2bd35ae8984d3	2018-05-07 10:24:14	139.192.58.201	User Login	Sukses
4359b849248b6a45e0a622f18375e5bec578d0f7	2018-05-07 10:24:27	125.160.135.73	User Logout	Sukses
e2274a53e9109f4c736a4da4128f317355e19e4f	2018-05-07 10:26:43	36.83.241.198	User Logout	Sukses
4f8af2a22ce1d40d33cf08a0a3d2bd35ae8984d3	2018-05-07 10:27:16	139.192.58.201	Mengubah Data Group ID a38c99db8e8777d33b3b358d59a47ae1a0c69d66	Sukses
4f8af2a22ce1d40d33cf08a0a3d2bd35ae8984d3	2018-05-07 10:27:28	139.192.58.201	Mengubah Data Group ID 46e8d25b481a17e5fe2ac046b4c734fd27d3491b	Sukses
4f8af2a22ce1d40d33cf08a0a3d2bd35ae8984d3	2018-05-07 10:27:44	139.192.58.201	Mengubah Data Group ID 3c4b7c1ac41e48962a837470d96af3ca244113ba	Sukses
4f8af2a22ce1d40d33cf08a0a3d2bd35ae8984d3	2018-05-07 10:29:12	139.192.58.201	User Logout	Sukses
4f8af2a22ce1d40d33cf08a0a3d2bd35ae8984d3	2018-05-07 10:29:53	10.10.100.2	User Login	Sukses
4f8af2a22ce1d40d33cf08a0a3d2bd35ae8984d3	2018-05-07 10:30:02	10.10.100.2	User Logout	Sukses
4f8af2a22ce1d40d33cf08a0a3d2bd35ae8984d3	2018-05-07 10:31:58	139.192.58.201	User Login	Sukses
9b44ac8966798da6f357fc1689342e187013cd51	2018-05-07 10:34:31	112.78.184.99	User Login	Sukses
41a01b7f8a96b3daa702f3e4b6af404683f91553	2018-05-07 10:40:27	182.1.193.80	User Login	Sukses
1f24444ae39aca674be919784d647091ea0cc6b5	2018-05-07 10:40:40	114.125.200.109	User Login	Sukses
780cbcefa876e8865a8b7a5c7b2b698a18c85e5b	2018-05-07 10:41:01	46.101.22.182	Mengubah Temuan Audit No 1	Sukses
e2274a53e9109f4c736a4da4128f317355e19e4f	2018-05-07 10:48:49	36.83.241.198	User Login	Sukses
e2274a53e9109f4c736a4da4128f317355e19e4f	2018-05-07 10:49:31	36.83.241.198	User Logout	Sukses
780cbcefa876e8865a8b7a5c7b2b698a18c85e5b	2018-05-07 10:51:57	46.101.22.182	Mengubah Rekomendasi ID 2c3eae3f856f4314502e67c7330d38807b8c0178	Sukses
780cbcefa876e8865a8b7a5c7b2b698a18c85e5b	2018-05-07 10:53:10	46.101.22.182	Mengubah Temuan Audit No 1	Sukses
780cbcefa876e8865a8b7a5c7b2b698a18c85e5b	2018-05-07 10:54:17	46.101.22.182	Mengubah Temuan Audit No 1	Sukses
9b44ac8966798da6f357fc1689342e187013cd51	2018-05-07 10:54:37	112.78.184.99	User Logout	Sukses
2f24604c659f87c506b338358340100d8ffd143a	2018-05-07 10:58:50	114.125.212.241	User Login	Sukses
2f24604c659f87c506b338358340100d8ffd143a	2018-05-07 10:59:58	114.125.212.189	Mengomentari Kertas Kerja dengan ID 8f01784e7dc7e3cced5368f01096f64a9ba80d59	Sukses
	2018-05-07 11:01:55	182.1.209.108	User Logout	Sukses
	2018-05-07 11:01:58	182.1.209.108	User Logout	Sukses
	2018-05-07 11:02:00	182.1.209.108	User Logout	Sukses
780cbcefa876e8865a8b7a5c7b2b698a18c85e5b	2018-05-07 11:03:54	46.101.22.182	User Logout	Sukses
780cbcefa876e8865a8b7a5c7b2b698a18c85e5b	2018-05-07 11:04:56	46.101.22.182	User Login	Sukses
acee4af556f81513a6f2fee4ac1adeb6b6beb317	2018-05-07 11:06:23	8.37.233.94	User Login	Sukses
780cbcefa876e8865a8b7a5c7b2b698a18c85e5b	2018-05-07 11:09:17	46.101.22.182	Menambah Kertas Kerja Dengan ID 0e06e93abf6520b8606b305e1cd64c86f7629b06	Sukses
35d0daa751af08c870481d426a551cfdb0101ed1	2018-05-07 11:09:22	114.125.164.209	User Login	Sukses
780cbcefa876e8865a8b7a5c7b2b698a18c85e5b	2018-05-07 11:10:08	46.101.22.182	Mengubah Kertas Kerja dengan ID 354b12fa3015073d4e2a1d1c85017537a4dd5e08	Sukses
acee4af556f81513a6f2fee4ac1adeb6b6beb317	2018-05-07 11:11:00	8.37.233.244	User Login	Sukses
780cbcefa876e8865a8b7a5c7b2b698a18c85e5b	2018-05-07 11:11:44	46.101.22.182	Menambah Kertas Kerja Dengan ID 0e06e93abf6520b8606b305e1cd64c86f7629b06	Sukses
41a01b7f8a96b3daa702f3e4b6af404683f91553	2018-05-07 11:11:45	182.1.214.30	User Login	Sukses
35d0daa751af08c870481d426a551cfdb0101ed1	2018-05-07 11:11:50	114.125.164.209	User Logout	Sukses
acee4af556f81513a6f2fee4ac1adeb6b6beb317	2018-05-07 11:12:02	114.125.164.209	User Login	Sukses
1f24444ae39aca674be919784d647091ea0cc6b5	2018-05-07 11:12:40	114.125.197.59	User Login	Sukses
41a01b7f8a96b3daa702f3e4b6af404683f91553	2018-05-07 11:12:46	182.1.199.147	Mengomentari Kertas Kerja dengan ID ead8c3041c92ceaed1b598cfe9f6b197020f4719	Sukses
780cbcefa876e8865a8b7a5c7b2b698a18c85e5b	2018-05-07 11:12:50	46.101.22.182	User Logout	Sukses
acee4af556f81513a6f2fee4ac1adeb6b6beb317	2018-05-07 11:12:52	8.37.233.244	User Logout	Sukses
780cbcefa876e8865a8b7a5c7b2b698a18c85e5b	2018-05-07 11:12:57	46.101.22.182	User Login	Sukses
acee4af556f81513a6f2fee4ac1adeb6b6beb317	2018-05-07 11:13:03	114.125.164.209	User Logout	Sukses
35d0daa751af08c870481d426a551cfdb0101ed1	2018-05-07 11:13:38	114.125.164.209	User Login	Sukses
780cbcefa876e8865a8b7a5c7b2b698a18c85e5b	2018-05-07 11:15:36	46.101.22.182	Mengomentari Temuan dengan ID 666cd34dcb4bf871b8e9f89e9edc027a59d5f3a1	Sukses
780cbcefa876e8865a8b7a5c7b2b698a18c85e5b	2018-05-07 11:16:57	46.101.22.182	Mengomentari Temuan dengan ID 666cd34dcb4bf871b8e9f89e9edc027a59d5f3a1	Sukses
4359b849248b6a45e0a622f18375e5bec578d0f7	2018-05-07 11:17:23	125.160.135.73	User Login	Sukses
	2018-05-07 11:20:09	125.160.135.73	User Logout	Sukses
8aa60fd74b80ab5cb711252289cba263db544358	2018-05-07 11:20:15	125.160.135.73	User Login	Sukses
4359b849248b6a45e0a622f18375e5bec578d0f7	2018-05-07 11:20:19	125.160.135.73	Mengomentari Kertas Kerja dengan ID 40c5bc85f97df4e84900e3b76bf5674f7f2b4d0d	Sukses
e2274a53e9109f4c736a4da4128f317355e19e4f	2018-05-07 11:20:28	36.83.241.198	User Login	Sukses
4359b849248b6a45e0a622f18375e5bec578d0f7	2018-05-07 11:22:02	125.160.135.73	Mengomentari Kertas Kerja dengan ID 9d8038dd5c2f0e61ad3ca1f44c08d7dab1a96ad2	Sukses
7474c495f1b75c70474939b7982be2e0876bb834	2018-05-07 11:24:50	115.178.237.157	User Login	Sukses
cb13cb7f4f2984d2b477c7900dd3f93c623616da	2018-05-07 11:26:42	125.160.135.73	User Login	Sukses
	2018-05-07 11:33:55	125.160.135.73	Menambah History Kertas Kerja Dengan ID II/A/1/1	Sukses
8aa60fd74b80ab5cb711252289cba263db544358	2018-05-07 11:34:14	125.160.135.73	Mengubah Kertas Kerja dengan ID 40c5bc85f97df4e84900e3b76bf5674f7f2b4d0d	Sukses
2f24604c659f87c506b338358340100d8ffd143a	2018-05-07 11:36:08	114.125.216.111	User Login	Sukses
8aa60fd74b80ab5cb711252289cba263db544358	2018-05-07 11:36:14	125.160.135.73	Menghapus Kertas Kerja Audit dengan ID 40c5bc85f97df4e84900e3b76bf5674f7f2b4d0d	Sukses
e2274a53e9109f4c736a4da4128f317355e19e4f	2018-05-07 11:37:27	36.83.241.198	Menambah Kertas Kerja Dengan ID a00a344589efac1e1edff48f1398144eb7d607eb	Sukses
8aa60fd74b80ab5cb711252289cba263db544358	2018-05-07 11:38:11	125.160.135.73	User Logout	Sukses
8aa60fd74b80ab5cb711252289cba263db544358	2018-05-07 11:38:15	125.160.135.73	User Login	Sukses
41a01b7f8a96b3daa702f3e4b6af404683f91553	2018-05-07 11:39:18	182.1.210.164	User Login	Sukses
2f24604c659f87c506b338358340100d8ffd143a	2018-05-07 11:40:28	114.125.216.111	Mengomentari Kertas Kerja dengan ID 56de322665caa19f14ad5015db1bec3a84708ab2	Sukses
	2018-05-07 11:44:08	36.83.241.198	User Logout	Sukses
780cbcefa876e8865a8b7a5c7b2b698a18c85e5b	2018-05-07 11:44:43	46.101.22.182	Menambah Temuan No 8	Sukses
2f24604c659f87c506b338358340100d8ffd143a	2018-05-07 11:45:36	114.125.216.111	User Login	Sukses
e2274a53e9109f4c736a4da4128f317355e19e4f	2018-05-07 11:46:20	36.83.241.198	Mengubah Kertas Kerja dengan ID 960e188131973d64d135a02fa7442d676859ed7f	Sukses
e2274a53e9109f4c736a4da4128f317355e19e4f	2018-05-07 11:48:29	36.83.241.198	User Logout	Sukses
4359b849248b6a45e0a622f18375e5bec578d0f7	2018-05-07 11:51:31	125.160.135.73	User Logout	Sukses
4f8af2a22ce1d40d33cf08a0a3d2bd35ae8984d3	2018-05-07 11:55:35	112.215.201.32	User Login	Sukses
4f8af2a22ce1d40d33cf08a0a3d2bd35ae8984d3	2018-05-07 11:56:26	112.215.201.32	Backup Database	Sukses
4359b849248b6a45e0a622f18375e5bec578d0f7	2018-05-07 11:58:41	125.160.135.73	User Login	Sukses
8aa60fd74b80ab5cb711252289cba263db544358	2018-05-07 12:10:32	125.160.135.73	Menambah Referensi Program Audit III/C/1	Sukses
4359b849248b6a45e0a622f18375e5bec578d0f7	2018-05-07 12:11:07	125.160.135.73	User Logout	Sukses
4359b849248b6a45e0a622f18375e5bec578d0f7	2018-05-07 12:11:11	125.160.135.73	User Login	Sukses
bf8dd7f5c663be1ff5d87fbb02541f874ccf1dca	2018-05-07 12:13:58	36.67.24.53	User Login	Sukses
58e5385e24299ad94436d5402dfcaf761228ba49	2018-05-07 12:14:12	36.75.179.100	User Login	Sukses
780cbcefa876e8865a8b7a5c7b2b698a18c85e5b	2018-05-07 12:14:14	46.101.22.182	User Logout	Sukses
4e74435b3f7a430b7f1070105883774c0b2bc84a	2018-05-07 12:14:29	36.75.179.100	User Login	Sukses
8aa60fd74b80ab5cb711252289cba263db544358	2018-05-07 12:14:30	125.160.135.73	Menambah Program Audit ID 7e9f6f141fde6b8506bed8c23bd5dea2d3ade078	Sukses
58e5385e24299ad94436d5402dfcaf761228ba49	2018-05-07 12:19:23	36.75.179.100	User Login	Sukses
780cbcefa876e8865a8b7a5c7b2b698a18c85e5b	2018-05-07 12:22:12	46.101.22.182	User Login	Sukses
8aa60fd74b80ab5cb711252289cba263db544358	2018-05-07 12:24:07	125.160.135.73	Menambah Referensi Program Audit III/C/2	Sukses
4359b849248b6a45e0a622f18375e5bec578d0f7	2018-05-07 12:27:50	125.160.135.73	User Logout	Sukses
4359b849248b6a45e0a622f18375e5bec578d0f7	2018-05-07 12:27:54	125.160.135.73	User Login	Sukses
8aa60fd74b80ab5cb711252289cba263db544358	2018-05-07 12:29:10	125.160.135.73	Menambah Referensi Program Audit III/C/3	Sukses
8aa60fd74b80ab5cb711252289cba263db544358	2018-05-07 12:32:04	125.160.135.73	Menambah Referensi Program Audit III/C/4	Sukses
4f8af2a22ce1d40d33cf08a0a3d2bd35ae8984d3	2018-05-07 12:34:25	139.192.58.201	User Login	Sukses
8aa60fd74b80ab5cb711252289cba263db544358	2018-05-07 12:34:57	125.160.135.73	Menambah Referensi Program Audit III/C/5	Sukses
4f8af2a22ce1d40d33cf08a0a3d2bd35ae8984d3	2018-05-07 12:35:45	139.192.58.201	User Logout	Sukses
4f8af2a22ce1d40d33cf08a0a3d2bd35ae8984d3	2018-05-07 12:37:40	139.192.58.201	User Login	Sukses
8aa60fd74b80ab5cb711252289cba263db544358	2018-05-07 12:38:58	125.160.135.73	Menambah Referensi Program Audit III/C/6	Sukses
8aa60fd74b80ab5cb711252289cba263db544358	2018-05-07 12:40:17	125.160.135.73	Menambah Referensi Program Audit III/C/7	Sukses
8aa60fd74b80ab5cb711252289cba263db544358	2018-05-07 12:41:33	125.160.135.73	Menambah Referensi Program Audit III/C/8	Sukses
780cbcefa876e8865a8b7a5c7b2b698a18c85e5b	2018-05-07 12:42:02	46.101.22.182	User Logout	Sukses
780cbcefa876e8865a8b7a5c7b2b698a18c85e5b	2018-05-07 12:42:12	46.101.22.182	User Login	Sukses
8aa60fd74b80ab5cb711252289cba263db544358	2018-05-07 12:44:25	125.160.135.73	Menambah Referensi Program Audit III/C/9	Sukses
780cbcefa876e8865a8b7a5c7b2b698a18c85e5b	2018-05-07 12:44:38	46.101.22.182	Menambah Kertas Kerja Dengan ID 680da77f71030d550bb9dd903808927b60f94b85	Sukses
780cbcefa876e8865a8b7a5c7b2b698a18c85e5b	2018-05-07 12:45:54	46.101.22.182	Menambah Kertas Kerja Dengan ID 680da77f71030d550bb9dd903808927b60f94b85	Sukses
780cbcefa876e8865a8b7a5c7b2b698a18c85e5b	2018-05-07 12:46:25	46.101.22.182	Menghapus Kertas Kerja Audit dengan ID 024530cd7d35b0ecef6a5dc906789b0efc4fd093	Sukses
780cbcefa876e8865a8b7a5c7b2b698a18c85e5b	2018-05-07 12:46:48	46.101.22.182	Menambah Kertas Kerja Dengan ID 680da77f71030d550bb9dd903808927b60f94b85	Sukses
780cbcefa876e8865a8b7a5c7b2b698a18c85e5b	2018-05-07 12:47:22	46.101.22.182	Mengubah Kertas Kerja dengan ID 42651c9280b78d45c8a47a60562eb47ebea50c01	Sukses
780cbcefa876e8865a8b7a5c7b2b698a18c85e5b	2018-05-07 12:48:01	46.101.22.182	Mengubah Kertas Kerja dengan ID cd6efe04a6df4116543c20278d372b61642923ad	Sukses
8aa60fd74b80ab5cb711252289cba263db544358	2018-05-07 12:48:39	125.160.135.73	Menambah Program Audit ID 5d58813828818ede6dafd5076cac2c004d3192bf	Sukses
780cbcefa876e8865a8b7a5c7b2b698a18c85e5b	2018-05-07 12:48:40	46.101.22.182	Mengubah Kertas Kerja dengan ID 42651c9280b78d45c8a47a60562eb47ebea50c01	Sukses
780cbcefa876e8865a8b7a5c7b2b698a18c85e5b	2018-05-07 12:51:07	46.101.22.182	Menambah Kertas Kerja Dengan ID 2c4d516568f1d8f0b92d54b70030bbfce147c182	Sukses
8aa60fd74b80ab5cb711252289cba263db544358	2018-05-07 12:51:37	125.160.135.73	Menambah Program Audit ID a024ec42d2a5ad45f4c39bef54886a47783c7014	Sukses
780cbcefa876e8865a8b7a5c7b2b698a18c85e5b	2018-05-07 12:52:08	46.101.22.182	Mengubah Kertas Kerja dengan ID 9bde1fdc1829ff26fd769831357daf112c2e18b4	Sukses
8aa60fd74b80ab5cb711252289cba263db544358	2018-05-07 12:53:08	125.160.135.73	Mengubah Referensi Program Audit dengan ID 6b3b402edafbff6c94ab2c8736e62603742db97b	Sukses
8aa60fd74b80ab5cb711252289cba263db544358	2018-05-07 12:53:39	125.160.135.73	Mengubah Referensi Program Audit dengan ID 1f5611dd7ead61e74301ed8622398f1a6f4fc71d	Sukses
8aa60fd74b80ab5cb711252289cba263db544358	2018-05-07 12:54:06	125.160.135.73	Mengubah Referensi Program Audit dengan ID b03f061064dfd124ff68ce7503507837823b145f	Sukses
8aa60fd74b80ab5cb711252289cba263db544358	2018-05-07 12:54:36	125.160.135.73	Mengubah Referensi Program Audit dengan ID 5b9ff5d30ffed7e0c127705727ad5b09f9496b65	Sukses
8aa60fd74b80ab5cb711252289cba263db544358	2018-05-07 12:55:16	125.160.135.73	Mengubah Referensi Program Audit dengan ID 5b9ff5d30ffed7e0c127705727ad5b09f9496b65	Sukses
4359b849248b6a45e0a622f18375e5bec578d0f7	2018-05-07 12:55:23	125.160.135.73	User Logout	Sukses
8aa60fd74b80ab5cb711252289cba263db544358	2018-05-07 12:56:40	125.160.135.73	Mengubah Referensi Program Audit dengan ID 7f6a531638f5e44214b05e398b5504de7379e98e	Sukses
780cbcefa876e8865a8b7a5c7b2b698a18c85e5b	2018-05-07 12:57:14	46.101.22.182	Menambah Kertas Kerja Dengan ID 79a81c7790157daae7de0481ea12fcfa84d8e728	Sukses
8aa60fd74b80ab5cb711252289cba263db544358	2018-05-07 12:57:19	125.160.135.73	Mengubah Referensi Program Audit dengan ID 6161d26988e06924347ab219bab89cb57bd601ea	Sukses
8aa60fd74b80ab5cb711252289cba263db544358	2018-05-07 12:57:49	125.160.135.73	Mengubah Referensi Program Audit dengan ID 2388fa8ff72b34c38e9c74117fa03ef18624fe04	Sukses
9b44ac8966798da6f357fc1689342e187013cd51	2018-05-07 12:57:59	128.199.225.229	User Login	Sukses
8aa60fd74b80ab5cb711252289cba263db544358	2018-05-07 12:58:17	125.160.135.73	Mengubah Referensi Program Audit dengan ID 484184df7dac10afd0f484759a2e311b6f13bc27	Sukses
8aa60fd74b80ab5cb711252289cba263db544358	2018-05-07 12:58:51	125.160.135.73	Mengubah Referensi Program Audit dengan ID ee382e8937bba5a2e7cd83d7e038cb568ac8132d	Sukses
4f8af2a22ce1d40d33cf08a0a3d2bd35ae8984d3	2018-05-07 13:01:16	139.192.58.201	User Login	Sukses
8aa60fd74b80ab5cb711252289cba263db544358	2018-05-07 13:01:34	125.160.135.73	Menambah Program Audit ID 3e52649010ed550de6f7f89891735457f08837e1	Sukses
4f8af2a22ce1d40d33cf08a0a3d2bd35ae8984d3	2018-05-07 13:03:08	10.10.100.2	User Login	Sukses
8aa60fd74b80ab5cb711252289cba263db544358	2018-05-07 13:03:32	125.160.135.73	Menambah Program Audit ID 600053b3386de6bca8921f5cccf758ae61259d75	Sukses
780cbcefa876e8865a8b7a5c7b2b698a18c85e5b	2018-05-07 13:04:24	46.101.22.182	Menambah Kertas Kerja Dengan ID 3d82578b893202478de3a9fd0d936eac84679b22	Sukses
4f8af2a22ce1d40d33cf08a0a3d2bd35ae8984d3	2018-05-07 13:05:25	10.10.100.2	User Logout	Sukses
bdae6159dc4d3f67b8d835461c3f4020c3e68999	2018-05-07 13:05:40	36.75.179.100	User Login	Sukses
8aa60fd74b80ab5cb711252289cba263db544358	2018-05-07 13:06:01	125.160.135.73	Menambah Program Audit ID 8ccac448a9de1b91e7b0b6334526c414521a6501	Sukses
780cbcefa876e8865a8b7a5c7b2b698a18c85e5b	2018-05-07 13:06:07	46.101.22.182	Menambah Kertas Kerja Dengan ID 7bdb3eb3d9f11ee1ae542807248c9a62b2b5780c	Sukses
8aa60fd74b80ab5cb711252289cba263db544358	2018-05-07 13:06:56	125.160.135.73	Menambah Program Audit ID 724b38fe3e8b4cab6429baf2b475fe942ff351c8	Sukses
8aa60fd74b80ab5cb711252289cba263db544358	2018-05-07 13:08:26	125.160.135.73	Menambah Program Audit ID fe17e82e39b3c64188fe0c579562a6b9abe31c11	Sukses
780cbcefa876e8865a8b7a5c7b2b698a18c85e5b	2018-05-07 13:08:58	46.101.22.182	Mengubah Kertas Kerja dengan ID 87e14f191858fab4c23fbac4cbe6ac172ef020b5	Sukses
8aa60fd74b80ab5cb711252289cba263db544358	2018-05-07 13:09:21	125.160.135.73	Menambah Program Audit ID 8da3fc0587f810a654649a56ac5843157e04e0fe	Sukses
8aa60fd74b80ab5cb711252289cba263db544358	2018-05-07 13:10:49	125.160.135.73	Menambah Program Audit ID 692c5e4947613c7085755588ac52c58f4a3c4448	Sukses
4f8af2a22ce1d40d33cf08a0a3d2bd35ae8984d3	2018-05-07 13:11:07	112.215.201.205	User Login	Sukses
8aa60fd74b80ab5cb711252289cba263db544358	2018-05-07 13:11:10	125.160.135.73	Menghapus Program Audit dengan ID 3e52649010ed550de6f7f89891735457f08837e1	Sukses
8aa60fd74b80ab5cb711252289cba263db544358	2018-05-07 13:11:46	125.160.135.73	Menghapus Program Audit dengan ID 692c5e4947613c7085755588ac52c58f4a3c4448	Sukses
8aa60fd74b80ab5cb711252289cba263db544358	2018-05-07 13:14:02	125.160.135.73	Menambah Program Audit ID f9bae9f5b3cffd99e0660226445457a12c4d4f77	Sukses
4359b849248b6a45e0a622f18375e5bec578d0f7	2018-05-07 13:16:26	125.160.135.73	User Login	Sukses
8aa60fd74b80ab5cb711252289cba263db544358	2018-05-07 13:16:45	125.160.135.73	Mengubah Status Program Audit dengan ID 7e9f6f141fde6b8506bed8c23bd5dea2d3ade078	Sukses
8aa60fd74b80ab5cb711252289cba263db544358	2018-05-07 13:18:10	125.160.135.73	Mengubah Status Program Audit dengan ID 5d58813828818ede6dafd5076cac2c004d3192bf	Sukses
8aa60fd74b80ab5cb711252289cba263db544358	2018-05-07 13:18:59	125.160.135.73	Mengubah Status Program Audit dengan ID a024ec42d2a5ad45f4c39bef54886a47783c7014	Sukses
8aa60fd74b80ab5cb711252289cba263db544358	2018-05-07 13:19:32	125.160.135.73	Mengubah Status Program Audit dengan ID 600053b3386de6bca8921f5cccf758ae61259d75	Sukses
8aa60fd74b80ab5cb711252289cba263db544358	2018-05-07 13:19:44	125.160.135.73	Mengubah Status Program Audit dengan ID 8ccac448a9de1b91e7b0b6334526c414521a6501	Sukses
8aa60fd74b80ab5cb711252289cba263db544358	2018-05-07 13:20:03	125.160.135.73	Mengubah Status Program Audit dengan ID 724b38fe3e8b4cab6429baf2b475fe942ff351c8	Sukses
8aa60fd74b80ab5cb711252289cba263db544358	2018-05-07 13:20:23	125.160.135.73	Mengubah Status Program Audit dengan ID fe17e82e39b3c64188fe0c579562a6b9abe31c11	Sukses
4359b849248b6a45e0a622f18375e5bec578d0f7	2018-05-07 13:20:33	125.160.135.73	Mengubah Status Program Audit dengan ID 7e9f6f141fde6b8506bed8c23bd5dea2d3ade078	Sukses
8aa60fd74b80ab5cb711252289cba263db544358	2018-05-07 13:20:41	125.160.135.73	Mengubah Status Program Audit dengan ID 8da3fc0587f810a654649a56ac5843157e04e0fe	Sukses
4359b849248b6a45e0a622f18375e5bec578d0f7	2018-05-07 13:20:57	125.160.135.73	Mengubah Status Program Audit dengan ID 5d58813828818ede6dafd5076cac2c004d3192bf	Sukses
8aa60fd74b80ab5cb711252289cba263db544358	2018-05-07 13:21:03	125.160.135.73	Mengubah Status Program Audit dengan ID f9bae9f5b3cffd99e0660226445457a12c4d4f77	Sukses
780cbcefa876e8865a8b7a5c7b2b698a18c85e5b	2018-05-07 13:23:25	46.101.22.182	Mengubah Kertas Kerja dengan ID 87e14f191858fab4c23fbac4cbe6ac172ef020b5	Sukses
780cbcefa876e8865a8b7a5c7b2b698a18c85e5b	2018-05-07 13:24:24	46.101.22.182	User Logout	Sukses
2f24604c659f87c506b338358340100d8ffd143a	2018-05-07 13:24:39	46.101.22.182	User Login	Sukses
2f24604c659f87c506b338358340100d8ffd143a	2018-05-07 13:26:06	46.101.22.182	Mengomentari Kertas Kerja dengan ID f3bf1d30853efe85e159db6d2cce7c070dd673aa	Sukses
2f24604c659f87c506b338358340100d8ffd143a	2018-05-07 13:27:30	46.101.22.182	User Logout	Sukses
780cbcefa876e8865a8b7a5c7b2b698a18c85e5b	2018-05-07 13:27:38	46.101.22.182	User Login	Sukses
780cbcefa876e8865a8b7a5c7b2b698a18c85e5b	2018-05-07 13:28:33	46.101.22.182	Menambah Program Audit ID 3ef333ef4210886359778031239f2167bbbf454b	Sukses
780cbcefa876e8865a8b7a5c7b2b698a18c85e5b	2018-05-07 13:29:08	46.101.22.182	Mengubah Status Program Audit dengan ID 3ef333ef4210886359778031239f2167bbbf454b	Sukses
780cbcefa876e8865a8b7a5c7b2b698a18c85e5b	2018-05-07 13:29:30	46.101.22.182	User Logout	Sukses
2f24604c659f87c506b338358340100d8ffd143a	2018-05-07 13:29:37	46.101.22.182	User Login	Sukses
2f24604c659f87c506b338358340100d8ffd143a	2018-05-07 13:30:17	46.101.22.182	Mengubah Status Program Audit dengan ID 3ef333ef4210886359778031239f2167bbbf454b	Sukses
2f24604c659f87c506b338358340100d8ffd143a	2018-05-07 13:31:46	46.101.22.182	Mengomentari Kertas Kerja dengan ID 5f230287950ba598425b5663c7f7db29f12601bc	Sukses
2f24604c659f87c506b338358340100d8ffd143a	2018-05-07 13:34:30	46.101.22.182	User Logout	Sukses
780cbcefa876e8865a8b7a5c7b2b698a18c85e5b	2018-05-07 13:34:38	46.101.22.182	User Login	Sukses
780cbcefa876e8865a8b7a5c7b2b698a18c85e5b	2018-05-07 13:35:47	46.101.22.182	Menambah Kertas Kerja Dengan ID 3ef333ef4210886359778031239f2167bbbf454b	Sukses
bdae6159dc4d3f67b8d835461c3f4020c3e68999	2018-05-07 13:38:55	36.75.179.100	Menambah Kertas Kerja Dengan ID ac23166e9803219cdf1d84578c83ea3368d5c0cb	Sukses
780cbcefa876e8865a8b7a5c7b2b698a18c85e5b	2018-05-07 13:40:00	46.101.22.182	Menambah Temuan No 8	Sukses
bdae6159dc4d3f67b8d835461c3f4020c3e68999	2018-05-07 13:40:24	36.75.179.100	Mengomentari Kertas Kerja dengan ID 99ecff52d1e568060e1e917c9ca585be1c5eee2d	Sukses
780cbcefa876e8865a8b7a5c7b2b698a18c85e5b	2018-05-07 13:40:45	46.101.22.182	Mengomentari Temuan dengan ID e7f4ee6a7210fc0f63c82b893fdc0577baf37d09	Sukses
780cbcefa876e8865a8b7a5c7b2b698a18c85e5b	2018-05-07 13:41:23	46.101.22.182	Mengomentari Temuan dengan ID e7f4ee6a7210fc0f63c82b893fdc0577baf37d09	Sukses
780cbcefa876e8865a8b7a5c7b2b698a18c85e5b	2018-05-07 13:41:34	46.101.22.182	User Logout	Sukses
8aa60fd74b80ab5cb711252289cba263db544358	2018-05-07 13:41:37	125.160.135.73	Menambah Kertas Kerja Dengan ID 7e9f6f141fde6b8506bed8c23bd5dea2d3ade078	Sukses
2f24604c659f87c506b338358340100d8ffd143a	2018-05-07 13:41:41	46.101.22.182	User Login	Sukses
4e74435b3f7a430b7f1070105883774c0b2bc84a	2018-05-07 13:43:11	36.75.179.100	User Login	Sukses
dc8dae2304340707fb80325173e88159f4c8e02c	2018-05-07 13:43:45	180.249.20.220	User Login	Sukses
2f24604c659f87c506b338358340100d8ffd143a	2018-05-07 13:46:06	46.101.22.182	User Logout	Sukses
41a01b7f8a96b3daa702f3e4b6af404683f91553	2018-05-07 13:46:14	46.101.22.182	User Login	Sukses
41a01b7f8a96b3daa702f3e4b6af404683f91553	2018-05-07 13:47:21	46.101.22.182	Mengomentari Kertas Kerja dengan ID cd6efe04a6df4116543c20278d372b61642923ad	Sukses
41a01b7f8a96b3daa702f3e4b6af404683f91553	2018-05-07 13:47:44	46.101.22.182	Mengomentari Kertas Kerja dengan ID 42651c9280b78d45c8a47a60562eb47ebea50c01	Sukses
41a01b7f8a96b3daa702f3e4b6af404683f91553	2018-05-07 13:48:42	46.101.22.182	Mengomentari Kertas Kerja dengan ID 354b12fa3015073d4e2a1d1c85017537a4dd5e08	Sukses
41a01b7f8a96b3daa702f3e4b6af404683f91553	2018-05-07 13:49:09	46.101.22.182	Mengomentari Kertas Kerja dengan ID 47ddde985ca63cd1e9b3db042e059b0f79635572	Sukses
8aa60fd74b80ab5cb711252289cba263db544358	2018-05-07 13:49:46	125.160.135.73	Menambah Kertas Kerja Dengan ID 7e9f6f141fde6b8506bed8c23bd5dea2d3ade078	Sukses
41a01b7f8a96b3daa702f3e4b6af404683f91553	2018-05-07 13:50:04	46.101.22.182	Mengomentari Kertas Kerja dengan ID f852fc48afe513431b01d879c7176f85ea10d316	Sukses
41a01b7f8a96b3daa702f3e4b6af404683f91553	2018-05-07 13:51:40	46.101.22.182	User Logout	Sukses
1f24444ae39aca674be919784d647091ea0cc6b5	2018-05-07 13:52:15	46.101.22.182	User Login	Sukses
1f24444ae39aca674be919784d647091ea0cc6b5	2018-05-07 13:53:01	46.101.22.182	Mengomentari Kertas Kerja dengan ID 25ec045cfc204e78c38ff1a23bbc807a0ec271ec	Sukses
1f24444ae39aca674be919784d647091ea0cc6b5	2018-05-07 13:53:48	46.101.22.182	Mengomentari Kertas Kerja dengan ID baa4aef40584085a09797c49c069daa004fde1b1	Sukses
1f24444ae39aca674be919784d647091ea0cc6b5	2018-05-07 13:54:35	46.101.22.182	Mengomentari Kertas Kerja dengan ID 9bde1fdc1829ff26fd769831357daf112c2e18b4	Sukses
32eb57d70435dedd24820e51392b19353a43e9cf	2018-05-07 13:55:19	180.249.20.220	User Login	Sukses
1f24444ae39aca674be919784d647091ea0cc6b5	2018-05-07 13:55:32	46.101.22.182	Mengomentari Kertas Kerja dengan ID 87e14f191858fab4c23fbac4cbe6ac172ef020b5	Sukses
1f24444ae39aca674be919784d647091ea0cc6b5	2018-05-07 13:55:45	46.101.22.182	User Logout	Sukses
780cbcefa876e8865a8b7a5c7b2b698a18c85e5b	2018-05-07 13:55:51	46.101.22.182	User Login	Sukses
780cbcefa876e8865a8b7a5c7b2b698a18c85e5b	2018-05-07 13:58:42	46.101.22.182	Mengomentari Kertas Kerja dengan ID 87e14f191858fab4c23fbac4cbe6ac172ef020b5	Sukses
dc8dae2304340707fb80325173e88159f4c8e02c	2018-05-07 13:58:52	180.249.20.220	User Login	Sukses
	2018-05-07 13:58:53	125.160.135.73	Menambah History Kertas Kerja Dengan ID III/C/1	Sukses
	2018-05-07 13:59:38	125.160.135.73	Menambah History Kertas Kerja Dengan ID III/C/1	Sukses
780cbcefa876e8865a8b7a5c7b2b698a18c85e5b	2018-05-07 13:59:56	46.101.22.182	Mengomentari Kertas Kerja dengan ID 9bde1fdc1829ff26fd769831357daf112c2e18b4	Sukses
780cbcefa876e8865a8b7a5c7b2b698a18c85e5b	2018-05-07 14:01:11	46.101.22.182	Mengomentari Kertas Kerja dengan ID 25ec045cfc204e78c38ff1a23bbc807a0ec271ec	Sukses
8aa60fd74b80ab5cb711252289cba263db544358	2018-05-07 14:01:26	125.160.135.73	Mengomentari Kertas Kerja dengan ID a3a9b0fb761abaac0e2707ba77111edb3be702a7	Sukses
780cbcefa876e8865a8b7a5c7b2b698a18c85e5b	2018-05-07 14:01:51	46.101.22.182	Mengomentari Kertas Kerja dengan ID f852fc48afe513431b01d879c7176f85ea10d316	Sukses
780cbcefa876e8865a8b7a5c7b2b698a18c85e5b	2018-05-07 14:02:42	46.101.22.182	Mengomentari Kertas Kerja dengan ID cd6efe04a6df4116543c20278d372b61642923ad	Sukses
780cbcefa876e8865a8b7a5c7b2b698a18c85e5b	2018-05-07 14:03:01	46.101.22.182	Mengomentari Kertas Kerja dengan ID 42651c9280b78d45c8a47a60562eb47ebea50c01	Sukses
8aa60fd74b80ab5cb711252289cba263db544358	2018-05-07 14:03:14	125.160.135.73	Menghapus Kertas Kerja Audit dengan ID 2f146a7ec7c7d25e12ec6802c65c1ae94682d453	Sukses
780cbcefa876e8865a8b7a5c7b2b698a18c85e5b	2018-05-07 14:03:47	46.101.22.182	Mengomentari Kertas Kerja dengan ID 354b12fa3015073d4e2a1d1c85017537a4dd5e08	Sukses
780cbcefa876e8865a8b7a5c7b2b698a18c85e5b	2018-05-07 14:04:05	46.101.22.182	Mengomentari Kertas Kerja dengan ID 47ddde985ca63cd1e9b3db042e059b0f79635572	Sukses
780cbcefa876e8865a8b7a5c7b2b698a18c85e5b	2018-05-07 14:06:26	46.101.22.182	Mengomentari Kertas Kerja dengan ID baa4aef40584085a09797c49c069daa004fde1b1	Sukses
780cbcefa876e8865a8b7a5c7b2b698a18c85e5b	2018-05-07 14:07:16	46.101.22.182	User Logout	Sukses
2f24604c659f87c506b338358340100d8ffd143a	2018-05-07 14:07:25	46.101.22.182	User Login	Sukses
2f24604c659f87c506b338358340100d8ffd143a	2018-05-07 14:08:04	46.101.22.182	Mengomentari Kertas Kerja dengan ID baa4aef40584085a09797c49c069daa004fde1b1	Sukses
2f24604c659f87c506b338358340100d8ffd143a	2018-05-07 14:09:12	46.101.22.182	Mengomentari Kertas Kerja dengan ID 354b12fa3015073d4e2a1d1c85017537a4dd5e08	Sukses
2f24604c659f87c506b338358340100d8ffd143a	2018-05-07 14:09:32	46.101.22.182	Mengomentari Kertas Kerja dengan ID 47ddde985ca63cd1e9b3db042e059b0f79635572	Sukses
4e74435b3f7a430b7f1070105883774c0b2bc84a	2018-05-07 14:09:34	36.75.179.100	Menambah Temuan No 2	Sukses
2f24604c659f87c506b338358340100d8ffd143a	2018-05-07 14:11:02	46.101.22.182	Mengomentari Kertas Kerja dengan ID cd6efe04a6df4116543c20278d372b61642923ad	Sukses
2f24604c659f87c506b338358340100d8ffd143a	2018-05-07 14:11:34	46.101.22.182	Mengomentari Kertas Kerja dengan ID 42651c9280b78d45c8a47a60562eb47ebea50c01	Sukses
8aa60fd74b80ab5cb711252289cba263db544358	2018-05-07 14:11:49	125.160.135.73	Menambah Kertas Kerja Dengan ID 5d58813828818ede6dafd5076cac2c004d3192bf	Sukses
41a01b7f8a96b3daa702f3e4b6af404683f91553	2018-05-07 14:12:22	182.1.193.115	User Login	Sukses
4e74435b3f7a430b7f1070105883774c0b2bc84a	2018-05-07 14:12:59	36.75.179.100	Menambah Rekomendasi dengan ID a7229af1704022466870c4acc8d5e714042efbaa	Sukses
8aa60fd74b80ab5cb711252289cba263db544358	2018-05-07 14:13:48	125.160.135.73	Menambah Kertas Kerja Dengan ID 5d58813828818ede6dafd5076cac2c004d3192bf	Sukses
8aa60fd74b80ab5cb711252289cba263db544358	2018-05-07 14:14:33	125.160.135.73	Mengomentari Kertas Kerja dengan ID 400f94af3ba18f269a34a26a708514297bf71682	Sukses
8aa60fd74b80ab5cb711252289cba263db544358	2018-05-07 14:15:11	125.160.135.73	Mengomentari Kertas Kerja dengan ID 400f94af3ba18f269a34a26a708514297bf71682	Sukses
2f24604c659f87c506b338358340100d8ffd143a	2018-05-07 14:15:24	46.101.22.182	Mengomentari Kertas Kerja dengan ID 9bde1fdc1829ff26fd769831357daf112c2e18b4	Sukses
8aa60fd74b80ab5cb711252289cba263db544358	2018-05-07 14:16:17	125.160.135.73	Menghapus Kertas Kerja Audit dengan ID 18c1c22943635898521cfb17b9b815ace6451b79	Sukses
4359b849248b6a45e0a622f18375e5bec578d0f7	2018-05-07 14:17:58	125.160.135.73	User Logout	Sukses
4359b849248b6a45e0a622f18375e5bec578d0f7	2018-05-07 14:18:02	125.160.135.73	User Login	Sukses
4e74435b3f7a430b7f1070105883774c0b2bc84a	2018-05-07 14:18:19	36.75.179.100	Mengubah Rekomendasi ID 0dea265282febd75158bb827f700f57d0a5e191b	Sukses
2f24604c659f87c506b338358340100d8ffd143a	2018-05-07 14:18:31	46.101.22.182	Mengomentari Kertas Kerja dengan ID f852fc48afe513431b01d879c7176f85ea10d316	Sukses
2f24604c659f87c506b338358340100d8ffd143a	2018-05-07 14:22:50	46.101.22.182	Mengomentari Kertas Kerja dengan ID 87e14f191858fab4c23fbac4cbe6ac172ef020b5	Sukses
41a01b7f8a96b3daa702f3e4b6af404683f91553	2018-05-07 14:25:18	182.1.212.120	Menambah Kertas Kerja Dengan ID 0df26ffc72c4eb34a8d1fb4293252e0b7e4654e0	Sukses
2f24604c659f87c506b338358340100d8ffd143a	2018-05-07 14:25:31	46.101.22.182	User Login	Sukses
41a01b7f8a96b3daa702f3e4b6af404683f91553	2018-05-07 14:26:17	182.1.212.120	Mengomentari Kertas Kerja dengan ID 5b77fc348f1fab416f2480d2a17a14bd85b3fa11	Sukses
2f24604c659f87c506b338358340100d8ffd143a	2018-05-07 14:26:47	46.101.22.182	Mengomentari Kertas Kerja dengan ID 25ec045cfc204e78c38ff1a23bbc807a0ec271ec	Sukses
2f24604c659f87c506b338358340100d8ffd143a	2018-05-07 14:27:27	46.101.22.182	User Logout	Sukses
780cbcefa876e8865a8b7a5c7b2b698a18c85e5b	2018-05-07 14:27:33	46.101.22.182	User Login	Sukses
8aa60fd74b80ab5cb711252289cba263db544358	2018-05-07 14:27:52	125.160.135.73	Mengomentari Kertas Kerja dengan ID c7ef9823439aea9c7cfc7e502bb4ebbf90909f98	Sukses
8aa60fd74b80ab5cb711252289cba263db544358	2018-05-07 14:28:13	125.160.135.73	Mengomentari Kertas Kerja dengan ID 5a104684bf0af567475da57d8d7d07d7ff680e5a	Sukses
8aa60fd74b80ab5cb711252289cba263db544358	2018-05-07 14:28:36	125.160.135.73	Mengomentari Kertas Kerja dengan ID dfbc032eab67924297f720cfa9e9c64a508c3518	Sukses
4e74435b3f7a430b7f1070105883774c0b2bc84a	2018-05-07 14:28:53	36.75.179.100	User Logout	Sukses
775e4d1b21e44ebb86bafd57c572dadee09a3443	2018-05-07 14:29:09	36.75.179.100	User Login	Sukses
8aa60fd74b80ab5cb711252289cba263db544358	2018-05-07 14:29:59	125.160.135.73	Menghapus Kertas Kerja Audit dengan ID f41f314d024713819428428eb4f158e15f90bfb5	Sukses
775e4d1b21e44ebb86bafd57c572dadee09a3443	2018-05-07 14:31:47	36.75.179.100	User Logout	Sukses
4e74435b3f7a430b7f1070105883774c0b2bc84a	2018-05-07 14:31:55	36.75.179.100	User Login	Sukses
780cbcefa876e8865a8b7a5c7b2b698a18c85e5b	2018-05-07 14:32:00	46.101.22.182	Menambah Rekomendasi dengan ID e59414a1b26d6cc732b62fedeb2a620ae1c8908e	Sukses
780cbcefa876e8865a8b7a5c7b2b698a18c85e5b	2018-05-07 14:35:25	46.101.22.182	Menambah Temuan No 6	Sukses
4359b849248b6a45e0a622f18375e5bec578d0f7	2018-05-07 14:35:32	125.160.135.73	User Logout	Sukses
4359b849248b6a45e0a622f18375e5bec578d0f7	2018-05-07 14:35:37	125.160.135.73	User Login	Sukses
8aa60fd74b80ab5cb711252289cba263db544358	2018-05-07 14:36:13	125.160.135.73	Mengomentari Kertas Kerja dengan ID f42968549dadb9f2bbd810e8f44f272dcf0e642d	Sukses
780cbcefa876e8865a8b7a5c7b2b698a18c85e5b	2018-05-07 14:36:26	46.101.22.182	Menambah Rekomendasi dengan ID ff652f1bc3aaffebac032db19973b9a7ab783bfe	Sukses
4359b849248b6a45e0a622f18375e5bec578d0f7	2018-05-07 14:36:30	125.160.135.73	Mengomentari Kertas Kerja dengan ID 284ad4d0d08b368ab1793a2793eaf9226929798b	Sukses
8aa60fd74b80ab5cb711252289cba263db544358	2018-05-07 14:36:41	125.160.135.73	Mengomentari Kertas Kerja dengan ID 2fc1e1fd1897426a373f88c6f438b76db3193bd8	Sukses
4359b849248b6a45e0a622f18375e5bec578d0f7	2018-05-07 14:36:53	125.160.135.73	Mengomentari Kertas Kerja dengan ID 1e1a9992c3feb1ee021b253ecdfdb6115e21f758	Sukses
8aa60fd74b80ab5cb711252289cba263db544358	2018-05-07 14:37:08	125.160.135.73	Mengomentari Kertas Kerja dengan ID da576110dc6f51c3a3c81da84b48df0359730149	Sukses
780cbcefa876e8865a8b7a5c7b2b698a18c85e5b	2018-05-07 14:37:57	46.101.22.182	User Logout	Sukses
f279326e1d90cc57ca3ec677552b6b5dcbdb6502	2018-05-07 14:38:46	46.101.22.182	User Login	Sukses
4359b849248b6a45e0a622f18375e5bec578d0f7	2018-05-07 14:40:10	125.160.135.73	Mengomentari Kertas Kerja dengan ID f42968549dadb9f2bbd810e8f44f272dcf0e642d	Sukses
4359b849248b6a45e0a622f18375e5bec578d0f7	2018-05-07 14:40:14	125.160.135.73	Mengomentari Kertas Kerja dengan ID f42968549dadb9f2bbd810e8f44f272dcf0e642d	Sukses
f279326e1d90cc57ca3ec677552b6b5dcbdb6502	2018-05-07 14:40:37	46.101.22.182	User Logout	Sukses
4359b849248b6a45e0a622f18375e5bec578d0f7	2018-05-07 14:40:47	125.160.135.73	Mengomentari Kertas Kerja dengan ID 2fc1e1fd1897426a373f88c6f438b76db3193bd8	Sukses
41550dc233a13974eee58042241d10a200583f1e	2018-05-07 14:41:18	46.101.22.182	User Login	Sukses
4359b849248b6a45e0a622f18375e5bec578d0f7	2018-05-07 14:41:28	125.160.135.73	Mengomentari Kertas Kerja dengan ID da576110dc6f51c3a3c81da84b48df0359730149	Sukses
8aa60fd74b80ab5cb711252289cba263db544358	2018-05-07 14:41:53	125.160.135.73	User Logout	Sukses
cb13cb7f4f2984d2b477c7900dd3f93c623616da	2018-05-07 14:42:47	125.160.135.73	User Login	Sukses
41550dc233a13974eee58042241d10a200583f1e	2018-05-07 14:43:13	178.62.92.29	User Logout	Sukses
4359b849248b6a45e0a622f18375e5bec578d0f7	2018-05-07 14:43:25	125.160.135.73	Mengomentari Kertas Kerja dengan ID 9be9d0670a1d13a0331894e6984c7d4f33f97e4c	Sukses
4359b849248b6a45e0a622f18375e5bec578d0f7	2018-05-07 14:43:55	125.160.135.73	Mengomentari Kertas Kerja dengan ID 4bde39f1ae0ea97161701f8c80677f79fa3f5ccc	Sukses
c790b8ea8c469f7b2ed0c1161312e0b81ea33fd4	2018-05-07 14:44:13	178.62.92.29	User Login	Sukses
c790b8ea8c469f7b2ed0c1161312e0b81ea33fd4	2018-05-07 14:45:33	178.62.92.29	User Logout	Sukses
cb13cb7f4f2984d2b477c7900dd3f93c623616da	2018-05-07 14:47:25	125.160.135.73	Menambah Kertas Kerja Dengan ID a4492240a64039b93bc232b328d4d0da7eb9c7d2	Sukses
4359b849248b6a45e0a622f18375e5bec578d0f7	2018-05-07 14:49:54	125.160.135.73	User Logout	Sukses
4359b849248b6a45e0a622f18375e5bec578d0f7	2018-05-07 14:49:58	125.160.135.73	User Login	Sukses
cb13cb7f4f2984d2b477c7900dd3f93c623616da	2018-05-07 14:51:19	125.160.135.73	Mengomentari Kertas Kerja dengan ID 63580ac8334248eee9622259b5f344be606b2c1a	Sukses
cb13cb7f4f2984d2b477c7900dd3f93c623616da	2018-05-07 14:51:29	125.160.135.73	User Logout	Sukses
8aa60fd74b80ab5cb711252289cba263db544358	2018-05-07 14:51:37	125.160.135.73	User Login	Sukses
8aa60fd74b80ab5cb711252289cba263db544358	2018-05-07 14:53:41	125.160.135.73	User Logout	Sukses
4359b849248b6a45e0a622f18375e5bec578d0f7	2018-05-07 14:53:42	125.160.135.73	Mengomentari Kertas Kerja dengan ID a82c9fbed1e1aefdc96dd13de46f7ead437dc7d1	Sukses
4359b849248b6a45e0a622f18375e5bec578d0f7	2018-05-07 14:54:09	125.160.135.73	Mengomentari Kertas Kerja dengan ID 63580ac8334248eee9622259b5f344be606b2c1a	Sukses
0a4608284f030a845e138b3c83a8d78bdc9d444b	2018-05-07 14:55:29	125.160.135.73	User Login	Sukses
0a4608284f030a845e138b3c83a8d78bdc9d444b	2018-05-07 14:57:53	125.160.135.73	User Logout	Sukses
8aa60fd74b80ab5cb711252289cba263db544358	2018-05-07 14:58:01	125.160.135.73	User Login	Sukses
4359b849248b6a45e0a622f18375e5bec578d0f7	2018-05-07 14:59:01	125.160.135.73	Mengomentari Kertas Kerja dengan ID 76e003b8c14938ca3b89d7bd7e3ec508b73172d6	Sukses
4359b849248b6a45e0a622f18375e5bec578d0f7	2018-05-07 15:00:39	125.160.135.73	Mengomentari Kertas Kerja dengan ID c7ef9823439aea9c7cfc7e502bb4ebbf90909f98	Sukses
8aa60fd74b80ab5cb711252289cba263db544358	2018-05-07 15:01:29	125.160.135.73	Menambah Kertas Kerja Dengan ID 1b4287ae9956ad6d84d5f989cb8248397ce1e115	Sukses
4359b849248b6a45e0a622f18375e5bec578d0f7	2018-05-07 15:01:53	125.160.135.73	Mengomentari Kertas Kerja dengan ID 5a104684bf0af567475da57d8d7d07d7ff680e5a	Sukses
0a4608284f030a845e138b3c83a8d78bdc9d444b	2018-05-07 15:02:16	125.160.135.73	User Login	Sukses
8aa60fd74b80ab5cb711252289cba263db544358	2018-05-07 15:03:38	125.160.135.73	Menambah Kertas Kerja Dengan ID 1b4287ae9956ad6d84d5f989cb8248397ce1e115	Sukses
4359b849248b6a45e0a622f18375e5bec578d0f7	2018-05-07 15:03:43	125.160.135.73	Mengomentari Kertas Kerja dengan ID dfbc032eab67924297f720cfa9e9c64a508c3518	Sukses
8aa60fd74b80ab5cb711252289cba263db544358	2018-05-07 15:04:06	125.160.135.73	Mengomentari Kertas Kerja dengan ID 3c4a6e278d3cda878b40c59c41ec9acae20af881	Sukses
8aa60fd74b80ab5cb711252289cba263db544358	2018-05-07 15:04:27	125.160.135.73	Mengomentari Kertas Kerja dengan ID 3c4a6e278d3cda878b40c59c41ec9acae20af881	Sukses
4359b849248b6a45e0a622f18375e5bec578d0f7	2018-05-07 15:05:29	125.160.135.73	Mengomentari Kertas Kerja dengan ID a3a9b0fb761abaac0e2707ba77111edb3be702a7	Sukses
7474c495f1b75c70474939b7982be2e0876bb834	2018-05-07 15:05:41	115.178.237.157	User Logout	Sukses
	2018-05-07 15:05:42	115.178.237.157	User Logout	Sukses
8aa60fd74b80ab5cb711252289cba263db544358	2018-05-07 15:05:56	125.160.135.73	Menambah Kertas Kerja Dengan ID 1b4287ae9956ad6d84d5f989cb8248397ce1e115	Sukses
8aa60fd74b80ab5cb711252289cba263db544358	2018-05-07 15:06:13	125.160.135.73	Menghapus Kertas Kerja Audit dengan ID b41848473ac6620ca3a799c4f4ca7684d9139c46	Sukses
4359b849248b6a45e0a622f18375e5bec578d0f7	2018-05-07 15:07:00	125.160.135.73	Mengomentari Kertas Kerja dengan ID 400f94af3ba18f269a34a26a708514297bf71682	Sukses
	2018-05-07 15:07:03	180.249.20.220	User Logout	Sukses
8aa60fd74b80ab5cb711252289cba263db544358	2018-05-07 15:07:37	125.160.135.73	Menghapus Kertas Kerja Audit dengan ID 21a28ffb0535f11e0e8227699e932ff0ae470355	Sukses
8aa60fd74b80ab5cb711252289cba263db544358	2018-05-07 15:09:48	125.160.135.73	Mengomentari Kertas Kerja dengan ID fe9484bceaeea63b0a6f14b90fcc3b3928ea7a7d	Sukses
4359b849248b6a45e0a622f18375e5bec578d0f7	2018-05-07 15:09:57	125.160.135.73	User Logout	Sukses
4359b849248b6a45e0a622f18375e5bec578d0f7	2018-05-07 15:10:02	125.160.135.73	User Login	Sukses
4359b849248b6a45e0a622f18375e5bec578d0f7	2018-05-07 15:12:20	125.160.135.73	Mengomentari Kertas Kerja dengan ID fe9484bceaeea63b0a6f14b90fcc3b3928ea7a7d	Sukses
8aa60fd74b80ab5cb711252289cba263db544358	2018-05-07 15:12:38	125.160.135.73	Menambah Kertas Kerja Dengan ID 7e9f6f141fde6b8506bed8c23bd5dea2d3ade078	Sukses
8aa60fd74b80ab5cb711252289cba263db544358	2018-05-07 15:13:04	125.160.135.73	Mengomentari Kertas Kerja dengan ID 9dcf2f3564381c68566e7ac180885ff71f3b863c	Sukses
8aa60fd74b80ab5cb711252289cba263db544358	2018-05-07 15:13:22	125.160.135.73	Mengomentari Kertas Kerja dengan ID 9dcf2f3564381c68566e7ac180885ff71f3b863c	Sukses
4359b849248b6a45e0a622f18375e5bec578d0f7	2018-05-07 15:14:09	125.160.135.73	Mengomentari Kertas Kerja dengan ID 13aec665b9adca376c2ba0fd8482e9347407fda7	Sukses
8aa60fd74b80ab5cb711252289cba263db544358	2018-05-07 15:16:53	125.160.135.73	Menambah Kertas Kerja Dengan ID 5d58813828818ede6dafd5076cac2c004d3192bf	Sukses
8aa60fd74b80ab5cb711252289cba263db544358	2018-05-07 15:17:31	125.160.135.73	Mengomentari Kertas Kerja dengan ID 348ec49fc672144d92084b38c6f6af7b6a30469a	Sukses
4359b849248b6a45e0a622f18375e5bec578d0f7	2018-05-07 15:17:48	125.160.135.73	Mengomentari Kertas Kerja dengan ID 3c4a6e278d3cda878b40c59c41ec9acae20af881	Sukses
8aa60fd74b80ab5cb711252289cba263db544358	2018-05-07 15:18:19	125.160.135.73	Mengomentari Kertas Kerja dengan ID 348ec49fc672144d92084b38c6f6af7b6a30469a	Sukses
4359b849248b6a45e0a622f18375e5bec578d0f7	2018-05-07 15:21:22	125.160.135.73	Mengomentari Kertas Kerja dengan ID 9dcf2f3564381c68566e7ac180885ff71f3b863c	Sukses
4359b849248b6a45e0a622f18375e5bec578d0f7	2018-05-07 15:22:40	125.160.135.73	Mengomentari Kertas Kerja dengan ID 348ec49fc672144d92084b38c6f6af7b6a30469a	Sukses
4359b849248b6a45e0a622f18375e5bec578d0f7	2018-05-07 15:26:50	125.160.135.73	User Logout	Sukses
4359b849248b6a45e0a622f18375e5bec578d0f7	2018-05-07 15:26:54	125.160.135.73	User Login	Sukses
4359b849248b6a45e0a622f18375e5bec578d0f7	2018-05-07 15:29:12	125.160.135.73	Mengubah Status Program Audit dengan ID a024ec42d2a5ad45f4c39bef54886a47783c7014	Sukses
e2274a53e9109f4c736a4da4128f317355e19e4f	2018-05-07 15:30:01	36.83.244.232	User Login	Sukses
4359b849248b6a45e0a622f18375e5bec578d0f7	2018-05-07 15:30:13	125.160.135.73	Mengubah Status Program Audit dengan ID 600053b3386de6bca8921f5cccf758ae61259d75	Sukses
4359b849248b6a45e0a622f18375e5bec578d0f7	2018-05-07 15:31:52	125.160.135.73	Mengubah Status Program Audit dengan ID 8ccac448a9de1b91e7b0b6334526c414521a6501	Sukses
4359b849248b6a45e0a622f18375e5bec578d0f7	2018-05-07 15:34:03	125.160.135.73	Mengubah Status Program Audit dengan ID 724b38fe3e8b4cab6429baf2b475fe942ff351c8	Sukses
4359b849248b6a45e0a622f18375e5bec578d0f7	2018-05-07 15:35:11	125.160.135.73	Mengubah Status Program Audit dengan ID fe17e82e39b3c64188fe0c579562a6b9abe31c11	Sukses
4359b849248b6a45e0a622f18375e5bec578d0f7	2018-05-07 15:36:40	125.160.135.73	Mengubah Status Program Audit dengan ID 8da3fc0587f810a654649a56ac5843157e04e0fe	Sukses
4359b849248b6a45e0a622f18375e5bec578d0f7	2018-05-07 15:37:41	125.160.135.73	Mengubah Status Program Audit dengan ID f9bae9f5b3cffd99e0660226445457a12c4d4f77	Sukses
4359b849248b6a45e0a622f18375e5bec578d0f7	2018-05-07 15:38:13	125.160.135.73	User Logout	Sukses
e2274a53e9109f4c736a4da4128f317355e19e4f	2018-05-07 15:38:21	36.84.65.35	Menambah Kertas Kerja Dengan ID a00a344589efac1e1edff48f1398144eb7d607eb	Sukses
8aa60fd74b80ab5cb711252289cba263db544358	2018-05-07 15:38:37	125.160.135.73	User Logout	Sukses
8aa60fd74b80ab5cb711252289cba263db544358	2018-05-07 15:38:42	125.160.135.73	User Login	Sukses
e2274a53e9109f4c736a4da4128f317355e19e4f	2018-05-07 15:52:00	36.83.244.232	Menambah Kertas Kerja Dengan ID a00a344589efac1e1edff48f1398144eb7d607eb	Sukses
e2274a53e9109f4c736a4da4128f317355e19e4f	2018-05-07 15:53:14	36.83.244.232	User Logout	Sukses
e2274a53e9109f4c736a4da4128f317355e19e4f	2018-05-07 16:40:33	180.250.173.106	User Login	Sukses
e2274a53e9109f4c736a4da4128f317355e19e4f	2018-05-07 16:46:24	36.83.244.232	Menambah Kertas Kerja Dengan ID a00a344589efac1e1edff48f1398144eb7d607eb	Sukses
bdae6159dc4d3f67b8d835461c3f4020c3e68999	2018-05-07 16:48:07	36.72.178.231	User Login	Sukses
e2274a53e9109f4c736a4da4128f317355e19e4f	2018-05-07 16:48:17	36.83.244.232	User Logout	Sukses
4359b849248b6a45e0a622f18375e5bec578d0f7	2018-05-07 16:57:18	125.160.135.73	User Login	Sukses
0a4608284f030a845e138b3c83a8d78bdc9d444b	2018-05-07 16:58:46	125.160.135.73	Menambah Kertas Kerja Dengan ID a024ec42d2a5ad45f4c39bef54886a47783c7014	Sukses
4359b849248b6a45e0a622f18375e5bec578d0f7	2018-05-07 17:01:07	125.160.135.73	User Logout	Sukses
0a4608284f030a845e138b3c83a8d78bdc9d444b	2018-05-07 17:01:23	125.160.135.73	Menambah Kertas Kerja Dengan ID 600053b3386de6bca8921f5cccf758ae61259d75	Sukses
cb13cb7f4f2984d2b477c7900dd3f93c623616da	2018-05-07 17:01:37	125.160.135.73	User Login	Sukses
0a4608284f030a845e138b3c83a8d78bdc9d444b	2018-05-07 17:04:02	125.160.135.73	Menambah Kertas Kerja Dengan ID 8ccac448a9de1b91e7b0b6334526c414521a6501	Sukses
cb13cb7f4f2984d2b477c7900dd3f93c623616da	2018-05-07 17:10:09	125.160.135.73	Menambah Kertas Kerja Dengan ID 724b38fe3e8b4cab6429baf2b475fe942ff351c8	Sukses
cb13cb7f4f2984d2b477c7900dd3f93c623616da	2018-05-07 17:10:10	125.160.135.73	Menambah Kertas Kerja Dengan ID 724b38fe3e8b4cab6429baf2b475fe942ff351c8	Sukses
cb13cb7f4f2984d2b477c7900dd3f93c623616da	2018-05-07 17:13:36	125.160.135.73	Menambah Kertas Kerja Dengan ID f9bae9f5b3cffd99e0660226445457a12c4d4f77	Sukses
bdae6159dc4d3f67b8d835461c3f4020c3e68999	2018-05-07 17:14:32	36.72.178.231	Menambah Kertas Kerja Dengan ID b1e428b2191dec6440010e58ab2f78236ce97a75	Sukses
cb13cb7f4f2984d2b477c7900dd3f93c623616da	2018-05-07 17:14:40	125.160.135.73	User Logout	Sukses
4359b849248b6a45e0a622f18375e5bec578d0f7	2018-05-07 17:14:44	125.160.135.73	User Login	Sukses
bdae6159dc4d3f67b8d835461c3f4020c3e68999	2018-05-07 17:18:06	36.72.178.231	User Logout	Sukses
0a4608284f030a845e138b3c83a8d78bdc9d444b	2018-05-07 17:18:34	125.160.135.73	User Logout	Sukses
0a4608284f030a845e138b3c83a8d78bdc9d444b	2018-05-07 17:23:16	125.160.135.73	User Login	Sukses
4359b849248b6a45e0a622f18375e5bec578d0f7	2018-05-07 17:24:10	125.160.135.73	User Login	Sukses
8aa60fd74b80ab5cb711252289cba263db544358	2018-05-07 17:27:13	125.160.135.73	User Logout	Sukses
8aa60fd74b80ab5cb711252289cba263db544358	2018-05-07 17:27:31	125.160.135.73	User Login	Sukses
8aa60fd74b80ab5cb711252289cba263db544358	2018-05-07 17:28:25	125.160.135.73	Mengomentari Kertas Kerja dengan ID 3e08a7842c61b8a60feb0ab49f9ed2d0a907dce2	Sukses
8aa60fd74b80ab5cb711252289cba263db544358	2018-05-07 17:29:28	125.160.135.73	Mengomentari Kertas Kerja dengan ID 5b46152a6915be7061f39e47b97a2874ca7d25f1	Sukses
8aa60fd74b80ab5cb711252289cba263db544358	2018-05-07 17:30:19	125.160.135.73	Mengomentari Kertas Kerja dengan ID 19912cbac54ef10a391190688343805db9956f50	Sukses
4359b849248b6a45e0a622f18375e5bec578d0f7	2018-05-07 17:35:32	125.160.135.73	User Logout	Sukses
8aa60fd74b80ab5cb711252289cba263db544358	2018-05-07 17:38:37	125.160.135.73	Menambah Kertas Kerja Dengan ID fe17e82e39b3c64188fe0c579562a6b9abe31c11	Sukses
8aa60fd74b80ab5cb711252289cba263db544358	2018-05-07 17:40:55	125.160.135.73	Menambah Kertas Kerja Dengan ID fe17e82e39b3c64188fe0c579562a6b9abe31c11	Sukses
8aa60fd74b80ab5cb711252289cba263db544358	2018-05-07 17:41:11	125.160.135.73	Menghapus Kertas Kerja Audit dengan ID ce807b5d3dc6708866689d1e6e3def54f6ca67c0	Sukses
8aa60fd74b80ab5cb711252289cba263db544358	2018-05-07 17:41:34	125.160.135.73	Mengomentari Kertas Kerja dengan ID b88f7fb10b66798bd019151798f3f8f24d17b7d8	Sukses
8aa60fd74b80ab5cb711252289cba263db544358	2018-05-07 17:41:57	125.160.135.73	Mengomentari Kertas Kerja dengan ID b88f7fb10b66798bd019151798f3f8f24d17b7d8	Sukses
8aa60fd74b80ab5cb711252289cba263db544358	2018-05-07 17:44:49	125.160.135.73	Menambah Kertas Kerja Dengan ID 8da3fc0587f810a654649a56ac5843157e04e0fe	Sukses
8aa60fd74b80ab5cb711252289cba263db544358	2018-05-07 17:45:32	125.160.135.73	Menambah Kertas Kerja Dengan ID 8da3fc0587f810a654649a56ac5843157e04e0fe	Sukses
8aa60fd74b80ab5cb711252289cba263db544358	2018-05-07 17:45:48	125.160.135.73	Menghapus Kertas Kerja Audit dengan ID 7a13f41428329fced0aea8db3922c274056f4a45	Sukses
8aa60fd74b80ab5cb711252289cba263db544358	2018-05-07 17:46:04	125.160.135.73	Mengomentari Kertas Kerja dengan ID 4a7935047ec0e403b28664c02d224682cb77ae2f	Sukses
8aa60fd74b80ab5cb711252289cba263db544358	2018-05-07 17:46:23	125.160.135.73	Mengomentari Kertas Kerja dengan ID 4a7935047ec0e403b28664c02d224682cb77ae2f	Sukses
8aa60fd74b80ab5cb711252289cba263db544358	2018-05-07 17:47:14	125.160.135.73	User Logout	Sukses
bdae6159dc4d3f67b8d835461c3f4020c3e68999	2018-05-07 18:04:47	36.72.178.231	User Login	Sukses
bdae6159dc4d3f67b8d835461c3f4020c3e68999	2018-05-07 18:11:03	36.72.178.231	Mengubah Kertas Kerja dengan ID cef139a177f48facd8dc414e1cd87ee564f53c3e	Sukses
bdae6159dc4d3f67b8d835461c3f4020c3e68999	2018-05-07 18:12:51	36.72.178.231	Mengubah Kertas Kerja dengan ID cef139a177f48facd8dc414e1cd87ee564f53c3e	Sukses
41550dc233a13974eee58042241d10a200583f1e	2018-05-07 18:19:42	36.84.65.35	User Login	Sukses
41550dc233a13974eee58042241d10a200583f1e	2018-05-07 18:35:38	36.84.65.35	Menambah Program Audit ID f78e606a410a1fa92c17db3c48ee267343b8b9a5	Sukses
41550dc233a13974eee58042241d10a200583f1e	2018-05-07 18:37:19	36.84.65.35	Menambah Program Audit ID 695bc331cc648168c5882013aa0544474a6b4b27	Sukses
41550dc233a13974eee58042241d10a200583f1e	2018-05-07 18:38:38	36.84.65.35	Menambah Program Audit ID 77e089f1b28ba4000643e77e1e5fc799a57d94d0	Sukses
41550dc233a13974eee58042241d10a200583f1e	2018-05-07 18:39:37	36.84.65.35	Menambah Program Audit ID 173c466d1d24a6ba7511278b0d3c56a2b26fdac4	Sukses
41550dc233a13974eee58042241d10a200583f1e	2018-05-07 18:40:56	36.84.65.35	Menambah Program Audit ID 78f381a9c2e9034ff96df71c069995361ca807d8	Sukses
41550dc233a13974eee58042241d10a200583f1e	2018-05-07 18:42:28	36.84.65.35	Menambah Program Audit ID 860be425391d2d3e098d726bda7ad6fad9712f51	Sukses
41550dc233a13974eee58042241d10a200583f1e	2018-05-07 18:43:28	36.84.65.35	Mengubah Status Program Audit dengan ID f78e606a410a1fa92c17db3c48ee267343b8b9a5	Sukses
41550dc233a13974eee58042241d10a200583f1e	2018-05-07 18:44:33	36.84.65.35	Mengubah Status Program Audit dengan ID 695bc331cc648168c5882013aa0544474a6b4b27	Sukses
41550dc233a13974eee58042241d10a200583f1e	2018-05-07 18:44:59	36.84.65.35	Mengubah Status Program Audit dengan ID 77e089f1b28ba4000643e77e1e5fc799a57d94d0	Sukses
41550dc233a13974eee58042241d10a200583f1e	2018-05-07 18:45:23	36.84.65.35	Mengubah Status Program Audit dengan ID 173c466d1d24a6ba7511278b0d3c56a2b26fdac4	Sukses
41550dc233a13974eee58042241d10a200583f1e	2018-05-07 18:45:45	36.84.65.35	Mengubah Status Program Audit dengan ID 78f381a9c2e9034ff96df71c069995361ca807d8	Sukses
41550dc233a13974eee58042241d10a200583f1e	2018-05-07 18:46:05	36.84.65.35	Mengubah Status Program Audit dengan ID 860be425391d2d3e098d726bda7ad6fad9712f51	Sukses
bdae6159dc4d3f67b8d835461c3f4020c3e68999	2018-05-07 18:47:47	36.72.178.231	User Logout	Sukses
41550dc233a13974eee58042241d10a200583f1e	2018-05-07 19:00:17	36.84.65.35	Mengomentari Kertas Kerja dengan ID 519917ba6465b3a9c6120c23cf42a5f182ff54c1	Sukses
41550dc233a13974eee58042241d10a200583f1e	2018-05-07 19:01:27	36.84.65.35	Mengomentari Kertas Kerja dengan ID 38e288ba9bec5fdd19ec857748c4981aa9c36b19	Sukses
41550dc233a13974eee58042241d10a200583f1e	2018-05-07 19:02:22	36.84.65.35	Mengomentari Kertas Kerja dengan ID 107d425c4630b283f590194bc82aea6c980dd69f	Sukses
41550dc233a13974eee58042241d10a200583f1e	2018-05-07 19:03:50	36.84.65.35	Mengomentari Kertas Kerja dengan ID 960e188131973d64d135a02fa7442d676859ed7f	Sukses
4e74435b3f7a430b7f1070105883774c0b2bc84a	2018-05-07 20:00:51	36.72.178.231	User Login	Sukses
4e74435b3f7a430b7f1070105883774c0b2bc84a	2018-05-07 20:01:30	36.72.178.231	User Logout	Sukses
58e5385e24299ad94436d5402dfcaf761228ba49	2018-05-07 20:05:14	36.72.178.231	User Login	Sukses
58e5385e24299ad94436d5402dfcaf761228ba49	2018-05-07 20:07:20	36.72.178.231	User Logout	Sukses
4e74435b3f7a430b7f1070105883774c0b2bc84a	2018-05-07 20:07:31	36.72.178.231	User Login	Sukses
4e74435b3f7a430b7f1070105883774c0b2bc84a	2018-05-07 20:08:37	36.72.178.231	User Logout	Sukses
775e4d1b21e44ebb86bafd57c572dadee09a3443	2018-05-07 20:08:59	36.72.178.231	User Login	Sukses
775e4d1b21e44ebb86bafd57c572dadee09a3443	2018-05-07 20:13:03	36.72.178.231	Mengubah Rekomendasi ID 0dea265282febd75158bb827f700f57d0a5e191b	Sukses
775e4d1b21e44ebb86bafd57c572dadee09a3443	2018-05-07 20:13:20	36.72.178.231	User Logout	Sukses
775e4d1b21e44ebb86bafd57c572dadee09a3443	2018-05-07 20:13:27	36.72.178.231	User Login	Sukses
775e4d1b21e44ebb86bafd57c572dadee09a3443	2018-05-07 20:14:55	36.72.178.231	User Logout	Sukses
4e74435b3f7a430b7f1070105883774c0b2bc84a	2018-05-07 20:15:07	36.72.178.231	User Login	Sukses
bdae6159dc4d3f67b8d835461c3f4020c3e68999	2018-05-07 20:22:58	36.72.178.231	User Login	Sukses
4e74435b3f7a430b7f1070105883774c0b2bc84a	2018-05-07 20:25:33	36.72.178.231	User Logout	Sukses
58e5385e24299ad94436d5402dfcaf761228ba49	2018-05-07 20:25:41	36.72.178.231	User Login	Sukses
bdae6159dc4d3f67b8d835461c3f4020c3e68999	2018-05-07 20:26:15	36.72.178.231	Mengubah Kertas Kerja dengan ID cef139a177f48facd8dc414e1cd87ee564f53c3e	Sukses
bdae6159dc4d3f67b8d835461c3f4020c3e68999	2018-05-07 20:26:21	36.72.178.231	Mengubah Kertas Kerja dengan ID cef139a177f48facd8dc414e1cd87ee564f53c3e	Sukses
4f8af2a22ce1d40d33cf08a0a3d2bd35ae8984d3	2018-05-07 20:26:40	112.215.152.49	User Login	Sukses
58e5385e24299ad94436d5402dfcaf761228ba49	2018-05-07 20:26:40	36.72.178.231	User Logout	Sukses
4e74435b3f7a430b7f1070105883774c0b2bc84a	2018-05-07 20:26:51	36.72.178.231	User Login	Sukses
7474c495f1b75c70474939b7982be2e0876bb834	2018-05-07 20:59:15	36.72.178.231	User Login	Sukses
86586854ae95dcf5b36bbecf06c4aee702000ec2	2018-05-07 21:00:53	115.178.255.15	User Login	Sukses
4e74435b3f7a430b7f1070105883774c0b2bc84a	2018-05-07 21:02:27	36.72.178.231	User Logout	Sukses
4e74435b3f7a430b7f1070105883774c0b2bc84a	2018-05-07 21:02:37	36.72.178.231	User Login	Sukses
4e74435b3f7a430b7f1070105883774c0b2bc84a	2018-05-07 21:02:41	36.72.178.231	User Logout	Sukses
58e5385e24299ad94436d5402dfcaf761228ba49	2018-05-07 21:02:48	36.72.178.231	User Login	Sukses
58e5385e24299ad94436d5402dfcaf761228ba49	2018-05-07 21:04:28	36.72.178.231	User Logout	Sukses
4e74435b3f7a430b7f1070105883774c0b2bc84a	2018-05-07 21:04:36	36.72.178.231	User Login	Sukses
4e74435b3f7a430b7f1070105883774c0b2bc84a	2018-05-07 21:08:16	36.72.178.231	User Logout	Sukses
58e5385e24299ad94436d5402dfcaf761228ba49	2018-05-07 21:08:21	36.72.178.231	User Login	Sukses
58e5385e24299ad94436d5402dfcaf761228ba49	2018-05-07 21:09:05	36.72.178.231	User Logout	Sukses
4e74435b3f7a430b7f1070105883774c0b2bc84a	2018-05-07 21:09:11	36.72.178.231	User Login	Sukses
4e74435b3f7a430b7f1070105883774c0b2bc84a	2018-05-07 21:13:08	36.72.178.231	User Logout	Sukses
58e5385e24299ad94436d5402dfcaf761228ba49	2018-05-07 21:13:17	36.72.178.231	User Login	Sukses
58e5385e24299ad94436d5402dfcaf761228ba49	2018-05-07 21:13:55	36.72.178.231	User Logout	Sukses
4e74435b3f7a430b7f1070105883774c0b2bc84a	2018-05-07 21:14:13	36.72.178.231	User Login	Sukses
86586854ae95dcf5b36bbecf06c4aee702000ec2	2018-05-07 21:18:10	115.178.255.15	Menambah Kertas Kerja Dengan ID fc0fc358de4fbb4a342e15a475ca0ea0f616bb33	Sukses
86586854ae95dcf5b36bbecf06c4aee702000ec2	2018-05-07 21:28:34	115.178.255.15	User Logout	Sukses
	2018-05-07 21:35:26	36.83.244.232	User Logout	Sukses
7474c495f1b75c70474939b7982be2e0876bb834	2018-05-07 21:40:09	36.72.178.231	Mengubah Kertas Kerja dengan ID 4391843faba24f9d521e88b2ebdb9d56e1d4d863	Sukses
7474c495f1b75c70474939b7982be2e0876bb834	2018-05-07 21:40:37	36.72.178.231	Mengubah Kertas Kerja dengan ID 4391843faba24f9d521e88b2ebdb9d56e1d4d863	Sukses
7474c495f1b75c70474939b7982be2e0876bb834	2018-05-07 21:41:40	36.72.178.231	Mengubah Kertas Kerja dengan ID 4391843faba24f9d521e88b2ebdb9d56e1d4d863	Sukses
7474c495f1b75c70474939b7982be2e0876bb834	2018-05-07 21:41:51	36.72.178.231	User Logout	Sukses
	2018-05-07 21:42:20	36.72.178.231	Mengubah Kertas Kerja dengan ID 4391843faba24f9d521e88b2ebdb9d56e1d4d863	Sukses
4e74435b3f7a430b7f1070105883774c0b2bc84a	2018-05-07 22:31:14	36.72.178.231	User Logout	Sukses
bdae6159dc4d3f67b8d835461c3f4020c3e68999	2018-05-07 22:31:57	36.72.178.231	User Logout	Sukses
