cb13cb7f4f2984d2b477c7900dd3f93c623616da	2018-05-22 00:23:03	110.136.240.128	User Login	Sukses
cb13cb7f4f2984d2b477c7900dd3f93c623616da	2018-05-22 00:27:05	110.136.240.128	User Logout	Sukses
4e74435b3f7a430b7f1070105883774c0b2bc84a	2018-05-22 00:44:56	150.107.136.18	User Login	Sukses
4e74435b3f7a430b7f1070105883774c0b2bc84a	2018-05-22 00:46:20	150.107.136.18	User Logout	Sukses
58e5385e24299ad94436d5402dfcaf761228ba49	2018-05-22 03:35:33	150.107.136.18	User Login	Sukses
58e5385e24299ad94436d5402dfcaf761228ba49	2018-05-22 03:36:22	150.107.136.18	Mengubah Status Program Audit dengan ID 93eae1d4d337b645ac584e9c4454f226ce01674d	Sukses
1f24444ae39aca674be919784d647091ea0cc6b5	2018-05-22 04:02:22	182.1.63.124	User Login	Sukses
1f24444ae39aca674be919784d647091ea0cc6b5	2018-05-22 04:04:58	182.1.63.124	Mengubah Password	Sukses
146a795a738b7309e20a68e5ea518558bd974b2f	2018-05-22 06:19:39	36.77.51.12	User Login	Sukses
146a795a738b7309e20a68e5ea518558bd974b2f	2018-05-22 06:22:03	36.77.51.12	Menambah Kertas Kerja Dengan ID 022770e28afe049999d8cfc2b974b81701261f66	Sukses
146a795a738b7309e20a68e5ea518558bd974b2f	2018-05-22 06:22:42	36.77.51.12	User Logout	Sukses
780cbcefa876e8865a8b7a5c7b2b698a18c85e5b	2018-05-22 06:35:12	121.101.131.201	User Login	Sukses
780cbcefa876e8865a8b7a5c7b2b698a18c85e5b	2018-05-22 07:46:48	121.101.131.201	Menambah Kertas Kerja Dengan ID 546b1e72a48d3ceaf11ce929550ea9af008e81e3	Sukses
780cbcefa876e8865a8b7a5c7b2b698a18c85e5b	2018-05-22 07:47:40	121.101.131.201	Mengomentari Kertas Kerja dengan ID 1fb0d5a5288fe2cfdc77304260490b6838676cca	Sukses
	2018-05-22 07:48:58	121.101.131.201	Menambah History Kertas Kerja Dengan ID KKA/0019/OPS/II/13/PKAPEND/05/2018	Sukses
	2018-05-22 07:49:05	121.101.131.201	Menambah History Kertas Kerja Dengan ID KKA/0019/OPS/II/13/PKAPEND/05/2018	Sukses
780cbcefa876e8865a8b7a5c7b2b698a18c85e5b	2018-05-22 07:49:21	121.101.131.201	User Logout	Sukses
780cbcefa876e8865a8b7a5c7b2b698a18c85e5b	2018-05-22 07:49:26	121.101.131.201	User Login	Sukses
780cbcefa876e8865a8b7a5c7b2b698a18c85e5b	2018-05-22 07:50:44	121.101.131.201	Mengubah Kertas Kerja dengan ID 1fb0d5a5288fe2cfdc77304260490b6838676cca	Sukses
780cbcefa876e8865a8b7a5c7b2b698a18c85e5b	2018-05-22 07:51:14	121.101.131.201	Mengomentari Kertas Kerja dengan ID 1fb0d5a5288fe2cfdc77304260490b6838676cca	Sukses
780cbcefa876e8865a8b7a5c7b2b698a18c85e5b	2018-05-22 07:52:02	121.101.131.201	User Logout	Sukses
780cbcefa876e8865a8b7a5c7b2b698a18c85e5b	2018-05-22 07:52:44	121.101.131.201	User Login	Sukses
0a4608284f030a845e138b3c83a8d78bdc9d444b	2018-05-22 07:58:06	125.162.235.156	User Login	Sukses
656efe10dc11a11916437dcfc200cad778435e79	2018-05-22 07:58:13	110.139.252.93	User Login	Sukses
780cbcefa876e8865a8b7a5c7b2b698a18c85e5b	2018-05-22 08:22:51	121.101.131.201	User Logout	Sukses
4f8af2a22ce1d40d33cf08a0a3d2bd35ae8984d3	2018-05-22 08:40:23	139.192.56.217	User Login	Sukses
780cbcefa876e8865a8b7a5c7b2b698a18c85e5b	2018-05-22 09:23:35	114.124.233.127	User Login	Sukses
780cbcefa876e8865a8b7a5c7b2b698a18c85e5b	2018-05-22 09:43:56	114.124.247.125	Mengubah Status Program Audit dengan ID dfabab444ca8a00e949952267bb90ae4aa7061f3	Sukses
780cbcefa876e8865a8b7a5c7b2b698a18c85e5b	2018-05-22 09:44:08	114.124.246.92	Menghapus Program Audit dengan ID dfabab444ca8a00e949952267bb90ae4aa7061f3	Sukses
4f8af2a22ce1d40d33cf08a0a3d2bd35ae8984d3	2018-05-22 09:44:30	139.192.56.217	User Login	Sukses
780cbcefa876e8865a8b7a5c7b2b698a18c85e5b	2018-05-22 09:44:32	114.124.246.92	Mengubah Status Program Audit dengan ID aaebbd3999eaedd33e38874ab22780cf7893360f	Sukses
780cbcefa876e8865a8b7a5c7b2b698a18c85e5b	2018-05-22 09:44:42	114.124.246.92	Menghapus Program Audit dengan ID aaebbd3999eaedd33e38874ab22780cf7893360f	Sukses
4f8af2a22ce1d40d33cf08a0a3d2bd35ae8984d3	2018-05-22 09:44:45	139.192.56.217	User Logout	Sukses
f88f01a6fd8154235fda6f951c34ab8a63bc112c	2018-05-22 09:45:00	139.192.56.217	User Login	Sukses
780cbcefa876e8865a8b7a5c7b2b698a18c85e5b	2018-05-22 09:45:17	114.124.246.92	Mengubah Status Program Audit dengan ID 7570a6e1f3fb55ed91912316acbfe2099bd40bf4	Sukses
780cbcefa876e8865a8b7a5c7b2b698a18c85e5b	2018-05-22 09:45:24	114.124.246.92	Menghapus Program Audit dengan ID 7570a6e1f3fb55ed91912316acbfe2099bd40bf4	Sukses
f88f01a6fd8154235fda6f951c34ab8a63bc112c	2018-05-22 09:45:50	139.192.56.217	Menambah Program Audit ID 14babaad81ba7c2d6caa671b82a58d0d24bffffd	Sukses
f88f01a6fd8154235fda6f951c34ab8a63bc112c	2018-05-22 09:45:50	139.192.56.217	Menambah Program Audit ID fdc08d14ed9cc1de0ca8447743f5e07afd7f8477	Sukses
780cbcefa876e8865a8b7a5c7b2b698a18c85e5b	2018-05-22 09:46:00	114.124.246.92	User Logout	Sukses
780cbcefa876e8865a8b7a5c7b2b698a18c85e5b	2018-05-22 09:46:04	114.124.246.92	User Login	Sukses
f88f01a6fd8154235fda6f951c34ab8a63bc112c	2018-05-22 09:46:14	139.192.56.217	Mengubah Program Audit dengan ID 14babaad81ba7c2d6caa671b82a58d0d24bffffd	Sukses
f88f01a6fd8154235fda6f951c34ab8a63bc112c	2018-05-22 09:46:29	139.192.56.217	Menghapus Program Audit dengan ID 14babaad81ba7c2d6caa671b82a58d0d24bffffd	Sukses
f88f01a6fd8154235fda6f951c34ab8a63bc112c	2018-05-22 09:46:43	139.192.56.217	Mengubah Program Audit dengan ID fdc08d14ed9cc1de0ca8447743f5e07afd7f8477	Sukses
f88f01a6fd8154235fda6f951c34ab8a63bc112c	2018-05-22 09:46:57	139.192.56.217	Mengubah Program Audit dengan ID fdc08d14ed9cc1de0ca8447743f5e07afd7f8477	Sukses
f88f01a6fd8154235fda6f951c34ab8a63bc112c	2018-05-22 09:47:08	139.192.56.217	Mengubah Program Audit dengan ID fdc08d14ed9cc1de0ca8447743f5e07afd7f8477	Sukses
f88f01a6fd8154235fda6f951c34ab8a63bc112c	2018-05-22 09:47:19	139.192.56.217	Mengubah Program Audit dengan ID fdc08d14ed9cc1de0ca8447743f5e07afd7f8477	Sukses
f88f01a6fd8154235fda6f951c34ab8a63bc112c	2018-05-22 09:47:28	139.192.56.217	Menghapus Program Audit dengan ID fdc08d14ed9cc1de0ca8447743f5e07afd7f8477	Sukses
780cbcefa876e8865a8b7a5c7b2b698a18c85e5b	2018-05-22 09:52:25	114.124.245.76	Menambah Program Audit ID 4716946ea6252c5413e0142118d04bfd8a78f8c7	Sukses
780cbcefa876e8865a8b7a5c7b2b698a18c85e5b	2018-05-22 09:52:25	114.124.245.76	Menambah Program Audit ID 38498f66b3dc67d566e4472f206a99a2cd0f9827	Sukses
780cbcefa876e8865a8b7a5c7b2b698a18c85e5b	2018-05-22 09:52:25	114.124.245.76	Menambah Program Audit ID 5ba99434b7fb747cd43b0db86853ca4e09f2bea3	Sukses
780cbcefa876e8865a8b7a5c7b2b698a18c85e5b	2018-05-22 09:52:25	114.124.245.76	Menambah Program Audit ID 66424677a164e08a5482a6a40d59d9ae7f727fce	Sukses
780cbcefa876e8865a8b7a5c7b2b698a18c85e5b	2018-05-22 09:52:25	114.124.245.76	Menambah Program Audit ID ddd11362518363de71e72c49f4cd3a048ea444e7	Sukses
4e74435b3f7a430b7f1070105883774c0b2bc84a	2018-05-22 09:55:29	103.77.76.7	User Login	Sukses
f759cbd951ebbb7c297b4e71042d5675ce7ca720	2018-05-22 10:02:05	103.77.76.7	User Login	Sukses
775e4d1b21e44ebb86bafd57c572dadee09a3443	2018-05-22 10:07:17	182.23.25.18	User Login	Sukses
1f24444ae39aca674be919784d647091ea0cc6b5	2018-05-22 10:09:42	103.77.76.7	User Login	Sukses
f759cbd951ebbb7c297b4e71042d5675ce7ca720	2018-05-22 10:10:02	103.77.76.7	User Login	Sukses
780cbcefa876e8865a8b7a5c7b2b698a18c85e5b	2018-05-22 10:11:38	114.124.245.76	Mengubah Referensi Program Audit dengan ID 047c670cfb13ac805af973027bb27dcd6e189496	Sukses
4f8af2a22ce1d40d33cf08a0a3d2bd35ae8984d3	2018-05-22 10:14:57	10.10.100.2	User Login	Sukses
4f8af2a22ce1d40d33cf08a0a3d2bd35ae8984d3	2018-05-22 10:15:52	10.10.100.2	Mengubah Parameter Bidang Subtansi dengan ID 277f1441ce02dbf662e6feb6c669b603a4de35d0	Sukses
4f8af2a22ce1d40d33cf08a0a3d2bd35ae8984d3	2018-05-22 10:16:44	10.10.100.2	Mengubah Parameter Bidang Subtansi dengan ID f75c1c02e1aef11556fe90ed9106decceea17c54	Sukses
4f8af2a22ce1d40d33cf08a0a3d2bd35ae8984d3	2018-05-22 10:17:02	10.10.100.2	Mengubah Parameter Bidang Subtansi dengan ID 8134168f4fda3dafeb174cb7230aca8ce77c2f8b	Sukses
4f8af2a22ce1d40d33cf08a0a3d2bd35ae8984d3	2018-05-22 10:17:51	10.10.100.2	Mengubah Parameter Bidang Subtansi dengan ID 5af063d9b993c0c43b38e34c80fe60e94189c3ff	Sukses
4f8af2a22ce1d40d33cf08a0a3d2bd35ae8984d3	2018-05-22 10:18:38	10.10.100.2	Mengubah Parameter Bidang Subtansi dengan ID 4db91f046b49f91c14736ad0e82d31c931ce475c	Sukses
4f8af2a22ce1d40d33cf08a0a3d2bd35ae8984d3	2018-05-22 10:18:47	10.10.100.2	Mengubah Parameter Bidang Subtansi dengan ID cd4a7c581d450985ff742da4320c12f3bccf3068	Sukses
4f8af2a22ce1d40d33cf08a0a3d2bd35ae8984d3	2018-05-22 10:19:05	10.10.100.2	Mengubah Parameter Bidang Subtansi dengan ID 5c6904b2dd705e45a915814ea1b30d57e8a28b09	Sukses
4f8af2a22ce1d40d33cf08a0a3d2bd35ae8984d3	2018-05-22 10:19:15	10.10.100.2	Mengubah Parameter Bidang Subtansi dengan ID 8ebf1eace7c59cc969fbd0734c195aeeeaf9a7b0	Sukses
4f8af2a22ce1d40d33cf08a0a3d2bd35ae8984d3	2018-05-22 10:19:25	10.10.100.2	Mengubah Parameter Bidang Subtansi dengan ID e7ee08c5cb7ef028130b0a7d0a0209ba4da86628	Sukses
4f8af2a22ce1d40d33cf08a0a3d2bd35ae8984d3	2018-05-22 10:19:45	10.10.100.2	Mengubah Parameter Bidang Subtansi dengan ID 11e8e78711b22f1f428aeda54576a34eb29691d0	Sukses
4f8af2a22ce1d40d33cf08a0a3d2bd35ae8984d3	2018-05-22 10:19:54	10.10.100.2	Mengubah Parameter Bidang Subtansi dengan ID 2bb0db84a9b8fe6868308a4a186ef79b82ec1ceb	Sukses
4f8af2a22ce1d40d33cf08a0a3d2bd35ae8984d3	2018-05-22 10:20:12	10.10.100.2	Mengubah Parameter Bidang Subtansi dengan ID d620b3fd0164fa5eb03125e497e9aca5f5da3f7a	Sukses
4f8af2a22ce1d40d33cf08a0a3d2bd35ae8984d3	2018-05-22 10:20:21	10.10.100.2	Mengubah Parameter Bidang Subtansi dengan ID 60db6ee43d3d93ea44b62a93ddfa0515badda1ed	Sukses
f759cbd951ebbb7c297b4e71042d5675ce7ca720	2018-05-22 10:22:26	103.77.76.7	User Login	Sukses
780cbcefa876e8865a8b7a5c7b2b698a18c85e5b	2018-05-22 10:24:41	114.124.197.236	Menambah Referensi Program Audit AP/VFY/TUPOKSI/4	Sukses
0b5de27e6b064cb1628f135d4fbedc9081f45d67	2018-05-22 10:27:42	182.23.25.18	User Login	Sukses
2f24604c659f87c506b338358340100d8ffd143a	2018-05-22 10:35:11	114.124.176.209	User Login	Sukses
780cbcefa876e8865a8b7a5c7b2b698a18c85e5b	2018-05-22 10:39:45	114.124.205.77	Menambah Referensi Program Audit AP/VFY/TUPOKSI/5	Sukses
780cbcefa876e8865a8b7a5c7b2b698a18c85e5b	2018-05-22 10:40:17	114.124.205.77	Mengubah Status Program Audit dengan ID 66424677a164e08a5482a6a40d59d9ae7f727fce	Sukses
780cbcefa876e8865a8b7a5c7b2b698a18c85e5b	2018-05-22 10:40:29	114.124.236.77	Mengubah Status Program Audit dengan ID 4716946ea6252c5413e0142118d04bfd8a78f8c7	Sukses
780cbcefa876e8865a8b7a5c7b2b698a18c85e5b	2018-05-22 10:40:38	114.124.236.77	Mengubah Status Program Audit dengan ID 38498f66b3dc67d566e4472f206a99a2cd0f9827	Sukses
780cbcefa876e8865a8b7a5c7b2b698a18c85e5b	2018-05-22 10:40:49	114.124.236.77	Mengubah Status Program Audit dengan ID 5ba99434b7fb747cd43b0db86853ca4e09f2bea3	Sukses
780cbcefa876e8865a8b7a5c7b2b698a18c85e5b	2018-05-22 10:40:59	114.124.236.77	Mengubah Status Program Audit dengan ID ddd11362518363de71e72c49f4cd3a048ea444e7	Sukses
2f24604c659f87c506b338358340100d8ffd143a	2018-05-22 10:49:05	114.124.143.209	Mengubah Status Program Audit dengan ID 66424677a164e08a5482a6a40d59d9ae7f727fce	Sukses
2f24604c659f87c506b338358340100d8ffd143a	2018-05-22 10:52:31	114.124.143.209	Mengubah Status Program Audit dengan ID 4716946ea6252c5413e0142118d04bfd8a78f8c7	Sukses
2f24604c659f87c506b338358340100d8ffd143a	2018-05-22 10:53:19	114.124.143.209	Mengubah Status Program Audit dengan ID 38498f66b3dc67d566e4472f206a99a2cd0f9827	Sukses
2f24604c659f87c506b338358340100d8ffd143a	2018-05-22 10:53:36	114.124.143.209	Mengubah Status Program Audit dengan ID 38498f66b3dc67d566e4472f206a99a2cd0f9827	Sukses
780cbcefa876e8865a8b7a5c7b2b698a18c85e5b	2018-05-22 10:54:59	114.124.236.76	Menambah Program Audit ID d807ea041166e612904153007775f74f76282f84	Sukses
780cbcefa876e8865a8b7a5c7b2b698a18c85e5b	2018-05-22 10:54:59	114.124.236.76	Menambah Program Audit ID c57955bc4d90035103cce9b94bf00c5a40674612	Sukses
780cbcefa876e8865a8b7a5c7b2b698a18c85e5b	2018-05-22 10:54:59	114.124.236.76	Menambah Program Audit ID 7614385011102958ef127a83d51630defc0a3ff7	Sukses
780cbcefa876e8865a8b7a5c7b2b698a18c85e5b	2018-05-22 10:54:59	114.124.236.76	Menambah Program Audit ID 43964b8555d53a3735892bb2ef953d032f606126	Sukses
780cbcefa876e8865a8b7a5c7b2b698a18c85e5b	2018-05-22 10:54:59	114.124.236.76	Menambah Program Audit ID 787b3670396ce7cccb7b37ad1e1101fd77d65910	Sukses
780cbcefa876e8865a8b7a5c7b2b698a18c85e5b	2018-05-22 10:54:59	114.124.236.76	Menambah Program Audit ID 2bbc04547dfbc8b7c913412cd9178e3d558dc594	Sukses
780cbcefa876e8865a8b7a5c7b2b698a18c85e5b	2018-05-22 10:54:59	114.124.236.76	Menambah Program Audit ID e36cbbdf50952be65398afa9ae815e62955e0767	Sukses
2f24604c659f87c506b338358340100d8ffd143a	2018-05-22 10:55:18	114.124.143.209	User Logout	Sukses
	2018-05-22 10:55:18	114.124.143.209	User Logout	Sukses
780cbcefa876e8865a8b7a5c7b2b698a18c85e5b	2018-05-22 10:55:32	114.124.236.76	Mengubah Status Program Audit dengan ID d807ea041166e612904153007775f74f76282f84	Sukses
780cbcefa876e8865a8b7a5c7b2b698a18c85e5b	2018-05-22 10:56:02	114.124.207.220	Mengubah Status Program Audit dengan ID c57955bc4d90035103cce9b94bf00c5a40674612	Sukses
780cbcefa876e8865a8b7a5c7b2b698a18c85e5b	2018-05-22 10:56:20	114.124.207.220	Mengubah Status Program Audit dengan ID 7614385011102958ef127a83d51630defc0a3ff7	Sukses
780cbcefa876e8865a8b7a5c7b2b698a18c85e5b	2018-05-22 10:57:11	114.124.207.220	Mengubah Status Program Audit dengan ID 43964b8555d53a3735892bb2ef953d032f606126	Sukses
780cbcefa876e8865a8b7a5c7b2b698a18c85e5b	2018-05-22 10:57:25	114.124.207.220	Mengubah Status Program Audit dengan ID 787b3670396ce7cccb7b37ad1e1101fd77d65910	Sukses
780cbcefa876e8865a8b7a5c7b2b698a18c85e5b	2018-05-22 10:57:37	114.124.207.220	Mengubah Status Program Audit dengan ID 2bbc04547dfbc8b7c913412cd9178e3d558dc594	Sukses
780cbcefa876e8865a8b7a5c7b2b698a18c85e5b	2018-05-22 10:57:46	114.124.205.77	Mengubah Status Program Audit dengan ID e36cbbdf50952be65398afa9ae815e62955e0767	Sukses
2f24604c659f87c506b338358340100d8ffd143a	2018-05-22 10:58:21	114.124.143.209	User Login	Sukses
780cbcefa876e8865a8b7a5c7b2b698a18c85e5b	2018-05-22 10:59:22	114.124.237.92	User Logout	Sukses
2f24604c659f87c506b338358340100d8ffd143a	2018-05-22 11:00:13	114.124.143.209	Mengubah Status Program Audit dengan ID 5ba99434b7fb747cd43b0db86853ca4e09f2bea3	Sukses
2f24604c659f87c506b338358340100d8ffd143a	2018-05-22 11:00:56	114.124.143.209	Mengubah Status Program Audit dengan ID ddd11362518363de71e72c49f4cd3a048ea444e7	Sukses
2f24604c659f87c506b338358340100d8ffd143a	2018-05-22 11:01:54	114.124.143.209	Mengubah Status Program Audit dengan ID d807ea041166e612904153007775f74f76282f84	Sukses
780cbcefa876e8865a8b7a5c7b2b698a18c85e5b	2018-05-22 11:01:57	114.124.236.109	User Login	Sukses
2f24604c659f87c506b338358340100d8ffd143a	2018-05-22 11:03:30	114.124.143.209	Mengubah Status Program Audit dengan ID c57955bc4d90035103cce9b94bf00c5a40674612	Sukses
780cbcefa876e8865a8b7a5c7b2b698a18c85e5b	2018-05-22 11:04:26	114.124.237.92	Menambah Program Audit ID 35b9617299a5e3704452292f58643d274e285f76	Sukses
780cbcefa876e8865a8b7a5c7b2b698a18c85e5b	2018-05-22 11:04:26	114.124.237.92	Menambah Program Audit ID c2c72a99b2209cbe84c73e0904b95b2af2cd7233	Sukses
780cbcefa876e8865a8b7a5c7b2b698a18c85e5b	2018-05-22 11:04:26	114.124.237.92	Menambah Program Audit ID 0da8a5c81d4d13767a5fc3d1b5a31d73d54e0661	Sukses
2f24604c659f87c506b338358340100d8ffd143a	2018-05-22 11:04:31	114.124.143.209	Mengubah Status Program Audit dengan ID 7614385011102958ef127a83d51630defc0a3ff7	Sukses
2f24604c659f87c506b338358340100d8ffd143a	2018-05-22 11:05:03	114.124.143.209	Mengubah Status Program Audit dengan ID 7614385011102958ef127a83d51630defc0a3ff7	Sukses
4f8af2a22ce1d40d33cf08a0a3d2bd35ae8984d3	2018-05-22 11:06:42	10.10.100.2	User Login	Sukses
2f24604c659f87c506b338358340100d8ffd143a	2018-05-22 11:06:46	114.124.143.209	Mengubah Status Program Audit dengan ID 43964b8555d53a3735892bb2ef953d032f606126	Sukses
4f8af2a22ce1d40d33cf08a0a3d2bd35ae8984d3	2018-05-22 11:07:26	10.10.100.2	User Logout	Sukses
7474c495f1b75c70474939b7982be2e0876bb834	2018-05-22 11:07:45	10.10.100.2	User Login	Sukses
7474c495f1b75c70474939b7982be2e0876bb834	2018-05-22 11:08:22	10.10.100.2	User Logout	Sukses
f88f01a6fd8154235fda6f951c34ab8a63bc112c	2018-05-22 11:08:32	10.10.100.2	User Login	Sukses
2f24604c659f87c506b338358340100d8ffd143a	2018-05-22 11:09:18	114.124.143.209	Mengubah Status Program Audit dengan ID 787b3670396ce7cccb7b37ad1e1101fd77d65910	Sukses
2f24604c659f87c506b338358340100d8ffd143a	2018-05-22 11:10:35	114.124.143.209	Mengubah Status Program Audit dengan ID 2bbc04547dfbc8b7c913412cd9178e3d558dc594	Sukses
2f24604c659f87c506b338358340100d8ffd143a	2018-05-22 11:11:29	114.124.143.209	Mengubah Status Program Audit dengan ID e36cbbdf50952be65398afa9ae815e62955e0767	Sukses
0b5de27e6b064cb1628f135d4fbedc9081f45d67	2018-05-22 11:12:18	182.23.25.18	User Login	Sukses
2f24604c659f87c506b338358340100d8ffd143a	2018-05-22 11:13:06	114.124.143.209	User Logout	Sukses
f88f01a6fd8154235fda6f951c34ab8a63bc112c	2018-05-22 11:19:44	10.10.100.2	User Logout	Sukses
4f8af2a22ce1d40d33cf08a0a3d2bd35ae8984d3	2018-05-22 11:19:48	10.10.100.2	User Login	Sukses
780cbcefa876e8865a8b7a5c7b2b698a18c85e5b	2018-05-22 11:40:41	114.124.199.255	Mengubah Status Program Audit dengan ID 0da8a5c81d4d13767a5fc3d1b5a31d73d54e0661	Sukses
780cbcefa876e8865a8b7a5c7b2b698a18c85e5b	2018-05-22 11:40:56	114.124.230.125	Mengubah Status Program Audit dengan ID c2c72a99b2209cbe84c73e0904b95b2af2cd7233	Sukses
780cbcefa876e8865a8b7a5c7b2b698a18c85e5b	2018-05-22 11:41:09	114.124.230.125	Mengubah Status Program Audit dengan ID 35b9617299a5e3704452292f58643d274e285f76	Sukses
780cbcefa876e8865a8b7a5c7b2b698a18c85e5b	2018-05-22 11:41:18	114.124.229.220	User Logout	Sukses
2f24604c659f87c506b338358340100d8ffd143a	2018-05-22 11:41:22	114.124.229.220	User Login	Sukses
2f24604c659f87c506b338358340100d8ffd143a	2018-05-22 11:41:49	114.124.230.108	Mengubah Status Program Audit dengan ID 35b9617299a5e3704452292f58643d274e285f76	Sukses
2f24604c659f87c506b338358340100d8ffd143a	2018-05-22 11:42:01	114.124.230.108	Mengubah Status Program Audit dengan ID c2c72a99b2209cbe84c73e0904b95b2af2cd7233	Sukses
2f24604c659f87c506b338358340100d8ffd143a	2018-05-22 11:42:23	114.124.230.108	Mengubah Status Program Audit dengan ID 0da8a5c81d4d13767a5fc3d1b5a31d73d54e0661	Sukses
2f24604c659f87c506b338358340100d8ffd143a	2018-05-22 11:44:05	114.124.197.236	User Logout	Sukses
	2018-05-22 11:44:05	114.124.199.255	User Logout	Sukses
	2018-05-22 11:44:05	114.124.197.236	User Logout	Sukses
780cbcefa876e8865a8b7a5c7b2b698a18c85e5b	2018-05-22 11:44:14	114.124.197.236	User Login	Sukses
1f24444ae39aca674be919784d647091ea0cc6b5	2018-05-22 11:52:45	114.125.26.94	User Login	Sukses
4e74435b3f7a430b7f1070105883774c0b2bc84a	2018-05-22 11:58:36	103.77.76.7	User Login	Sukses
780cbcefa876e8865a8b7a5c7b2b698a18c85e5b	2018-05-22 12:05:53	114.124.199.255	Menambah Program Audit ID dee846929734e984374100c26467ff94d5851979	Sukses
4e74435b3f7a430b7f1070105883774c0b2bc84a	2018-05-22 12:07:22	103.77.76.7	Mengubah Referensi Program Audit dengan ID f727479ac6b9dcef411fdf22ce440fe0cfc0e30e	Sukses
4e74435b3f7a430b7f1070105883774c0b2bc84a	2018-05-22 12:11:09	103.77.76.7	Mengubah Referensi Program Audit dengan ID 35bcb3c7df628b6f6efc2182afcdb0d282aa97d7	Sukses
4e74435b3f7a430b7f1070105883774c0b2bc84a	2018-05-22 12:12:26	103.77.76.7	Menambah Program Audit ID 36b050fc3b540b967a4d9bd711e639dfac9c45e2	Sukses
4e74435b3f7a430b7f1070105883774c0b2bc84a	2018-05-22 12:13:31	103.77.76.7	Menambah Program Audit ID c270aab4effc803600be261939cf472e3051426a	Sukses
780cbcefa876e8865a8b7a5c7b2b698a18c85e5b	2018-05-22 12:13:53	114.124.230.108	Menambah Program Audit ID d00c4e5f5652f7f386205ead36c5169cf696c4ba	Sukses
4e74435b3f7a430b7f1070105883774c0b2bc84a	2018-05-22 12:15:01	103.77.76.7	Menambah Program Audit ID 6a0fbca5a082b32a77247cf028682e927d0e9498	Sukses
4e74435b3f7a430b7f1070105883774c0b2bc84a	2018-05-22 12:17:19	103.77.76.7	Mengubah Referensi Program Audit dengan ID 3b1439f21cdab9bdec5d0935285132e51c1c2d88	Sukses
4e74435b3f7a430b7f1070105883774c0b2bc84a	2018-05-22 12:18:06	103.77.76.7	Menambah Program Audit ID 6bdd0a681e66ca4a6d0a0b9be47dbe48a3384464	Sukses
	2018-05-22 12:20:17	103.77.76.7	Menambah Intro Program Audit ID 904ed273aef594ec7d019c867ea23c7adcb061bb	Sukses
	2018-05-22 12:21:06	103.77.76.7	Menambah Intro Program Audit ID e3f13c63e51030d392ee3162b439be7c834bd4c7	Sukses
	2018-05-22 12:22:05	103.77.76.7	Menambah Intro Program Audit ID c1b00446f6770ac0c0d0a20dde5ea17aa41fcee1	Sukses
4e74435b3f7a430b7f1070105883774c0b2bc84a	2018-05-22 12:26:11	103.77.76.7	Mengubah Program Audit dengan ID 36b050fc3b540b967a4d9bd711e639dfac9c45e2	Sukses
	2018-05-22 12:27:12	103.77.76.7	Mengubah Intro Program Audit dengan ID 904ed273aef594ec7d019c867ea23c7adcb061bb	Sukses
	2018-05-22 12:27:59	103.77.76.7	Mengubah Intro Program Audit dengan ID e3f13c63e51030d392ee3162b439be7c834bd4c7	Sukses
	2018-05-22 12:28:32	103.77.76.7	Mengubah Intro Program Audit dengan ID c1b00446f6770ac0c0d0a20dde5ea17aa41fcee1	Sukses
	2018-05-22 12:29:23	103.77.76.7	Menambah Intro Program Audit ID e7bd7020422abf0672d62b24373708664415d9e3	Sukses
4e74435b3f7a430b7f1070105883774c0b2bc84a	2018-05-22 12:29:49	103.77.76.7	Mengubah Status Program Audit dengan ID 36b050fc3b540b967a4d9bd711e639dfac9c45e2	Sukses
4e74435b3f7a430b7f1070105883774c0b2bc84a	2018-05-22 12:30:09	103.77.76.7	Mengubah Status Program Audit dengan ID c270aab4effc803600be261939cf472e3051426a	Sukses
4e74435b3f7a430b7f1070105883774c0b2bc84a	2018-05-22 12:30:26	103.77.76.7	Mengubah Status Program Audit dengan ID 6a0fbca5a082b32a77247cf028682e927d0e9498	Sukses
4e74435b3f7a430b7f1070105883774c0b2bc84a	2018-05-22 12:30:40	103.77.76.7	Mengubah Status Program Audit dengan ID 6bdd0a681e66ca4a6d0a0b9be47dbe48a3384464	Sukses
4f8af2a22ce1d40d33cf08a0a3d2bd35ae8984d3	2018-05-22 12:30:47	10.10.100.2	User Login	Sukses
7474c495f1b75c70474939b7982be2e0876bb834	2018-05-22 12:32:50	125.165.178.27	User Login	Sukses
780cbcefa876e8865a8b7a5c7b2b698a18c85e5b	2018-05-22 12:36:05	114.124.205.77	Menambah Program Audit ID 8597f7af071731e1a1e206fe15407903844d1f28	Sukses
780cbcefa876e8865a8b7a5c7b2b698a18c85e5b	2018-05-22 12:36:05	114.124.205.77	Menambah Program Audit ID a617bdb0459f184ab41c6aa38f0ede2f9b035ed8	Sukses
780cbcefa876e8865a8b7a5c7b2b698a18c85e5b	2018-05-22 12:36:19	114.124.236.109	Menghapus Program Audit dengan ID d00c4e5f5652f7f386205ead36c5169cf696c4ba	Sukses
780cbcefa876e8865a8b7a5c7b2b698a18c85e5b	2018-05-22 12:36:29	114.124.236.109	Menghapus Program Audit dengan ID dee846929734e984374100c26467ff94d5851979	Sukses
780cbcefa876e8865a8b7a5c7b2b698a18c85e5b	2018-05-22 12:36:56	114.124.236.109	Mengubah Status Program Audit dengan ID 8597f7af071731e1a1e206fe15407903844d1f28	Sukses
7474c495f1b75c70474939b7982be2e0876bb834	2018-05-22 12:39:36	125.165.178.27	User Login	Sukses
780cbcefa876e8865a8b7a5c7b2b698a18c85e5b	2018-05-22 12:39:51	114.124.205.77	User Logout	Sukses
780cbcefa876e8865a8b7a5c7b2b698a18c85e5b	2018-05-22 12:40:23	114.124.205.77	User Login	Sukses
780cbcefa876e8865a8b7a5c7b2b698a18c85e5b	2018-05-22 12:40:41	114.124.205.77	User Logout	Sukses
0a4608284f030a845e138b3c83a8d78bdc9d444b	2018-05-22 12:41:08	114.124.205.77	User Login	Sukses
0a4608284f030a845e138b3c83a8d78bdc9d444b	2018-05-22 12:41:29	114.124.205.77	User Logout	Sukses
	2018-05-22 12:41:30	114.124.239.204	User Logout	Sukses
41a01b7f8a96b3daa702f3e4b6af404683f91553	2018-05-22 12:41:46	114.124.239.204	User Login	Sukses
41a01b7f8a96b3daa702f3e4b6af404683f91553	2018-05-22 12:42:13	114.124.206.126	User Logout	Sukses
7474c495f1b75c70474939b7982be2e0876bb834	2018-05-22 12:43:03	125.165.178.27	User Logout	Sukses
7474c495f1b75c70474939b7982be2e0876bb834	2018-05-22 12:44:27	125.165.178.27	User Login	Sukses
4e74435b3f7a430b7f1070105883774c0b2bc84a	2018-05-22 12:52:03	103.77.76.7	Menghapus Program Audit dengan ID 36b050fc3b540b967a4d9bd711e639dfac9c45e2	Sukses
4e74435b3f7a430b7f1070105883774c0b2bc84a	2018-05-22 12:56:03	103.77.76.7	Mengubah Referensi Program Audit dengan ID f727479ac6b9dcef411fdf22ce440fe0cfc0e30e	Sukses
4e74435b3f7a430b7f1070105883774c0b2bc84a	2018-05-22 12:57:08	103.77.76.7	Menambah Program Audit ID e72fb788ea0e1dd5ae4b2a2189e587344a23ba00	Sukses
4e74435b3f7a430b7f1070105883774c0b2bc84a	2018-05-22 12:57:29	103.77.76.7	Mengubah Status Program Audit dengan ID e72fb788ea0e1dd5ae4b2a2189e587344a23ba00	Sukses
7474c495f1b75c70474939b7982be2e0876bb834	2018-05-22 13:02:10	125.165.178.27	Menambah Program Audit ID 222d136573569f7339e2b83e593d4cd2385dcdbf	Sukses
7474c495f1b75c70474939b7982be2e0876bb834	2018-05-22 13:04:11	125.165.178.27	Menambah Program Audit ID cde42527ec72fcc3b665b02ed579acfca6eaf8b7	Sukses
7474c495f1b75c70474939b7982be2e0876bb834	2018-05-22 13:06:35	125.165.178.27	Menambah Program Audit ID 6a8811740f4fe20d79ed6065cd9e973335dd9a48	Sukses
	2018-05-22 13:07:33	114.124.235.125	User Logout	Sukses
780cbcefa876e8865a8b7a5c7b2b698a18c85e5b	2018-05-22 13:07:38	114.124.235.125	User Login	Sukses
0b5de27e6b064cb1628f135d4fbedc9081f45d67	2018-05-22 13:07:56	182.23.25.18	User Login	Sukses
780cbcefa876e8865a8b7a5c7b2b698a18c85e5b	2018-05-22 13:08:13	114.124.203.220	Mengubah Status Program Audit dengan ID a617bdb0459f184ab41c6aa38f0ede2f9b035ed8	Sukses
780cbcefa876e8865a8b7a5c7b2b698a18c85e5b	2018-05-22 13:08:28	114.124.203.220	User Logout	Sukses
	2018-05-22 13:08:29	114.124.232.124	User Logout	Sukses
2f24604c659f87c506b338358340100d8ffd143a	2018-05-22 13:08:33	114.124.232.124	User Login	Sukses
2f24604c659f87c506b338358340100d8ffd143a	2018-05-22 13:08:56	114.124.232.124	Mengubah Status Program Audit dengan ID 8597f7af071731e1a1e206fe15407903844d1f28	Sukses
2f24604c659f87c506b338358340100d8ffd143a	2018-05-22 13:09:10	114.124.232.124	Mengubah Status Program Audit dengan ID a617bdb0459f184ab41c6aa38f0ede2f9b035ed8	Sukses
2f24604c659f87c506b338358340100d8ffd143a	2018-05-22 13:09:20	114.124.233.127	User Logout	Sukses
780cbcefa876e8865a8b7a5c7b2b698a18c85e5b	2018-05-22 13:09:24	114.124.233.127	User Login	Sukses
0b5de27e6b064cb1628f135d4fbedc9081f45d67	2018-05-22 13:15:00	182.23.25.18	Menambah Kertas Kerja Dengan ID 2bbc04547dfbc8b7c913412cd9178e3d558dc594	Sukses
4f8af2a22ce1d40d33cf08a0a3d2bd35ae8984d3	2018-05-22 13:15:07	139.192.56.217	User Login	Sukses
4f8af2a22ce1d40d33cf08a0a3d2bd35ae8984d3	2018-05-22 13:16:05	139.192.56.217	User Logout	Sukses
0b5de27e6b064cb1628f135d4fbedc9081f45d67	2018-05-22 13:18:15	182.23.25.18	Mengubah Kertas Kerja dengan ID 67d77c2e37f6dc58f9784c83077874fa0b03effd	Sukses
cb13cb7f4f2984d2b477c7900dd3f93c623616da	2018-05-22 13:22:43	125.162.235.156	User Login	Sukses
0b5de27e6b064cb1628f135d4fbedc9081f45d67	2018-05-22 13:22:50	182.23.25.18	Mengomentari Kertas Kerja dengan ID 67d77c2e37f6dc58f9784c83077874fa0b03effd	Sukses
780cbcefa876e8865a8b7a5c7b2b698a18c85e5b	2018-05-22 13:50:22	114.124.203.125	User Logout	Sukses
780cbcefa876e8865a8b7a5c7b2b698a18c85e5b	2018-05-22 13:50:25	114.124.203.125	User Login	Sukses
780cbcefa876e8865a8b7a5c7b2b698a18c85e5b	2018-05-22 13:53:15	114.124.233.127	Mengomentari Kertas Kerja dengan ID 67d77c2e37f6dc58f9784c83077874fa0b03effd	Sukses
0b5de27e6b064cb1628f135d4fbedc9081f45d67	2018-05-22 13:54:22	182.23.25.18	User Logout	Sukses
0b5de27e6b064cb1628f135d4fbedc9081f45d67	2018-05-22 13:54:27	182.23.25.18	User Login	Sukses
0b5de27e6b064cb1628f135d4fbedc9081f45d67	2018-05-22 13:57:52	182.23.25.18	Mengubah Kertas Kerja dengan ID 67d77c2e37f6dc58f9784c83077874fa0b03effd	Sukses
0b5de27e6b064cb1628f135d4fbedc9081f45d67	2018-05-22 13:58:22	182.23.25.18	Mengubah Kertas Kerja dengan ID 67d77c2e37f6dc58f9784c83077874fa0b03effd	Sukses
0b5de27e6b064cb1628f135d4fbedc9081f45d67	2018-05-22 13:59:54	182.23.25.18	Mengomentari Kertas Kerja dengan ID 67d77c2e37f6dc58f9784c83077874fa0b03effd	Sukses
780cbcefa876e8865a8b7a5c7b2b698a18c85e5b	2018-05-22 14:03:02	114.124.245.76	Mengomentari Kertas Kerja dengan ID 67d77c2e37f6dc58f9784c83077874fa0b03effd	Sukses
780cbcefa876e8865a8b7a5c7b2b698a18c85e5b	2018-05-22 14:05:04	114.124.212.126	Menambah Program Audit ID 929303f135b6a18a686e3cc81cae7a10352ed912	Sukses
58e5385e24299ad94436d5402dfcaf761228ba49	2018-05-22 14:07:24	103.77.76.7	User Login	Sukses
780cbcefa876e8865a8b7a5c7b2b698a18c85e5b	2018-05-22 14:08:08	114.124.213.108	Mengubah Status Program Audit dengan ID 929303f135b6a18a686e3cc81cae7a10352ed912	Sukses
58e5385e24299ad94436d5402dfcaf761228ba49	2018-05-22 14:12:27	103.77.76.7	Mengubah Status Program Audit dengan ID c270aab4effc803600be261939cf472e3051426a	Sukses
58e5385e24299ad94436d5402dfcaf761228ba49	2018-05-22 14:12:54	103.77.76.7	Mengubah Status Program Audit dengan ID 6a0fbca5a082b32a77247cf028682e927d0e9498	Sukses
58e5385e24299ad94436d5402dfcaf761228ba49	2018-05-22 14:13:18	103.77.76.7	Mengubah Status Program Audit dengan ID 6bdd0a681e66ca4a6d0a0b9be47dbe48a3384464	Sukses
58e5385e24299ad94436d5402dfcaf761228ba49	2018-05-22 14:13:31	103.77.76.7	Mengubah Status Program Audit dengan ID e72fb788ea0e1dd5ae4b2a2189e587344a23ba00	Sukses
f759cbd951ebbb7c297b4e71042d5675ce7ca720	2018-05-22 14:25:49	103.77.76.7	User Login	Sukses
	2018-05-22 14:54:27	103.77.76.7	User Logout	Sukses
	2018-05-22 14:58:29	103.77.76.7	User Logout	Sukses
f759cbd951ebbb7c297b4e71042d5675ce7ca720	2018-05-22 15:00:40	103.77.76.7	Menambah Kertas Kerja Dengan ID 688e5ce094be22c1f0849c33680f1c40e5118020	Sukses
f759cbd951ebbb7c297b4e71042d5675ce7ca720	2018-05-22 15:02:57	103.77.76.7	User Logout	Sukses
4f8af2a22ce1d40d33cf08a0a3d2bd35ae8984d3	2018-05-22 16:36:31	139.192.56.217	User Login	Sukses
4f8af2a22ce1d40d33cf08a0a3d2bd35ae8984d3	2018-05-22 16:37:51	139.192.56.217	User Logout	Sukses
780cbcefa876e8865a8b7a5c7b2b698a18c85e5b	2018-05-22 19:06:13	121.101.131.201	User Login	Sukses
780cbcefa876e8865a8b7a5c7b2b698a18c85e5b	2018-05-22 19:10:41	121.101.131.201	Menambah Kertas Kerja Dengan ID 457fbae2bd6ad58107446a968f639bfaf6e70537	Sukses
780cbcefa876e8865a8b7a5c7b2b698a18c85e5b	2018-05-22 19:11:18	121.101.131.201	Mengomentari Kertas Kerja dengan ID 8988372a34ed887655d35edac973f1b1f85bdb81	Sukses
780cbcefa876e8865a8b7a5c7b2b698a18c85e5b	2018-05-22 19:11:48	121.101.131.201	Mengomentari Kertas Kerja dengan ID 8988372a34ed887655d35edac973f1b1f85bdb81	Sukses
780cbcefa876e8865a8b7a5c7b2b698a18c85e5b	2018-05-22 19:13:02	121.101.131.201	Menambah Kertas Kerja Dengan ID 457fbae2bd6ad58107446a968f639bfaf6e70537	Sukses
780cbcefa876e8865a8b7a5c7b2b698a18c85e5b	2018-05-22 19:13:35	121.101.131.201	Mengomentari Kertas Kerja dengan ID cc83f1456fdd06ca2df20e2f00f19dbc94be9e42	Sukses
780cbcefa876e8865a8b7a5c7b2b698a18c85e5b	2018-05-22 19:13:56	121.101.131.201	Mengomentari Kertas Kerja dengan ID cc83f1456fdd06ca2df20e2f00f19dbc94be9e42	Sukses
780cbcefa876e8865a8b7a5c7b2b698a18c85e5b	2018-05-22 19:16:13	121.101.131.201	Menambah Kertas Kerja Dengan ID 680da77f71030d550bb9dd903808927b60f94b85	Sukses
780cbcefa876e8865a8b7a5c7b2b698a18c85e5b	2018-05-22 19:16:49	121.101.131.201	User Logout	Sukses
780cbcefa876e8865a8b7a5c7b2b698a18c85e5b	2018-05-22 19:16:53	121.101.131.201	User Login	Sukses
780cbcefa876e8865a8b7a5c7b2b698a18c85e5b	2018-05-22 19:18:11	121.101.131.201	User Logout	Sukses
780cbcefa876e8865a8b7a5c7b2b698a18c85e5b	2018-05-22 19:18:15	121.101.131.201	User Login	Sukses
780cbcefa876e8865a8b7a5c7b2b698a18c85e5b	2018-05-22 19:18:47	121.101.131.201	User Logout	Sukses
2f24604c659f87c506b338358340100d8ffd143a	2018-05-22 19:18:58	121.101.131.201	User Login	Sukses
2f24604c659f87c506b338358340100d8ffd143a	2018-05-22 19:19:30	121.101.131.201	Mengomentari Kertas Kerja dengan ID 8988372a34ed887655d35edac973f1b1f85bdb81	Sukses
2f24604c659f87c506b338358340100d8ffd143a	2018-05-22 19:20:02	121.101.131.201	Mengomentari Kertas Kerja dengan ID cc83f1456fdd06ca2df20e2f00f19dbc94be9e42	Sukses
2f24604c659f87c506b338358340100d8ffd143a	2018-05-22 19:20:17	121.101.131.201	User Logout	Sukses
780cbcefa876e8865a8b7a5c7b2b698a18c85e5b	2018-05-22 19:20:21	121.101.131.201	User Login	Sukses
780cbcefa876e8865a8b7a5c7b2b698a18c85e5b	2018-05-22 19:24:07	121.101.131.201	Menambah Temuan No 2	Sukses
780cbcefa876e8865a8b7a5c7b2b698a18c85e5b	2018-05-22 19:25:21	121.101.131.201	Menambah Rekomendasi dengan ID 2b250bf5f452a9088ea37094a567b61bd2b5ac50	Sukses
780cbcefa876e8865a8b7a5c7b2b698a18c85e5b	2018-05-22 19:27:44	121.101.131.201	User Logout	Sukses
780cbcefa876e8865a8b7a5c7b2b698a18c85e5b	2018-05-22 19:27:53	121.101.131.201	User Login	Sukses
780cbcefa876e8865a8b7a5c7b2b698a18c85e5b	2018-05-22 19:27:57	121.101.131.201	User Logout	Sukses
41a01b7f8a96b3daa702f3e4b6af404683f91553	2018-05-22 19:28:01	121.101.131.201	User Login	Sukses
41a01b7f8a96b3daa702f3e4b6af404683f91553	2018-05-22 19:32:33	121.101.131.201	Menambah Temuan No 2	Sukses
41a01b7f8a96b3daa702f3e4b6af404683f91553	2018-05-22 19:33:45	121.101.131.201	Menambah Rekomendasi dengan ID e3e3600a0b93319b1f3cec5fe7fda21a8502d417	Sukses
41a01b7f8a96b3daa702f3e4b6af404683f91553	2018-05-22 19:34:07	121.101.131.201	User Logout	Sukses
780cbcefa876e8865a8b7a5c7b2b698a18c85e5b	2018-05-22 19:34:11	121.101.131.201	User Login	Sukses
0b5de27e6b064cb1628f135d4fbedc9081f45d67	2018-05-22 20:22:01	121.101.131.201	User Login	Sukses
cb13cb7f4f2984d2b477c7900dd3f93c623616da	2018-05-22 20:50:34	110.136.240.128	User Login	Sukses
bdae6159dc4d3f67b8d835461c3f4020c3e68999	2018-05-22 21:07:38	36.84.230.31	User Login	Sukses
bdae6159dc4d3f67b8d835461c3f4020c3e68999	2018-05-22 21:18:41	36.84.230.31	User Logout	Sukses
f759cbd951ebbb7c297b4e71042d5675ce7ca720	2018-05-22 21:43:19	150.107.136.18	User Login	Sukses
0b5de27e6b064cb1628f135d4fbedc9081f45d67	2018-05-22 21:46:02	121.101.131.201	Menambah Kertas Kerja Dengan ID d807ea041166e612904153007775f74f76282f84	Sukses
0b5de27e6b064cb1628f135d4fbedc9081f45d67	2018-05-22 21:47:08	121.101.131.201	Mengomentari Kertas Kerja dengan ID 70f96f06f0897c1a120e962ed0f1fe60f60982b5	Sukses
f759cbd951ebbb7c297b4e71042d5675ce7ca720	2018-05-22 22:07:40	150.107.136.18	Mengubah Kertas Kerja dengan ID 0c9b6c53a0f476e92a320bcb89a39483bc9d0f1f	Sukses
f759cbd951ebbb7c297b4e71042d5675ce7ca720	2018-05-22 22:09:02	150.107.136.18	Mengomentari Kertas Kerja dengan ID 0c9b6c53a0f476e92a320bcb89a39483bc9d0f1f	Sukses
f759cbd951ebbb7c297b4e71042d5675ce7ca720	2018-05-22 22:17:15	150.107.136.18	User Logout	Sukses
0b5de27e6b064cb1628f135d4fbedc9081f45d67	2018-05-22 22:23:06	121.101.131.201	User Logout	Sukses
